DEPTH = 8192;
WIDTH = 10;
ADDRESS_RADIX=DEC;
DATA_RADIX=BIN;
CONTENT
BEGIN
0000	:0000000000;
0001	:0100010101;
0002	:0100010101;
0003	:0100010101;
0004	:0100010101;
0005	:0100010101;
0006	:0100010101;
0007	:0100010101;
0008	:0100010101;
0009	:0100010101;
0010	:0100010101;
0011	:0000000000;
0012	:0000000000;
0013	:0000000000;
0014	:0000000000;
0015	:0000000000;
0016	:0000000000;
0017	:0101001001;
0018	:0101001001;
0019	:0101001001;
0020	:0101001001;
0021	:0000000000;
0022	:0000000000;
0023	:0000000000;
0024	:0000000000;
0025	:0100110111;
0026	:0100110111;
0027	:0100110111;
0028	:0100110111;
0029	:0000000000;
0030	:0000000000;
0031	:0000000000;
0032	:0000000000;
0033	:0000000000;
0034	:0000000000;
0035	:0000000000;
0036	:0000000000;
0037	:0000000000;
0038	:0000000000;
0039	:0000000000;
0040	:0000000000;
0041	:0000000000;
0042	:0011110110;
0043	:0011110110;
0044	:0011110110;
0045	:0011110110;
0046	:0011110110;
0047	:0011110110;
0048	:0011110110;
0049	:0011110110;
0050	:0011110110;
0051	:0011110110;
0052	:0000000000;
0053	:0000000000;
0054	:0000000000;
0055	:0000000000;
0056	:0000000000;
0057	:0000000000;
0058	:0000000000;
0059	:0100010101;
0060	:0100010101;
0061	:0100010101;
0062	:0100010101;
0063	:0100010101;
0064	:0100010101;
0065	:0100010101;
0066	:0100010101;
0067	:0100010101;
0068	:0100010101;
0069	:0000000000;
0070	:0000000000;
0071	:0000000000;
0072	:0000000000;
0073	:0000000000;
0074	:0000000000;
0075	:0100010101;
0076	:0100010101;
0077	:0100010101;
0078	:0100010101;
0079	:0000000000;
0080	:0000000000;
0081	:0000000000;
0082	:0000000000;
0083	:0101001001;
0084	:0101001001;
0085	:0101001001;
0086	:0101001001;
0087	:0101001001;
0088	:0000000000;
0089	:0000000000;
0090	:0000000000;
0091	:0000000000;
0092	:0100110111;
0093	:0100110111;
0094	:0100110111;
0095	:0100110111;
0096	:0000000000;
0097	:0000000000;
0098	:0000000000;
0099	:0000000000;
0100	:0000000000;
0101	:0000000000;
0102	:0000000000;
0103	:0000000000;
0104	:0000000000;
0105	:0000000000;
0106	:0000000000;
0107	:0000000000;
0108	:0011110110;
0109	:0011110110;
0110	:0011110110;
0111	:0011110110;
0112	:0011110110;
0113	:0011110110;
0114	:0011110110;
0115	:0011110110;
0116	:0011110110;
0117	:0011110110;
0118	:0011110110;
0119	:0000000000;
0120	:0000000000;
0121	:0000000000;
0122	:0000000000;
0123	:0000000000;
0124	:0000000000;
0125	:0000000000;
0126	:0000000000;
0127	:0000000000;
0128	:0000000000;
0129	:0000000000;
0130	:0000000000;
0131	:0000000000;
0132	:0000000000;
0133	:0011001111;
0134	:0011001111;
0135	:0011001111;
0136	:0011001111;
0137	:0011001111;
0138	:0011001111;
0139	:0011001111;
0140	:0011001111;
0141	:0011001111;
0142	:0011001111;
0143	:0000000000;
0144	:0000000000;
0145	:0000000000;
0146	:0000000000;
0147	:0000000000;
0148	:0000000000;
0149	:0000000000;
0150	:0010100100;
0151	:0010100100;
0152	:0010100100;
0153	:0010100100;
0154	:0010100100;
0155	:0010100100;
0156	:0000000000;
0157	:0000000000;
0158	:0010111000;
0159	:0010111000;
0160	:0010111000;
0161	:0010111000;
0162	:0010111000;
0163	:0010111000;
0164	:0010111000;
0165	:0010111000;
0166	:0010111000;
0167	:0010111000;
0168	:0010111000;
0169	:0010111000;
0170	:0010111000;
0171	:0000000000;
0172	:0000000000;
0173	:0000000000;
0174	:0000000000;
0175	:0010011011;
0176	:0010011011;
0177	:0010011011;
0178	:0010011011;
0179	:0010011011;
0180	:0010011011;
0181	:0010011011;
0182	:0010011011;
0183	:0010011011;
0184	:0010011011;
0185	:0010011011;
0186	:0010011011;
0187	:0000000000;
0188	:0000000000;
0189	:0000000000;
0190	:0000000000;
0191	:0010100100;
0192	:0010100100;
0193	:0010100100;
0194	:0010100100;
0195	:0010100100;
0196	:0010100100;
0197	:0010100100;
0198	:0010100100;
0199	:0010100100;
0200	:0010100100;
0201	:0010100100;
0202	:0010100100;
0203	:0010100100;
0204	:0010100100;
0205	:0000000000;
0206	:0000000000;
0207	:0000000000;
0208	:0010001010;
0209	:0010001010;
0210	:0010001010;
0211	:0010001010;
0212	:0010001010;
0213	:0010001010;
0214	:0010001010;
0215	:0010001010;
0216	:0010001010;
0217	:0010001010;
0218	:0010001010;
0219	:0010001010;
0220	:0010001010;
0221	:0010001010;
0222	:0000000000;
0223	:0000000000;
0224	:0010011011;
0225	:0010011011;
0226	:0010011011;
0227	:0010011011;
0228	:0010011011;
0229	:0010011011;
0230	:0010011011;
0231	:0010011011;
0232	:0010011011;
0233	:0010011011;
0234	:0010011011;
0235	:0010011011;
0236	:0010011011;
0237	:0000000000;
0238	:0000000000;
0239	:0000000000;
0240	:0000000000;
0241	:0001111011;
0242	:0001111011;
0243	:0001111011;
0244	:0001111011;
0245	:0001111011;
0246	:0001111011;
0247	:0001111011;
0248	:0001111011;
0249	:0001111011;
0250	:0001111011;
0251	:0001111011;
0252	:0001111011;
0253	:0001111011;
0254	:0001111011;
0255	:0001111011;
0256	:0001111011;
0257	:0001111011;
0258	:0001111011;
0259	:0001111011;
0260	:0000000000;
0261	:0000000000;
0262	:0000000000;
0263	:0000000000;
0264	:0000000000;
0265	:0000000000;
0266	:0011001111;
0267	:0011001111;
0268	:0011001111;
0269	:0011001111;
0270	:0011001111;
0271	:0011001111;
0272	:0011001111;
0273	:0011001111;
0274	:0011001111;
0275	:0000000000;
0276	:0000000000;
0277	:0000000000;
0278	:0000000000;
0279	:0000000000;
0280	:0000000000;
0281	:0000000000;
0282	:0010100100;
0283	:0010100100;
0284	:0010100100;
0285	:0010100100;
0286	:0010100100;
0287	:0010100100;
0288	:0010100100;
0289	:0000000000;
0290	:0000000000;
0291	:0010111000;
0292	:0010111000;
0293	:0010111000;
0294	:0010111000;
0295	:0010111000;
0296	:0010111000;
0297	:0010111000;
0298	:0010111000;
0299	:0010111000;
0300	:0010111000;
0301	:0010111000;
0302	:0010111000;
0303	:0010111000;
0304	:0000000000;
0305	:0000000000;
0306	:0000000000;
0307	:0010011011;
0308	:0010011011;
0309	:0010011011;
0310	:0010011011;
0311	:0010011011;
0312	:0010011011;
0313	:0010011011;
0314	:0010011011;
0315	:0010011011;
0316	:0010011011;
0317	:0010011011;
0318	:0010011011;
0319	:0000000000;
0320	:0000000000;
0321	:0000000000;
0322	:0000000000;
0323	:0000000000;
0324	:0010100100;
0325	:0010100100;
0326	:0010100100;
0327	:0010100100;
0328	:0010100100;
0329	:0010100100;
0330	:0010100100;
0331	:0010100100;
0332	:0010100100;
0333	:0010100100;
0334	:0010100100;
0335	:0010100100;
0336	:0010100100;
0337	:0010100100;
0338	:0000000000;
0339	:0000000000;
0340	:0010011011;
0341	:0010011011;
0342	:0010011011;
0343	:0010011011;
0344	:0010011011;
0345	:0010011011;
0346	:0010011011;
0347	:0010011011;
0348	:0010011011;
0349	:0010011011;
0350	:0010011011;
0351	:0010011011;
0352	:0010011011;
0353	:0010011011;
0354	:0000000000;
0355	:0000000000;
0356	:0000000000;
0357	:0010001010;
0358	:0010001010;
0359	:0010001010;
0360	:0010001010;
0361	:0010001010;
0362	:0010001010;
0363	:0010001010;
0364	:0010001010;
0365	:0010001010;
0366	:0010001010;
0367	:0010001010;
0368	:0010001010;
0369	:0010001010;
0370	:0000000000;
0371	:0000000000;
0372	:0000000000;
0373	:0000000000;
0374	:0001111011;
0375	:0001111011;
0376	:0001111011;
0377	:0001111011;
0378	:0001111011;
0379	:0001111011;
0380	:0001111011;
0381	:0001111011;
0382	:0001111011;
0383	:0001111011;
0384	:0001111011;
0385	:0001111011;
0386	:0001111011;
0387	:0001111011;
0388	:0001111011;
0389	:0001111011;
0390	:0001111011;
0391	:0001111011;
0392	:0001111011;
0393	:0000000000;
0394	:0000000000;
0395	:0000000000;
0396	:0000000000;
0397	:0000000000;
0398	:0011110110;
0399	:0011110110;
0400	:0011110110;
0401	:0011110110;
0402	:0011110110;
0403	:0011110110;
0404	:0011110110;
0405	:0011110110;
0406	:0011110110;
0407	:0011110110;
0408	:0000000000;
0409	:0000000000;
0410	:0000000000;
0411	:0000000000;
0412	:0000000000;
0413	:0000000000;
0414	:0000000000;
0415	:0011000011;
0416	:0011000011;
0417	:0011000011;
0418	:0011000011;
0419	:0011000011;
0420	:0011000011;
0421	:0000000000;
0422	:0000000000;
0423	:0011011100;
0424	:0011011100;
0425	:0011011100;
0426	:0011011100;
0427	:0011011100;
0428	:0011011100;
0429	:0011011100;
0430	:0011011100;
0431	:0011011100;
0432	:0011011100;
0433	:0011011100;
0434	:0011011100;
0435	:0011011100;
0436	:0000000000;
0437	:0000000000;
0438	:0000000000;
0439	:0000000000;
0440	:0010111000;
0441	:0010111000;
0442	:0010111000;
0443	:0010111000;
0444	:0010111000;
0445	:0010111000;
0446	:0010111000;
0447	:0010111000;
0448	:0010111000;
0449	:0010111000;
0450	:0010111000;
0451	:0010111000;
0452	:0000000000;
0453	:0000000000;
0454	:0000000000;
0455	:0000000000;
0456	:0000000000;
0457	:0011000011;
0458	:0011000011;
0459	:0011000011;
0460	:0011000011;
0461	:0011000011;
0462	:0011000011;
0463	:0011000011;
0464	:0011000011;
0465	:0011000011;
0466	:0011000011;
0467	:0011000011;
0468	:0011000011;
0469	:0011000011;
0470	:0011000011;
0471	:0000000000;
0472	:0000000000;
0473	:0010100100;
0474	:0010100100;
0475	:0010100100;
0476	:0010100100;
0477	:0010100100;
0478	:0010100100;
0479	:0010100100;
0480	:0010100100;
0481	:0010100100;
0482	:0010100100;
0483	:0010100100;
0484	:0010100100;
0485	:0010100100;
0486	:0010100100;
0487	:0000000000;
0488	:0000000000;
0489	:0000000000;
0490	:0010111000;
0491	:0010111000;
0492	:0010111000;
0493	:0010111000;
0494	:0010111000;
0495	:0010111000;
0496	:0010111000;
0497	:0010111000;
0498	:0010111000;
0499	:0010111000;
0500	:0010111000;
0501	:0010111000;
0502	:0000000000;
0503	:0000000000;
0504	:0000000000;
0505	:0000000000;
0506	:0010010010;
0507	:0010010010;
0508	:0010010010;
0509	:0010010010;
0510	:0010010010;
0511	:0010010010;
0512	:0010010010;
0513	:0010010010;
0514	:0010010010;
0515	:0010010010;
0516	:0010010010;
0517	:0010010010;
0518	:0010010010;
0519	:0010010010;
0520	:0010010010;
0521	:0010010010;
0522	:0010010010;
0523	:0010010010;
0524	:0010010010;
0525	:0000000000;
0526	:0000000000;
0527	:0000000000;
0528	:0000000000;
0529	:0000000000;
0530	:0000000000;
0531	:0011110110;
0532	:0011110110;
0533	:0011110110;
0534	:0011110110;
0535	:0011110110;
0536	:0011110110;
0537	:0011110110;
0538	:0011110110;
0539	:0011110110;
0540	:0011110110;
0541	:0000000000;
0542	:0000000000;
0543	:0000000000;
0544	:0000000000;
0545	:0000000000;
0546	:0000000000;
0547	:0000000000;
0548	:0011000011;
0549	:0011000011;
0550	:0011000011;
0551	:0011000011;
0552	:0011000011;
0553	:0011000011;
0554	:0000000000;
0555	:0000000000;
0556	:0011011100;
0557	:0011011100;
0558	:0011011100;
0559	:0011011100;
0560	:0011011100;
0561	:0011011100;
0562	:0011011100;
0563	:0011011100;
0564	:0011011100;
0565	:0011011100;
0566	:0011011100;
0567	:0011011100;
0568	:0011011100;
0569	:0000000000;
0570	:0000000000;
0571	:0000000000;
0572	:0000000000;
0573	:0010111000;
0574	:0010111000;
0575	:0010111000;
0576	:0010111000;
0577	:0010111000;
0578	:0010111000;
0579	:0010111000;
0580	:0010111000;
0581	:0010111000;
0582	:0010111000;
0583	:0010111000;
0584	:0010111000;
0585	:0000000000;
0586	:0000000000;
0587	:0000000000;
0588	:0000000000;
0589	:0011000011;
0590	:0011000011;
0591	:0011000011;
0592	:0011000011;
0593	:0011000011;
0594	:0011000011;
0595	:0011000011;
0596	:0011000011;
0597	:0011000011;
0598	:0011000011;
0599	:0011000011;
0600	:0011000011;
0601	:0011000011;
0602	:0011000011;
0603	:0000000000;
0604	:0000000000;
0605	:0000000000;
0606	:0010111000;
0607	:0010111000;
0608	:0010111000;
0609	:0010111000;
0610	:0010111000;
0611	:0010111000;
0612	:0010111000;
0613	:0010111000;
0614	:0010111000;
0615	:0010111000;
0616	:0010111000;
0617	:0010111000;
0618	:0010111000;
0619	:0010111000;
0620	:0000000000;
0621	:0000000000;
0622	:0010100100;
0623	:0010100100;
0624	:0010100100;
0625	:0010100100;
0626	:0010100100;
0627	:0010100100;
0628	:0010100100;
0629	:0010100100;
0630	:0010100100;
0631	:0010100100;
0632	:0010100100;
0633	:0010100100;
0634	:0010100100;
0635	:0000000000;
0636	:0000000000;
0637	:0000000000;
0638	:0000000000;
0639	:0010011011;
0640	:0010011011;
0641	:0010011011;
0642	:0010011011;
0643	:0010011011;
0644	:0010011011;
0645	:0010011011;
0646	:0010011011;
0647	:0010011011;
0648	:0010011011;
0649	:0010011011;
0650	:0010011011;
0651	:0010011011;
0652	:0010011011;
0653	:0010011011;
0654	:0010011011;
0655	:0010011011;
0656	:0010011011;
0657	:0010011011;
0658	:0000000000;
0659	:0000000000;
0660	:0000000000;
0661	:0000000000;
0662	:0000000000;
0663	:0000000000;
0664	:0001010010;
0665	:0001010010;
0666	:0001010010;
0667	:0001010010;
0668	:0001010010;
0669	:0001010010;
0670	:0001010010;
0671	:0000000000;
0672	:0001101110;
0673	:0001101110;
0674	:0001101110;
0675	:0001101110;
0676	:0001101110;
0677	:0000000000;
0678	:0000000000;
0679	:0000000000;
0680	:0010010010;
0681	:0010010010;
0682	:0010010010;
0683	:0010010010;
0684	:0010010010;
0685	:0000000000;
0686	:0000000000;
0687	:0000000000;
0688	:0000000000;
0689	:0011000011;
0690	:0011000011;
0691	:0011000011;
0692	:0011000011;
0693	:0000000000;
0694	:0000000000;
0695	:0000000000;
0696	:0000000000;
0697	:0010011011;
0698	:0010011011;
0699	:0010011011;
0700	:0010011011;
0701	:0010011011;
0702	:0000000000;
0703	:0000000000;
0704	:0000000000;
0705	:0001110100;
0706	:0001110100;
0707	:0001110100;
0708	:0001110100;
0709	:0001110100;
0710	:0000000000;
0711	:0000000000;
0712	:0000000000;
0713	:0000000000;
0714	:0001011100;
0715	:0001011100;
0716	:0001011100;
0717	:0001011100;
0718	:0000000000;
0719	:0000000000;
0720	:0000000000;
0721	:0000000000;
0722	:0001000101;
0723	:0001000101;
0724	:0001000101;
0725	:0001000101;
0726	:0000000000;
0727	:0000000000;
0728	:0000000000;
0729	:0000000000;
0730	:0010011011;
0731	:0010011011;
0732	:0010011011;
0733	:0010011011;
0734	:0010011011;
0735	:0010011011;
0736	:0010011011;
0737	:0010011011;
0738	:0010011011;
0739	:0010011011;
0740	:0010011011;
0741	:0010011011;
0742	:0010011011;
0743	:0010011011;
0744	:0000000000;
0745	:0000000000;
0746	:0000000000;
0747	:0001111011;
0748	:0001111011;
0749	:0001111011;
0750	:0001111011;
0751	:0001111011;
0752	:0001111011;
0753	:0000000000;
0754	:0000000000;
0755	:0010001010;
0756	:0010001010;
0757	:0010001010;
0758	:0010001010;
0759	:0010001010;
0760	:0010001010;
0761	:0010001010;
0762	:0010001010;
0763	:0010001010;
0764	:0010001010;
0765	:0010001010;
0766	:0010001010;
0767	:0010001010;
0768	:0000000000;
0769	:0000000000;
0770	:0000000000;
0771	:0000000000;
0772	:0001110100;
0773	:0001110100;
0774	:0001110100;
0775	:0001110100;
0776	:0001110100;
0777	:0001110100;
0778	:0001110100;
0779	:0001110100;
0780	:0001110100;
0781	:0001110100;
0782	:0001110100;
0783	:0001110100;
0784	:0001110100;
0785	:0000000000;
0786	:0000000000;
0787	:0000000000;
0788	:0001111011;
0789	:0001111011;
0790	:0001111011;
0791	:0001111011;
0792	:0001111011;
0793	:0001111011;
0794	:0001111011;
0795	:0001111011;
0796	:0001111011;
0797	:0001111011;
0798	:0001111011;
0799	:0001111011;
0800	:0001111011;
0801	:0001111011;
0802	:0000000000;
0803	:0000000000;
0804	:0000000000;
0805	:0001100111;
0806	:0001100111;
0807	:0001100111;
0808	:0001100111;
0809	:0001100111;
0810	:0001100111;
0811	:0001100111;
0812	:0001100111;
0813	:0001100111;
0814	:0001100111;
0815	:0001100111;
0816	:0001100111;
0817	:0001100111;
0818	:0001100111;
0819	:0000000000;
0820	:0000000000;
0821	:0001110100;
0822	:0001110100;
0823	:0001110100;
0824	:0001110100;
0825	:0001110100;
0826	:0001110100;
0827	:0001110100;
0828	:0001110100;
0829	:0001110100;
0830	:0001110100;
0831	:0001110100;
0832	:0001110100;
0833	:0001110100;
0834	:0001110100;
0835	:0000000000;
0836	:0000000000;
0837	:0000000000;
0838	:0001011100;
0839	:0001011100;
0840	:0001011100;
0841	:0001011100;
0842	:0001011100;
0843	:0001011100;
0844	:0001011100;
0845	:0001011100;
0846	:0001011100;
0847	:0001011100;
0848	:0001011100;
0849	:0001011100;
0850	:0001011100;
0851	:0001011100;
0852	:0001011100;
0853	:0001011100;
0854	:0001011100;
0855	:0001011100;
0856	:0001011100;
0857	:0001011100;
0858	:0001011100;
0859	:0001011100;
0860	:0000000000;
0861	:0000000000;
0862	:0000000000;
0863	:0010011011;
0864	:0010011011;
0865	:0010011011;
0866	:0010011011;
0867	:0010011011;
0868	:0010011011;
0869	:0010011011;
0870	:0010011011;
0871	:0010011011;
0872	:0010011011;
0873	:0010011011;
0874	:0010011011;
0875	:0010011011;
0876	:0000000000;
0877	:0000000000;
0878	:0000000000;
0879	:0001111011;
0880	:0001111011;
0881	:0001111011;
0882	:0001111011;
0883	:0001111011;
0884	:0001111011;
0885	:0001111011;
0886	:0000000000;
0887	:0000000000;
0888	:0010001010;
0889	:0010001010;
0890	:0010001010;
0891	:0010001010;
0892	:0010001010;
0893	:0010001010;
0894	:0010001010;
0895	:0010001010;
0896	:0010001010;
0897	:0010001010;
0898	:0010001010;
0899	:0010001010;
0900	:0010001010;
0901	:0000000000;
0902	:0000000000;
0903	:0000000000;
0904	:0001110100;
0905	:0001110100;
0906	:0001110100;
0907	:0001110100;
0908	:0001110100;
0909	:0001110100;
0910	:0001110100;
0911	:0001110100;
0912	:0001110100;
0913	:0001110100;
0914	:0001110100;
0915	:0001110100;
0916	:0001110100;
0917	:0001110100;
0918	:0000000000;
0919	:0000000000;
0920	:0000000000;
0921	:0001111011;
0922	:0001111011;
0923	:0001111011;
0924	:0001111011;
0925	:0001111011;
0926	:0001111011;
0927	:0001111011;
0928	:0001111011;
0929	:0001111011;
0930	:0001111011;
0931	:0001111011;
0932	:0001111011;
0933	:0001111011;
0934	:0001111011;
0935	:0000000000;
0936	:0000000000;
0937	:0001110100;
0938	:0001110100;
0939	:0001110100;
0940	:0001110100;
0941	:0001110100;
0942	:0001110100;
0943	:0001110100;
0944	:0001110100;
0945	:0001110100;
0946	:0001110100;
0947	:0001110100;
0948	:0001110100;
0949	:0001110100;
0950	:0001110100;
0951	:0000000000;
0952	:0000000000;
0953	:0000000000;
0954	:0001100111;
0955	:0001100111;
0956	:0001100111;
0957	:0001100111;
0958	:0001100111;
0959	:0001100111;
0960	:0001100111;
0961	:0001100111;
0962	:0001100111;
0963	:0001100111;
0964	:0001100111;
0965	:0001100111;
0966	:0001100111;
0967	:0000000000;
0968	:0000000000;
0969	:0000000000;
0970	:0000000000;
0971	:0001011100;
0972	:0001011100;
0973	:0001011100;
0974	:0001011100;
0975	:0001011100;
0976	:0001011100;
0977	:0001011100;
0978	:0001011100;
0979	:0001011100;
0980	:0001011100;
0981	:0001011100;
0982	:0001011100;
0983	:0001011100;
0984	:0001011100;
0985	:0001011100;
0986	:0001011100;
0987	:0001011100;
0988	:0001011100;
0989	:0001011100;
0990	:0001011100;
0991	:0001011100;
0992	:0000000000;
0993	:0000000000;
0994	:0000000000;
0995	:0010011011;
0996	:0010011011;
0997	:0010011011;
0998	:0010011011;
0999	:0010011011;
1000	:0010011011;
1001	:0010011011;
1002	:0010011011;
1003	:0010011011;
1004	:0010011011;
1005	:0010011011;
1006	:0010011011;
1007	:0010011011;
1008	:0010011011;
1009	:0000000000;
1010	:0000000000;
1011	:0000000000;
1012	:0001111011;
1013	:0001111011;
1014	:0001111011;
1015	:0001111011;
1016	:0001111011;
1017	:0001111011;
1018	:0000000000;
1019	:0000000000;
1020	:0010001010;
1021	:0010001010;
1022	:0010001010;
1023	:0010001010;
1024	:0010001010;
1025	:0010001010;
1026	:0010001010;
1027	:0010001010;
1028	:0010001010;
1029	:0010001010;
1030	:0010001010;
1031	:0010001010;
1032	:0010001010;
1033	:0010001010;
1034	:0000000000;
1035	:0000000000;
1036	:0000000000;
1037	:0001110100;
1038	:0001110100;
1039	:0001110100;
1040	:0001110100;
1041	:0001110100;
1042	:0001110100;
1043	:0001110100;
1044	:0001110100;
1045	:0001110100;
1046	:0001110100;
1047	:0001110100;
1048	:0001110100;
1049	:0001110100;
1050	:0000000000;
1051	:0000000000;
1052	:0000000000;
1053	:0001111011;
1054	:0001111011;
1055	:0001111011;
1056	:0001111011;
1057	:0001111011;
1058	:0001111011;
1059	:0001111011;
1060	:0001111011;
1061	:0001111011;
1062	:0001111011;
1063	:0001111011;
1064	:0001111011;
1065	:0001111011;
1066	:0001111011;
1067	:0001111011;
1068	:0000000000;
1069	:0000000000;
1070	:0001100111;
1071	:0001100111;
1072	:0001100111;
1073	:0001100111;
1074	:0001100111;
1075	:0001100111;
1076	:0001100111;
1077	:0001100111;
1078	:0001100111;
1079	:0001100111;
1080	:0001100111;
1081	:0001100111;
1082	:0001100111;
1083	:0001100111;
1084	:0000000000;
1085	:0000000000;
1086	:0000000000;
1087	:0001110100;
1088	:0001110100;
1089	:0001110100;
1090	:0001110100;
1091	:0001110100;
1092	:0001110100;
1093	:0001110100;
1094	:0001110100;
1095	:0001110100;
1096	:0001110100;
1097	:0001110100;
1098	:0001110100;
1099	:0001110100;
1100	:0000000000;
1101	:0000000000;
1102	:0000000000;
1103	:0001011100;
1104	:0001011100;
1105	:0001011100;
1106	:0001011100;
1107	:0001011100;
1108	:0001011100;
1109	:0001011100;
1110	:0001011100;
1111	:0001011100;
1112	:0001011100;
1113	:0001011100;
1114	:0001011100;
1115	:0001011100;
1116	:0001011100;
1117	:0001011100;
1118	:0001011100;
1119	:0001011100;
1120	:0001011100;
1121	:0001011100;
1122	:0001011100;
1123	:0001011100;
1124	:0001011100;
1125	:0000000000;
1126	:0000000000;
1127	:0000000000;
1128	:0010011011;
1129	:0010011011;
1130	:0010011011;
1131	:0010011011;
1132	:0010011011;
1133	:0010011011;
1134	:0010011011;
1135	:0010011011;
1136	:0010011011;
1137	:0010011011;
1138	:0010011011;
1139	:0010011011;
1140	:0010011011;
1141	:0010011011;
1142	:0000000000;
1143	:0000000000;
1144	:0000000000;
1145	:0001111011;
1146	:0001111011;
1147	:0001111011;
1148	:0001111011;
1149	:0001111011;
1150	:0001111011;
1151	:0000000000;
1152	:0000000000;
1153	:0010001010;
1154	:0010001010;
1155	:0010001010;
1156	:0010001010;
1157	:0010001010;
1158	:0010001010;
1159	:0010001010;
1160	:0010001010;
1161	:0010001010;
1162	:0010001010;
1163	:0010001010;
1164	:0010001010;
1165	:0010001010;
1166	:0000000000;
1167	:0000000000;
1168	:0000000000;
1169	:0000000000;
1170	:0001110100;
1171	:0001110100;
1172	:0001110100;
1173	:0001110100;
1174	:0001110100;
1175	:0001110100;
1176	:0001110100;
1177	:0001110100;
1178	:0001110100;
1179	:0001110100;
1180	:0001110100;
1181	:0001110100;
1182	:0001110100;
1183	:0000000000;
1184	:0000000000;
1185	:0000000000;
1186	:0001111011;
1187	:0001111011;
1188	:0001111011;
1189	:0001111011;
1190	:0001111011;
1191	:0001111011;
1192	:0001111011;
1193	:0001111011;
1194	:0001111011;
1195	:0001111011;
1196	:0001111011;
1197	:0001111011;
1198	:0001111011;
1199	:0001111011;
1200	:0000000000;
1201	:0000000000;
1202	:0000000000;
1203	:0001110100;
1204	:0001110100;
1205	:0001110100;
1206	:0001110100;
1207	:0001110100;
1208	:0001110100;
1209	:0001110100;
1210	:0001110100;
1211	:0001110100;
1212	:0001110100;
1213	:0001110100;
1214	:0001110100;
1215	:0001110100;
1216	:0001110100;
1217	:0000000000;
1218	:0000000000;
1219	:0001100111;
1220	:0001100111;
1221	:0001100111;
1222	:0001100111;
1223	:0001100111;
1224	:0001100111;
1225	:0001100111;
1226	:0001100111;
1227	:0001100111;
1228	:0001100111;
1229	:0001100111;
1230	:0001100111;
1231	:0001100111;
1232	:0001100111;
1233	:0000000000;
1234	:0000000000;
1235	:0000000000;
1236	:0001011100;
1237	:0001011100;
1238	:0001011100;
1239	:0001011100;
1240	:0001011100;
1241	:0001011100;
1242	:0000000000;
1243	:0000000000;
1244	:0001100111;
1245	:0001100111;
1246	:0000000000;
1247	:0000000000;
1248	:0001110100;
1249	:0001110100;
1250	:0000000000;
1251	:0000000000;
1252	:0001111011;
1253	:0001111011;
1254	:0000000000;
1255	:0000000000;
1256	:0000000000;
1257	:0010001010;
1258	:0000000000;
1259	:0000000000;
1260	:0000000000;
1261	:0010011011;
1262	:0010011011;
1263	:0010011011;
1264	:0010011011;
1265	:0010011011;
1266	:0010011011;
1267	:0010011011;
1268	:0010011011;
1269	:0010011011;
1270	:0010011011;
1271	:0010011011;
1272	:0010011011;
1273	:0010011011;
1274	:0000000000;
1275	:0000000000;
1276	:0000000000;
1277	:0001111011;
1278	:0001111011;
1279	:0001111011;
1280	:0001111011;
1281	:0001111011;
1282	:0001111011;
1283	:0001111011;
1284	:0000000000;
1285	:0000000000;
1286	:0010001010;
1287	:0010001010;
1288	:0010001010;
1289	:0010001010;
1290	:0010001010;
1291	:0010001010;
1292	:0010001010;
1293	:0010001010;
1294	:0010001010;
1295	:0010001010;
1296	:0010001010;
1297	:0010001010;
1298	:0010001010;
1299	:0000000000;
1300	:0000000000;
1301	:0000000000;
1302	:0001110100;
1303	:0001110100;
1304	:0001110100;
1305	:0001110100;
1306	:0001110100;
1307	:0001110100;
1308	:0001110100;
1309	:0001110100;
1310	:0001110100;
1311	:0001110100;
1312	:0001110100;
1313	:0001110100;
1314	:0001110100;
1315	:0001110100;
1316	:0000000000;
1317	:0000000000;
1318	:0000000000;
1319	:0001111011;
1320	:0001111011;
1321	:0001111011;
1322	:0001111011;
1323	:0001111011;
1324	:0001111011;
1325	:0001111011;
1326	:0001111011;
1327	:0001111011;
1328	:0001111011;
1329	:0001111011;
1330	:0001111011;
1331	:0001111011;
1332	:0001111011;
1333	:0000000000;
1334	:0000000000;
1335	:0001100111;
1336	:0001100111;
1337	:0001100111;
1338	:0001100111;
1339	:0001100111;
1340	:0001100111;
1341	:0001100111;
1342	:0001100111;
1343	:0001100111;
1344	:0001100111;
1345	:0001100111;
1346	:0001100111;
1347	:0001100111;
1348	:0001100111;
1349	:0000000000;
1350	:0000000000;
1351	:0000000000;
1352	:0001110100;
1353	:0001110100;
1354	:0001110100;
1355	:0001110100;
1356	:0001110100;
1357	:0001110100;
1358	:0001110100;
1359	:0001110100;
1360	:0001110100;
1361	:0001110100;
1362	:0001110100;
1363	:0001110100;
1364	:0001110100;
1365	:0000000000;
1366	:0000000000;
1367	:0000000000;
1368	:0000000000;
1369	:0001011100;
1370	:0001011100;
1371	:0001011100;
1372	:0001011100;
1373	:0001011100;
1374	:0001011100;
1375	:0001011100;
1376	:0001011100;
1377	:0001011100;
1378	:0001011100;
1379	:0001011100;
1380	:0001011100;
1381	:0001011100;
1382	:0001011100;
1383	:0001011100;
1384	:0001011100;
1385	:0001011100;
1386	:0001011100;
1387	:0001011100;
1388	:0001011100;
1389	:0001011100;
1390	:0000000000;
1391	:0000000000;
1392	:0000000000;
1393	:0010011011;
1394	:0010011011;
1395	:0010011011;
1396	:0010011011;
1397	:0010011011;
1398	:0010011011;
1399	:0010011011;
1400	:0010011011;
1401	:0010011011;
1402	:0010011011;
1403	:0010011011;
1404	:0010011011;
1405	:0010011011;
1406	:0010011011;
1407	:0000000000;
1408	:0000000000;
1409	:0000000000;
1410	:0001111011;
1411	:0001111011;
1412	:0001111011;
1413	:0001111011;
1414	:0001111011;
1415	:0001111011;
1416	:0000000000;
1417	:0000000000;
1418	:0010001010;
1419	:0010001010;
1420	:0010001010;
1421	:0010001010;
1422	:0010001010;
1423	:0010001010;
1424	:0010001010;
1425	:0010001010;
1426	:0010001010;
1427	:0010001010;
1428	:0010001010;
1429	:0010001010;
1430	:0010001010;
1431	:0010001010;
1432	:0000000000;
1433	:0000000000;
1434	:0000000000;
1435	:0001110100;
1436	:0001110100;
1437	:0001110100;
1438	:0001110100;
1439	:0001110100;
1440	:0001110100;
1441	:0001110100;
1442	:0001110100;
1443	:0001110100;
1444	:0001110100;
1445	:0001110100;
1446	:0001110100;
1447	:0001110100;
1448	:0000000000;
1449	:0000000000;
1450	:0000000000;
1451	:0001111011;
1452	:0001111011;
1453	:0001111011;
1454	:0001111011;
1455	:0001111011;
1456	:0001111011;
1457	:0001111011;
1458	:0001111011;
1459	:0001111011;
1460	:0001111011;
1461	:0001111011;
1462	:0001111011;
1463	:0001111011;
1464	:0001111011;
1465	:0000000000;
1466	:0000000000;
1467	:0000000000;
1468	:0001110100;
1469	:0001110100;
1470	:0001110100;
1471	:0001110100;
1472	:0001110100;
1473	:0001110100;
1474	:0001110100;
1475	:0001110100;
1476	:0001110100;
1477	:0001110100;
1478	:0001110100;
1479	:0001110100;
1480	:0001110100;
1481	:0001110100;
1482	:0000000000;
1483	:0000000000;
1484	:0000000000;
1485	:0001100111;
1486	:0001100111;
1487	:0001100111;
1488	:0001100111;
1489	:0001100111;
1490	:0001100111;
1491	:0001100111;
1492	:0001100111;
1493	:0001100111;
1494	:0001100111;
1495	:0001100111;
1496	:0001100111;
1497	:0001100111;
1498	:0000000000;
1499	:0000000000;
1500	:0000000000;
1501	:0001011100;
1502	:0001011100;
1503	:0001011100;
1504	:0001011100;
1505	:0001011100;
1506	:0001011100;
1507	:0001011100;
1508	:0001011100;
1509	:0001011100;
1510	:0001011100;
1511	:0001011100;
1512	:0001011100;
1513	:0001011100;
1514	:0001011100;
1515	:0001011100;
1516	:0001011100;
1517	:0001011100;
1518	:0001011100;
1519	:0001011100;
1520	:0001011100;
1521	:0001011100;
1522	:0001011100;
1523	:0000000000;
1524	:0000000000;
1525	:0000000000;
1526	:0010011011;
1527	:0010011011;
1528	:0010011011;
1529	:0010011011;
1530	:0010011011;
1531	:0010011011;
1532	:0010011011;
1533	:0010011011;
1534	:0010011011;
1535	:0010011011;
1536	:0010011011;
1537	:0010011011;
1538	:0010011011;
1539	:0000000000;
1540	:0000000000;
1541	:0000000000;
1542	:0000000000;
1543	:0001111011;
1544	:0001111011;
1545	:0001111011;
1546	:0001111011;
1547	:0001111011;
1548	:0001111011;
1549	:0000000000;
1550	:0000000000;
1551	:0010001010;
1552	:0010001010;
1553	:0010001010;
1554	:0010001010;
1555	:0010001010;
1556	:0010001010;
1557	:0010001010;
1558	:0010001010;
1559	:0010001010;
1560	:0010001010;
1561	:0010001010;
1562	:0010001010;
1563	:0010001010;
1564	:0000000000;
1565	:0000000000;
1566	:0000000000;
1567	:0001110100;
1568	:0001110100;
1569	:0001110100;
1570	:0001110100;
1571	:0001110100;
1572	:0001110100;
1573	:0001110100;
1574	:0001110100;
1575	:0001110100;
1576	:0001110100;
1577	:0001110100;
1578	:0001110100;
1579	:0001110100;
1580	:0001110100;
1581	:0000000000;
1582	:0000000000;
1583	:0000000000;
1584	:0001111011;
1585	:0001111011;
1586	:0001111011;
1587	:0001111011;
1588	:0001111011;
1589	:0001111011;
1590	:0001111011;
1591	:0001111011;
1592	:0001111011;
1593	:0001111011;
1594	:0001111011;
1595	:0001111011;
1596	:0001111011;
1597	:0001111011;
1598	:0000000000;
1599	:0000000000;
1600	:0000000000;
1601	:0001100111;
1602	:0001100111;
1603	:0001100111;
1604	:0001100111;
1605	:0001100111;
1606	:0001100111;
1607	:0001100111;
1608	:0001100111;
1609	:0001100111;
1610	:0001100111;
1611	:0001100111;
1612	:0001100111;
1613	:0001100111;
1614	:0001100111;
1615	:0000000000;
1616	:0000000000;
1617	:0001110100;
1618	:0001110100;
1619	:0001110100;
1620	:0001110100;
1621	:0001110100;
1622	:0001110100;
1623	:0001110100;
1624	:0001110100;
1625	:0001110100;
1626	:0001110100;
1627	:0001110100;
1628	:0001110100;
1629	:0001110100;
1630	:0001110100;
1631	:0000000000;
1632	:0000000000;
1633	:0000000000;
1634	:0001011100;
1635	:0001011100;
1636	:0001011100;
1637	:0001011100;
1638	:0001011100;
1639	:0001011100;
1640	:0001011100;
1641	:0001011100;
1642	:0001011100;
1643	:0001011100;
1644	:0001011100;
1645	:0001011100;
1646	:0001011100;
1647	:0001011100;
1648	:0001011100;
1649	:0001011100;
1650	:0001011100;
1651	:0001011100;
1652	:0001011100;
1653	:0001011100;
1654	:0001011100;
1655	:0001011100;
1656	:0000000000;
1657	:0000000000;
1658	:0000000000;
1659	:0010011011;
1660	:0010011011;
1661	:0010011011;
1662	:0010011011;
1663	:0010011011;
1664	:0010011011;
1665	:0010011011;
1666	:0010011011;
1667	:0010011011;
1668	:0010011011;
1669	:0010011011;
1670	:0010011011;
1671	:0010011011;
1672	:0000000000;
1673	:0000000000;
1674	:0000000000;
1675	:0001111011;
1676	:0001111011;
1677	:0001111011;
1678	:0001111011;
1679	:0001111011;
1680	:0001111011;
1681	:0001111011;
1682	:0000000000;
1683	:0000000000;
1684	:0010001010;
1685	:0010001010;
1686	:0010001010;
1687	:0010001010;
1688	:0010001010;
1689	:0010001010;
1690	:0010001010;
1691	:0010001010;
1692	:0010001010;
1693	:0010001010;
1694	:0010001010;
1695	:0010001010;
1696	:0010001010;
1697	:0000000000;
1698	:0000000000;
1699	:0000000000;
1700	:0001110100;
1701	:0001110100;
1702	:0001110100;
1703	:0001110100;
1704	:0001110100;
1705	:0001110100;
1706	:0001110100;
1707	:0001110100;
1708	:0001110100;
1709	:0001110100;
1710	:0001110100;
1711	:0001110100;
1712	:0001110100;
1713	:0001110100;
1714	:0000000000;
1715	:0000000000;
1716	:0000000000;
1717	:0001111011;
1718	:0001111011;
1719	:0001111011;
1720	:0001111011;
1721	:0001111011;
1722	:0001111011;
1723	:0001111011;
1724	:0001111011;
1725	:0001111011;
1726	:0001111011;
1727	:0001111011;
1728	:0001111011;
1729	:0001111011;
1730	:0001111011;
1731	:0000000000;
1732	:0000000000;
1733	:0001110100;
1734	:0001110100;
1735	:0001110100;
1736	:0001110100;
1737	:0001110100;
1738	:0001110100;
1739	:0001110100;
1740	:0001110100;
1741	:0001110100;
1742	:0001110100;
1743	:0001110100;
1744	:0001110100;
1745	:0001110100;
1746	:0001110100;
1747	:0000000000;
1748	:0000000000;
1749	:0000000000;
1750	:0001100111;
1751	:0001100111;
1752	:0001100111;
1753	:0001100111;
1754	:0001100111;
1755	:0001100111;
1756	:0001100111;
1757	:0001100111;
1758	:0001100111;
1759	:0001100111;
1760	:0001100111;
1761	:0001100111;
1762	:0001100111;
1763	:0000000000;
1764	:0000000000;
1765	:0000000000;
1766	:0001100001;
1767	:0001100001;
1768	:0001100001;
1769	:0001100001;
1770	:0001100001;
1771	:0001100001;
1772	:0001100001;
1773	:0001100001;
1774	:0001100001;
1775	:0001100001;
1776	:0001100001;
1777	:0001100001;
1778	:0001100001;
1779	:0001100001;
1780	:0001100001;
1781	:0001100001;
1782	:0001100001;
1783	:0001100001;
1784	:0001100001;
1785	:0001100001;
1786	:0000000000;
1787	:0000000000;
1788	:0000000000;
1789	:0000000000;
1790	:0000000000;
1791	:0001100111;
1792	:0001100111;
1793	:0001100111;
1794	:0001100111;
1795	:0001100111;
1796	:0001100111;
1797	:0001100111;
1798	:0001100111;
1799	:0001100111;
1800	:0001100111;
1801	:0001100111;
1802	:0001100111;
1803	:0001100111;
1804	:0001100111;
1805	:0001100111;
1806	:0001100111;
1807	:0000000000;
1808	:0000000000;
1809	:0000000000;
1810	:0000000000;
1811	:0000000000;
1812	:0000000000;
1813	:0000000000;
1814	:0000000000;
1815	:0000000000;
1816	:0001100111;
1817	:0001100111;
1818	:0000000000;
1819	:0000000000;
1820	:0000000000;
1821	:0000000000;
1822	:0000000000;
1823	:0000000000;
1824	:0000000000;
1825	:0001100111;
1826	:0001100111;
1827	:0000000000;
1828	:0000000000;
1829	:0000000000;
1830	:0000000000;
1831	:0000000000;
1832	:0000000000;
1833	:0001100111;
1834	:0001100111;
1835	:0001100111;
1836	:0001100111;
1837	:0001100111;
1838	:0000000000;
1839	:0000000000;
1840	:0000000000;
1841	:0001110100;
1842	:0001110100;
1843	:0001110100;
1844	:0001110100;
1845	:0001110100;
1846	:0001110100;
1847	:0001110100;
1848	:0000000000;
1849	:0001111011;
1850	:0001111011;
1851	:0001111011;
1852	:0001111011;
1853	:0001111011;
1854	:0001111011;
1855	:0000000000;
1856	:0000000000;
1857	:0000000000;
1858	:0001110100;
1859	:0001110100;
1860	:0001110100;
1861	:0001110100;
1862	:0000000000;
1863	:0000000000;
1864	:0000000000;
1865	:0000000000;
1866	:0001100111;
1867	:0001100111;
1868	:0001100111;
1869	:0001100111;
1870	:0001100111;
1871	:0001100111;
1872	:0001100111;
1873	:0000000000;
1874	:0001011100;
1875	:0001011100;
1876	:0001011100;
1877	:0001011100;
1878	:0001011100;
1879	:0001011100;
1880	:0001011100;
1881	:0001011100;
1882	:0001011100;
1883	:0001011100;
1884	:0001011100;
1885	:0001011100;
1886	:0001011100;
1887	:0001011100;
1888	:0001011100;
1889	:0001011100;
1890	:0001011100;
1891	:0001011100;
1892	:0001011100;
1893	:0001011100;
1894	:0001011100;
1895	:0001011100;
1896	:0001011100;
1897	:0000000000;
1898	:0000000000;
1899	:0000000000;
1900	:0000000000;
1901	:0000000000;
1902	:0000000000;
1903	:0000000000;
1904	:0000000000;
1905	:0000000000;
1906	:0000000000;
1907	:0001001101;
1908	:0001001101;
1909	:0001001101;
1910	:0001001101;
1911	:0001001101;
1912	:0001001101;
1913	:0001001101;
1914	:0000000000;
1915	:0000000000;
1916	:0001011100;
1917	:0001011100;
1918	:0001011100;
1919	:0000000000;
1920	:0000000000;
1921	:0000000000;
1922	:0000000000;
1923	:0000000000;
1924	:0001100111;
1925	:0001100111;
1926	:0001100111;
1927	:0001100111;
1928	:0001100111;
1929	:0001100111;
1930	:0000000000;
1931	:0000000000;
1932	:0010011011;
1933	:0010011011;
1934	:0010011011;
1935	:0000000000;
1936	:0000000000;
1937	:0000000000;
1938	:0000000000;
1939	:0000000000;
1940	:0000000000;
1941	:0011110110;
1942	:0011110110;
1943	:0000000000;
1944	:0000000000;
1945	:0000000000;
1946	:0000000000;
1947	:0000000000;
1948	:0000000000;
1949	:0010011011;
1950	:0010011011;
1951	:0010011011;
1952	:0000000000;
1953	:0000000000;
1954	:0000000000;
1955	:0000000000;
1956	:0000000000;
1957	:0001110100;
1958	:0001110100;
1959	:0001110100;
1960	:0001110100;
1961	:0001110100;
1962	:0000000000;
1963	:0000000000;
1964	:0000000000;
1965	:0010111000;
1966	:0010111000;
1967	:0010111000;
1968	:0010111000;
1969	:0000000000;
1970	:0000000000;
1971	:0000000000;
1972	:0000000000;
1973	:0000000000;
1974	:0100010101;
1975	:0100010101;
1976	:0000000000;
1977	:0000000000;
1978	:0000000000;
1979	:0000000000;
1980	:0000000000;
1981	:0000000000;
1982	:0010111000;
1983	:0010111000;
1984	:0010111000;
1985	:0000000000;
1986	:0000000000;
1987	:0000000000;
1988	:0000000000;
1989	:0000000000;
1990	:0001111011;
1991	:0001111011;
1992	:0001111011;
1993	:0000000000;
1994	:0000000000;
1995	:0000000000;
1996	:0000000000;
1997	:0000000000;
1998	:0000000000;
1999	:0010111000;
2000	:0010111000;
2001	:0010111000;
2002	:0000000000;
2003	:0000000000;
2004	:0000000000;
2005	:0000000000;
2006	:0000000000;
2007	:0100110111;
2008	:0100110111;
2009	:0100110111;
2010	:0000000000;
2011	:0000000000;
2012	:0000000000;
2013	:0000000000;
2014	:0000000000;
2015	:0010111000;
2016	:0010111000;
2017	:0010111000;
2018	:0000000000;
2019	:0000000000;
2020	:0000000000;
2021	:0000000000;
2022	:0000000000;
2023	:0010000010;
2024	:0010000010;
2025	:0010000010;
2026	:0010000010;
2027	:0010000010;
2028	:0010000010;
2029	:0010000010;
2030	:0000000000;
2031	:0000000000;
2032	:0010111000;
2033	:0010111000;
2034	:0010111000;
2035	:0000000000;
2036	:0000000000;
2037	:0000000000;
2038	:0000000000;
2039	:0000000000;
2040	:0001100111;
2041	:0001100111;
2042	:0000000000;
2043	:0000000000;
2044	:0001101110;
2045	:0001101110;
2046	:0000000000;
2047	:0000000000;
2048	:0001110100;
2049	:0001110100;
2050	:0000000000;
2051	:0000000000;
2052	:0000000000;
2053	:0010000010;
2054	:0000000000;
2055	:0000000000;
2056	:0000000000;
2057	:0010001010;
2058	:0010001010;
2059	:0000000000;
2060	:0000000000;
2061	:0000000000;
2062	:0000000000;
2063	:0000000000;
2064	:0000000000;
2065	:0010001010;
2066	:0010001010;
2067	:0000000000;
2068	:0000000000;
2069	:0000000000;
2070	:0000000000;
2071	:0000000000;
2072	:0000000000;
2073	:0010001010;
2074	:0010001010;
2075	:0010001010;
2076	:0000000000;
2077	:0000000000;
2078	:0000000000;
2079	:0000000000;
2080	:0000000000;
2081	:0000000000;
2082	:0010001010;
2083	:0010001010;
2084	:0000000000;
2085	:0000000000;
2086	:0000000000;
2087	:0000000000;
2088	:0000000000;
2089	:0000000000;
2090	:0001101110;
2091	:0001101110;
2092	:0001101110;
2093	:0001101110;
2094	:0001101110;
2095	:0001101110;
2096	:0001101110;
2097	:0001101110;
2098	:0001101110;
2099	:0001101110;
2100	:0000000000;
2101	:0000000000;
2102	:0000000000;
2103	:0000000000;
2104	:0000000000;
2105	:0000000000;
2106	:0010001010;
2107	:0010001010;
2108	:0010001010;
2109	:0010001010;
2110	:0010001010;
2111	:0010001010;
2112	:0010001010;
2113	:0010001010;
2114	:0010001010;
2115	:0010001010;
2116	:0010001010;
2117	:0010001010;
2118	:0010001010;
2119	:0010001010;
2120	:0000000000;
2121	:0000000000;
2122	:0000000000;
2123	:0001111011;
2124	:0001111011;
2125	:0001111011;
2126	:0001111011;
2127	:0001111011;
2128	:0000000000;
2129	:0000000000;
2130	:0000000000;
2131	:0000000000;
2132	:0000000000;
2133	:0000000000;
2134	:0000000000;
2135	:0000000000;
2136	:0000000000;
2137	:0000000000;
2138	:0000000000;
2139	:0000000000;
2140	:0001111011;
2141	:0001111011;
2142	:0001111011;
2143	:0001111011;
2144	:0000000000;
2145	:0000000000;
2146	:0000000000;
2147	:0000000000;
2148	:0000000000;
2149	:0000000000;
2150	:0000000000;
2151	:0000000000;
2152	:0000000000;
2153	:0000000000;
2154	:0000000000;
2155	:0000000000;
2156	:0000000000;
2157	:0000000000;
2158	:0000000000;
2159	:0000000000;
2160	:0000000000;
2161	:0000000000;
2162	:0000000000;
2163	:0000000000;
2164	:0001111011;
2165	:0001111011;
2166	:0001111011;
2167	:0001111011;
2168	:0001111011;
2169	:0001111011;
2170	:0001111011;
2171	:0001111011;
2172	:0001111011;
2173	:0000000000;
2174	:0000000000;
2175	:0000000000;
2176	:0000000000;
2177	:0000000000;
2178	:0000000000;
2179	:0000000000;
2180	:0000000000;
2181	:0000000000;
2182	:0000000000;
2183	:0000000000;
2184	:0000000000;
2185	:0000000000;
2186	:0000000000;
2187	:0000000000;
2188	:0000000000;
2189	:0010001010;
2190	:0010001010;
2191	:0010001010;
2192	:0000000000;
2193	:0000000000;
2194	:0000000000;
2195	:0000000000;
2196	:0000000000;
2197	:0000000000;
2198	:0010001010;
2199	:0010001010;
2200	:0000000000;
2201	:0000000000;
2202	:0000000000;
2203	:0000000000;
2204	:0000000000;
2205	:0000000000;
2206	:0010001010;
2207	:0010001010;
2208	:0000000000;
2209	:0000000000;
2210	:0000000000;
2211	:0000000000;
2212	:0000000000;
2213	:0000000000;
2214	:0010001010;
2215	:0010001010;
2216	:0010001010;
2217	:0000000000;
2218	:0000000000;
2219	:0000000000;
2220	:0000000000;
2221	:0000000000;
2222	:0001101110;
2223	:0001101110;
2224	:0001101110;
2225	:0001101110;
2226	:0001101110;
2227	:0001101110;
2228	:0001101110;
2229	:0001101110;
2230	:0001101110;
2231	:0001101110;
2232	:0001101110;
2233	:0000000000;
2234	:0000000000;
2235	:0000000000;
2236	:0000000000;
2237	:0000000000;
2238	:0000000000;
2239	:0010001010;
2240	:0010001010;
2241	:0010001010;
2242	:0010001010;
2243	:0010001010;
2244	:0010001010;
2245	:0010001010;
2246	:0010001010;
2247	:0010001010;
2248	:0010001010;
2249	:0000000000;
2250	:0000000000;
2251	:0000000000;
2252	:0000000000;
2253	:0000000000;
2254	:0000000000;
2255	:0000000000;
2256	:0010001010;
2257	:0010001010;
2258	:0010001010;
2259	:0010001010;
2260	:0010001010;
2261	:0000000000;
2262	:0000000000;
2263	:0000000000;
2264	:0000000000;
2265	:0000000000;
2266	:0000000000;
2267	:0000000000;
2268	:0000000000;
2269	:0000000000;
2270	:0000000000;
2271	:0000000000;
2272	:0000000000;
2273	:0000000000;
2274	:0000000000;
2275	:0000000000;
2276	:0000000000;
2277	:0000000000;
2278	:0000000000;
2279	:0000000000;
2280	:0000000000;
2281	:0010000010;
2282	:0010000010;
2283	:0010000010;
2284	:0010000010;
2285	:0010000010;
2286	:0000000000;
2287	:0000000000;
2288	:0000000000;
2289	:0010000010;
2290	:0010000010;
2291	:0010000010;
2292	:0010000010;
2293	:0010000010;
2294	:0010000010;
2295	:0010000010;
2296	:0010000010;
2297	:0010000010;
2298	:0010000010;
2299	:0010000010;
2300	:0010000010;
2301	:0010000010;
2302	:0010000010;
2303	:0010000010;
2304	:0010000010;
2305	:0010000010;
2306	:0000000000;
2307	:0000000000;
2308	:0000000000;
2309	:0000000000;
2310	:0000000000;
2311	:0000000000;
2312	:0000000000;
2313	:0000000000;
2314	:0000000000;
2315	:0000000000;
2316	:0000000000;
2317	:0000000000;
2318	:0000000000;
2319	:0000000000;
2320	:0000000000;
2321	:0000000000;
2322	:0100010101;
2323	:0100010101;
2324	:0100010101;
2325	:0100010101;
2326	:0100010101;
2327	:0000000000;
2328	:0000000000;
2329	:0000000000;
2330	:0100010101;
2331	:0100010101;
2332	:0100010101;
2333	:0000000000;
2334	:0000000000;
2335	:0000000000;
2336	:0000000000;
2337	:0000000000;
2338	:0000000000;
2339	:0101001001;
2340	:0101001001;
2341	:0101001001;
2342	:0000000000;
2343	:0000000000;
2344	:0000000000;
2345	:0000000000;
2346	:0000000000;
2347	:0100110111;
2348	:0100110111;
2349	:0100110111;
2350	:0000000000;
2351	:0000000000;
2352	:0000000000;
2353	:0000000000;
2354	:0000000000;
2355	:0000000000;
2356	:0000000000;
2357	:0000000000;
2358	:0000000000;
2359	:0000000000;
2360	:0000000000;
2361	:0000000000;
2362	:0000000000;
2363	:0011110110;
2364	:0011110110;
2365	:0011110110;
2366	:0011110110;
2367	:0011110110;
2368	:0011110110;
2369	:0011110110;
2370	:0011110110;
2371	:0011110110;
2372	:0011110110;
2373	:0011110110;
2374	:0000000000;
2375	:0000000000;
2376	:0000000000;
2377	:0000000000;
2378	:0000000000;
2379	:0000000000;
2380	:0100010101;
2381	:0100010101;
2382	:0100010101;
2383	:0100010101;
2384	:0100010101;
2385	:0100010101;
2386	:0100010101;
2387	:0100010101;
2388	:0100010101;
2389	:0100010101;
2390	:0000000000;
2391	:0000000000;
2392	:0000000000;
2393	:0000000000;
2394	:0000000000;
2395	:0000000000;
2396	:0000000000;
2397	:0100010101;
2398	:0100010101;
2399	:0100010101;
2400	:0000000000;
2401	:0000000000;
2402	:0000000000;
2403	:0000000000;
2404	:0000000000;
2405	:0101001001;
2406	:0101001001;
2407	:0101001001;
2408	:0000000000;
2409	:0000000000;
2410	:0000000000;
2411	:0000000000;
2412	:0000000000;
2413	:0100110111;
2414	:0100110111;
2415	:0100110111;
2416	:0000000000;
2417	:0000000000;
2418	:0000000000;
2419	:0000000000;
2420	:0000000000;
2421	:0000000000;
2422	:0000000000;
2423	:0000000000;
2424	:0000000000;
2425	:0000000000;
2426	:0000000000;
2427	:0000000000;
2428	:0000000000;
2429	:0000000000;
2430	:0011110110;
2431	:0011110110;
2432	:0011110110;
2433	:0011110110;
2434	:0011110110;
2435	:0011110110;
2436	:0011110110;
2437	:0011110110;
2438	:0011110110;
2439	:0011110110;
2440	:0000000000;
2441	:0000000000;
2442	:0000000000;
2443	:0000000000;
2444	:0000000000;
2445	:0000000000;
2446	:0000000000;
2447	:0000000000;
2448	:0000000000;
2449	:0000000000;
2450	:0000000000;
2451	:0000000000;
2452	:0000000000;
2453	:0000000000;
2454	:0000000000;
2455	:0100010101;
2456	:0100010101;
2457	:0100010101;
2458	:0100010101;
2459	:0100010101;
2460	:0000000000;
2461	:0000000000;
2462	:0000000000;
2463	:0100010101;
2464	:0000000000;
2465	:0000000000;
2466	:0000000000;
2467	:0000000000;
2468	:0000000000;
2469	:0000000000;
2470	:0000000000;
2471	:0101001001;
2472	:0101001001;
2473	:0101001001;
2474	:0000000000;
2475	:0000000000;
2476	:0000000000;
2477	:0000000000;
2478	:0000000000;
2479	:0100110111;
2480	:0100110111;
2481	:0100110111;
2482	:0100110111;
2483	:0000000000;
2484	:0000000000;
2485	:0000000000;
2486	:0000000000;
2487	:0000000000;
2488	:0000000000;
2489	:0000000000;
2490	:0000000000;
2491	:0000000000;
2492	:0000000000;
2493	:0000000000;
2494	:0000000000;
2495	:0000000000;
2496	:0100010101;
2497	:0100010101;
2498	:0100010101;
2499	:0100010101;
2500	:0100010101;
2501	:0100010101;
2502	:0100010101;
2503	:0100010101;
2504	:0100010101;
2505	:0100010101;
2506	:0000000000;
2507	:0000000000;
2508	:0000000000;
2509	:0000000000;
2510	:0000000000;
2511	:0000000000;
2512	:0000000000;
2513	:0100010101;
2514	:0100010101;
2515	:0100010101;
2516	:0100010101;
2517	:0100010101;
2518	:0100010101;
2519	:0100010101;
2520	:0100010101;
2521	:0100010101;
2522	:0000000000;
2523	:0000000000;
2524	:0000000000;
2525	:0000000000;
2526	:0000000000;
2527	:0000000000;
2528	:0000000000;
2529	:0000000000;
2530	:0000000000;
2531	:0000000000;
2532	:0000000000;
2533	:0000000000;
2534	:0000000000;
2535	:0000000000;
2536	:0000000000;
2537	:0000000000;
2538	:0011110110;
2539	:0011110110;
2540	:0011110110;
2541	:0000000000;
2542	:0000000000;
2543	:0000000000;
2544	:0000000000;
2545	:0000000000;
2546	:0000000000;
2547	:0000000000;
2548	:0000000000;
2549	:0000000000;
2550	:0000000000;
2551	:0000000000;
2552	:0000000000;
2553	:0000000000;
2554	:0000000000;
2555	:0000000000;
2556	:0000000000;
2557	:0000000000;
2558	:0000000000;
2559	:0000000000;
2560	:0000000000;
2561	:0000000000;
2562	:0011110110;
2563	:0011110110;
2564	:0011110110;
2565	:0011110110;
2566	:0011110110;
2567	:0011110110;
2568	:0011110110;
2569	:0011110110;
2570	:0011110110;
2571	:0011110110;
2572	:0011110110;
2573	:0000000000;
2574	:0000000000;
2575	:0000000000;
2576	:0000000000;
2577	:0000000000;
2578	:0000000000;
2579	:0000000000;
2580	:0000000000;
2581	:0000000000;
2582	:0000000000;
2583	:0000000000;
2584	:0000000000;
2585	:0000000000;
2586	:0000000000;
2587	:0100010101;
2588	:0100010101;
2589	:0100010101;
2590	:0100010101;
2591	:0100010101;
2592	:0000000000;
2593	:0000000000;
2594	:0000000000;
2595	:0000000000;
2596	:0100010101;
2597	:0100010101;
2598	:0100010101;
2599	:0000000000;
2600	:0000000000;
2601	:0000000000;
2602	:0000000000;
2603	:0000000000;
2604	:0101001001;
2605	:0101001001;
2606	:0101001001;
2607	:0000000000;
2608	:0000000000;
2609	:0000000000;
2610	:0000000000;
2611	:0000000000;
2612	:0100110111;
2613	:0100110111;
2614	:0100110111;
2615	:0000000000;
2616	:0000000000;
2617	:0000000000;
2618	:0000000000;
2619	:0000000000;
2620	:0000000000;
2621	:0000000000;
2622	:0000000000;
2623	:0000000000;
2624	:0000000000;
2625	:0000000000;
2626	:0000000000;
2627	:0000000000;
2628	:0000000000;
2629	:0011110110;
2630	:0011110110;
2631	:0011110110;
2632	:0011110110;
2633	:0011110110;
2634	:0011110110;
2635	:0011110110;
2636	:0011110110;
2637	:0011110110;
2638	:0011110110;
2639	:0000000000;
2640	:0000000000;
2641	:0000000000;
2642	:0000000000;
2643	:0000000000;
2644	:0000000000;
2645	:0100010101;
2646	:0100010101;
2647	:0100010101;
2648	:0100010101;
2649	:0100010101;
2650	:0100010101;
2651	:0100010101;
2652	:0100010101;
2653	:0100010101;
2654	:0100010101;
2655	:0000000000;
2656	:0000000000;
2657	:0000000000;
2658	:0000000000;
2659	:0000000000;
2660	:0000000000;
2661	:0000000000;
2662	:0100010101;
2663	:0100010101;
2664	:0100010101;
2665	:0000000000;
2666	:0000000000;
2667	:0000000000;
2668	:0000000000;
2669	:0000000000;
2670	:0101001001;
2671	:0101001001;
2672	:0101001001;
2673	:0000000000;
2674	:0000000000;
2675	:0000000000;
2676	:0000000000;
2677	:0000000000;
2678	:0100110111;
2679	:0100110111;
2680	:0100110111;
2681	:0100110111;
2682	:0000000000;
2683	:0000000000;
2684	:0000000000;
2685	:0000000000;
2686	:0000000000;
2687	:0000000000;
2688	:0000000000;
2689	:0000000000;
2690	:0000000000;
2691	:0000000000;
2692	:0000000000;
2693	:0000000000;
2694	:0000000000;
2695	:0011110110;
2696	:0011110110;
2697	:0011110110;
2698	:0011110110;
2699	:0011110110;
2700	:0011110110;
2701	:0011110110;
2702	:0011110110;
2703	:0011110110;
2704	:0011110110;
2705	:0000000000;
2706	:0000000000;
2707	:0000000000;
2708	:0000000000;
2709	:0000000000;
2710	:0000000000;
2711	:0000000000;
2712	:0000000000;
2713	:0000000000;
2714	:0000000000;
2715	:0000000000;
2716	:0000000000;
2717	:0000000000;
2718	:0000000000;
2719	:0000000000;
2720	:0100010101;
2721	:0100010101;
2722	:0100010101;
2723	:0100010101;
2724	:0100010101;
2725	:0000000000;
2726	:0000000000;
2727	:0000000000;
2728	:0100010101;
2729	:0000000000;
2730	:0000000000;
2731	:0000000000;
2732	:0000000000;
2733	:0000000000;
2734	:0000000000;
2735	:0000000000;
2736	:0000000000;
2737	:0101001001;
2738	:0101001001;
2739	:0101001001;
2740	:0000000000;
2741	:0000000000;
2742	:0000000000;
2743	:0000000000;
2744	:0000000000;
2745	:0100110111;
2746	:0100110111;
2747	:0100110111;
2748	:0000000000;
2749	:0000000000;
2750	:0000000000;
2751	:0000000000;
2752	:0000000000;
2753	:0000000000;
2754	:0000000000;
2755	:0000000000;
2756	:0000000000;
2757	:0000000000;
2758	:0000000000;
2759	:0000000000;
2760	:0000000000;
2761	:0100010101;
2762	:0100010101;
2763	:0100010101;
2764	:0100010101;
2765	:0100010101;
2766	:0100010101;
2767	:0100010101;
2768	:0100010101;
2769	:0100010101;
2770	:0100010101;
2771	:0100010101;
2772	:0000000000;
2773	:0000000000;
2774	:0000000000;
2775	:0000000000;
2776	:0000000000;
2777	:0000000000;
2778	:0011110110;
2779	:0011110110;
2780	:0011110110;
2781	:0011110110;
2782	:0011110110;
2783	:0011110110;
2784	:0011110110;
2785	:0011110110;
2786	:0000000000;
2787	:0000000000;
2788	:0000000000;
2789	:0000000000;
2790	:0000000000;
2791	:0000000000;
2792	:0000000000;
2793	:0000000000;
2794	:0000000000;
2795	:0110011111;
2796	:0110011111;
2797	:0110011111;
2798	:0000000000;
2799	:0000000000;
2800	:0000000000;
2801	:0000000000;
2802	:0000000000;
2803	:0000000000;
2804	:0000000000;
2805	:0000000000;
2806	:0000000000;
2807	:0000000000;
2808	:0000000000;
2809	:0000000000;
2810	:0000000000;
2811	:0000000000;
2812	:0000000000;
2813	:0000000000;
2814	:0000000000;
2815	:0000000000;
2816	:0000000000;
2817	:0000000000;
2818	:0000000000;
2819	:0101110001;
2820	:0101110001;
2821	:0101110001;
2822	:0101110001;
2823	:0101110001;
2824	:0101110001;
2825	:0101110001;
2826	:0101110001;
2827	:0101110001;
2828	:0101110001;
2829	:0101110001;
2830	:0000000000;
2831	:0000000000;
2832	:0000000000;
2833	:0000000000;
2834	:0000000000;
2835	:0000000000;
2836	:0000000000;
2837	:0000000000;
2838	:0000000000;
2839	:0000000000;
2840	:0000000000;
2841	:0000000000;
2842	:0000000000;
2843	:0000000000;
2844	:0000000000;
2845	:0000000000;
2846	:0000000000;
2847	:0000000000;
2848	:0000000000;
2849	:0000000000;
2850	:0000000000;
2851	:0000000000;
2852	:0000000000;
2853	:0100010101;
2854	:0100010101;
2855	:0100010101;
2856	:0100010101;
2857	:0100010101;
2858	:0000000000;
2859	:0000000000;
2860	:0000000000;
2861	:0100010101;
2862	:0100010101;
2863	:0100010101;
2864	:0000000000;
2865	:0000000000;
2866	:0000000000;
2867	:0000000000;
2868	:0000000000;
2869	:0101001001;
2870	:0101001001;
2871	:0101001001;
2872	:0000000000;
2873	:0000000000;
2874	:0000000000;
2875	:0000000000;
2876	:0000000000;
2877	:0100110111;
2878	:0100110111;
2879	:0100110111;
2880	:0100110111;
2881	:0000000000;
2882	:0000000000;
2883	:0000000000;
2884	:0000000000;
2885	:0000000000;
2886	:0000000000;
2887	:0000000000;
2888	:0000000000;
2889	:0000000000;
2890	:0000000000;
2891	:0000000000;
2892	:0000000000;
2893	:0000000000;
2894	:0011110110;
2895	:0011110110;
2896	:0011110110;
2897	:0011110110;
2898	:0011110110;
2899	:0011110110;
2900	:0011110110;
2901	:0011110110;
2902	:0011110110;
2903	:0011110110;
2904	:0000000000;
2905	:0000000000;
2906	:0000000000;
2907	:0000000000;
2908	:0000000000;
2909	:0000000000;
2910	:0000000000;
2911	:0100010101;
2912	:0100010101;
2913	:0100010101;
2914	:0100010101;
2915	:0100010101;
2916	:0100010101;
2917	:0100010101;
2918	:0100010101;
2919	:0100010101;
2920	:0000000000;
2921	:0000000000;
2922	:0000000000;
2923	:0000000000;
2924	:0000000000;
2925	:0000000000;
2926	:0000000000;
2927	:0100010101;
2928	:0100010101;
2929	:0100010101;
2930	:0000000000;
2931	:0000000000;
2932	:0000000000;
2933	:0000000000;
2934	:0000000000;
2935	:0000000000;
2936	:0101001001;
2937	:0101001001;
2938	:0101001001;
2939	:0000000000;
2940	:0000000000;
2941	:0000000000;
2942	:0000000000;
2943	:0000000000;
2944	:0100110111;
2945	:0100110111;
2946	:0100110111;
2947	:0000000000;
2948	:0000000000;
2949	:0000000000;
2950	:0000000000;
2951	:0000000000;
2952	:0000000000;
2953	:0000000000;
2954	:0000000000;
2955	:0000000000;
2956	:0000000000;
2957	:0000000000;
2958	:0000000000;
2959	:0000000000;
2960	:0011110110;
2961	:0011110110;
2962	:0011110110;
2963	:0011110110;
2964	:0011110110;
2965	:0011110110;
2966	:0011110110;
2967	:0011110110;
2968	:0011110110;
2969	:0011110110;
2970	:0011110110;
2971	:0000000000;
2972	:0000000000;
2973	:0000000000;
2974	:0000000000;
2975	:0000000000;
2976	:0000000000;
2977	:0000000000;
2978	:0000000000;
2979	:0000000000;
2980	:0000000000;
2981	:0000000000;
2982	:0000000000;
2983	:0000000000;
2984	:0000000000;
2985	:0100010101;
2986	:0100010101;
2987	:0100010101;
2988	:0100010101;
2989	:0100010101;
2990	:0000000000;
2991	:0000000000;
2992	:0000000000;
2993	:0000000000;
2994	:0100010101;
2995	:0000000000;
2996	:0000000000;
2997	:0000000000;
2998	:0000000000;
2999	:0000000000;
3000	:0000000000;
3001	:0000000000;
3002	:0101001001;
3003	:0101001001;
3004	:0101001001;
3005	:0000000000;
3006	:0000000000;
3007	:0000000000;
3008	:0000000000;
3009	:0000000000;
3010	:0100110111;
3011	:0100110111;
3012	:0100110111;
3013	:0000000000;
3014	:0000000000;
3015	:0000000000;
3016	:0000000000;
3017	:0000000000;
3018	:0000000000;
3019	:0000000000;
3020	:0000000000;
3021	:0000000000;
3022	:0000000000;
3023	:0000000000;
3024	:0000000000;
3025	:0000000000;
3026	:0000000000;
3027	:0100010101;
3028	:0100010101;
3029	:0100010101;
3030	:0100010101;
3031	:0100010101;
3032	:0100010101;
3033	:0100010101;
3034	:0100010101;
3035	:0100010101;
3036	:0100010101;
3037	:0000000000;
3038	:0000000000;
3039	:0000000000;
3040	:0000000000;
3041	:0000000000;
3042	:0000000000;
3043	:0100010101;
3044	:0100010101;
3045	:0100010101;
3046	:0100010101;
3047	:0100010101;
3048	:0100010101;
3049	:0100010101;
3050	:0100010101;
3051	:0100010101;
3052	:0100010101;
3053	:0000000000;
3054	:0000000000;
3055	:0000000000;
3056	:0000000000;
3057	:0000000000;
3058	:0000000000;
3059	:0000000000;
3060	:0000000000;
3061	:0000000000;
3062	:0000000000;
3063	:0000000000;
3064	:0000000000;
3065	:0000000000;
3066	:0000000000;
3067	:0000000000;
3068	:0011110110;
3069	:0011110110;
3070	:0011110110;
3071	:0000000000;
3072	:0000000000;
3073	:0000000000;
3074	:0000000000;
3075	:0000000000;
3076	:0000000000;
3077	:0000000000;
3078	:0000000000;
3079	:0000000000;
3080	:0000000000;
3081	:0000000000;
3082	:0000000000;
3083	:0000000000;
3084	:0000000000;
3085	:0000000000;
3086	:0000000000;
3087	:0000000000;
3088	:0000000000;
3089	:0000000000;
3090	:0000000000;
3091	:0000000000;
3092	:0000000000;
3093	:0011110110;
3094	:0011110110;
3095	:0011110110;
3096	:0011110110;
3097	:0011110110;
3098	:0011110110;
3099	:0011110110;
3100	:0011110110;
3101	:0011110110;
3102	:0011110110;
3103	:0000000000;
3104	:0000000000;
3105	:0000000000;
3106	:0000000000;
3107	:0000000000;
3108	:0000000000;
3109	:0000000000;
3110	:0000000000;
3111	:0000000000;
3112	:0000000000;
3113	:0000000000;
3114	:0000000000;
3115	:0000000000;
3116	:0000000000;
3117	:0000000000;
3118	:0100010101;
3119	:0100010101;
3120	:0100010101;
3121	:0100010101;
3122	:0100010101;
3123	:0000000000;
3124	:0000000000;
3125	:0000000000;
3126	:0100010101;
3127	:0100010101;
3128	:0100010101;
3129	:0000000000;
3130	:0000000000;
3131	:0000000000;
3132	:0000000000;
3133	:0000000000;
3134	:0101001001;
3135	:0101001001;
3136	:0101001001;
3137	:0101001001;
3138	:0000000000;
3139	:0000000000;
3140	:0000000000;
3141	:0000000000;
3142	:0000000000;
3143	:0100110111;
3144	:0100110111;
3145	:0100110111;
3146	:0000000000;
3147	:0000000000;
3148	:0000000000;
3149	:0000000000;
3150	:0000000000;
3151	:0000000000;
3152	:0000000000;
3153	:0000000000;
3154	:0000000000;
3155	:0000000000;
3156	:0000000000;
3157	:0000000000;
3158	:0000000000;
3159	:0011110110;
3160	:0011110110;
3161	:0011110110;
3162	:0011110110;
3163	:0011110110;
3164	:0011110110;
3165	:0011110110;
3166	:0011110110;
3167	:0011110110;
3168	:0011110110;
3169	:0011110110;
3170	:0000000000;
3171	:0000000000;
3172	:0000000000;
3173	:0000000000;
3174	:0000000000;
3175	:0000000000;
3176	:0100010101;
3177	:0100010101;
3178	:0100010101;
3179	:0100010101;
3180	:0100010101;
3181	:0100010101;
3182	:0100010101;
3183	:0100010101;
3184	:0100010101;
3185	:0000000000;
3186	:0000000000;
3187	:0000000000;
3188	:0000000000;
3189	:0000000000;
3190	:0000000000;
3191	:0000000000;
3192	:0000000000;
3193	:0100010101;
3194	:0100010101;
3195	:0100010101;
3196	:0000000000;
3197	:0000000000;
3198	:0000000000;
3199	:0000000000;
3200	:0000000000;
3201	:0101001001;
3202	:0101001001;
3203	:0101001001;
3204	:0000000000;
3205	:0000000000;
3206	:0000000000;
3207	:0000000000;
3208	:0000000000;
3209	:0100110111;
3210	:0100110111;
3211	:0100110111;
3212	:0000000000;
3213	:0000000000;
3214	:0000000000;
3215	:0000000000;
3216	:0000000000;
3217	:0000000000;
3218	:0000000000;
3219	:0000000000;
3220	:0000000000;
3221	:0000000000;
3222	:0000000000;
3223	:0000000000;
3224	:0000000000;
3225	:0000000000;
3226	:0011110110;
3227	:0011110110;
3228	:0011110110;
3229	:0011110110;
3230	:0011110110;
3231	:0011110110;
3232	:0011110110;
3233	:0011110110;
3234	:0011110110;
3235	:0011110110;
3236	:0000000000;
3237	:0000000000;
3238	:0000000000;
3239	:0000000000;
3240	:0000000000;
3241	:0000000000;
3242	:0000000000;
3243	:0000000000;
3244	:0000000000;
3245	:0000000000;
3246	:0000000000;
3247	:0000000000;
3248	:0000000000;
3249	:0000000000;
3250	:0000000000;
3251	:0100010101;
3252	:0100010101;
3253	:0100010101;
3254	:0100010101;
3255	:0100010101;
3256	:0000000000;
3257	:0000000000;
3258	:0000000000;
3259	:0100010101;
3260	:0000000000;
3261	:0000000000;
3262	:0000000000;
3263	:0000000000;
3264	:0000000000;
3265	:0000000000;
3266	:0000000000;
3267	:0101001001;
3268	:0101001001;
3269	:0101001001;
3270	:0000000000;
3271	:0000000000;
3272	:0000000000;
3273	:0000000000;
3274	:0000000000;
3275	:0100110111;
3276	:0100110111;
3277	:0100110111;
3278	:0100110111;
3279	:0000000000;
3280	:0000000000;
3281	:0000000000;
3282	:0000000000;
3283	:0000000000;
3284	:0000000000;
3285	:0000000000;
3286	:0000000000;
3287	:0000000000;
3288	:0000000000;
3289	:0000000000;
3290	:0000000000;
3291	:0000000000;
3292	:0100010101;
3293	:0100010101;
3294	:0100010101;
3295	:0100010101;
3296	:0100010101;
3297	:0000000000;
3298	:0000000000;
3299	:0000000000;
3300	:0011110110;
3301	:0011110110;
3302	:0011110110;
3303	:0011110110;
3304	:0011110110;
3305	:0011110110;
3306	:0011110110;
3307	:0011110110;
3308	:0011110110;
3309	:0000000000;
3310	:0000000000;
3311	:0000000000;
3312	:0000000000;
3313	:0000000000;
3314	:0000000000;
3315	:0000000000;
3316	:0000000000;
3317	:0001111011;
3318	:0001111011;
3319	:0001111011;
3320	:0001111011;
3321	:0001111011;
3322	:0000000000;
3323	:0000000000;
3324	:0000000000;
3325	:0011000011;
3326	:0011000011;
3327	:0011000011;
3328	:0011000011;
3329	:0011000011;
3330	:0011000011;
3331	:0011000011;
3332	:0011000011;
3333	:0011000011;
3334	:0011000011;
3335	:0011000011;
3336	:0011000011;
3337	:0011000011;
3338	:0011000011;
3339	:0000000000;
3340	:0000000000;
3341	:0000000000;
3342	:0010100100;
3343	:0010100100;
3344	:0010100100;
3345	:0010100100;
3346	:0010100100;
3347	:0010100100;
3348	:0000000000;
3349	:0000000000;
3350	:0000000000;
3351	:0000000000;
3352	:0000000000;
3353	:0000000000;
3354	:0000000000;
3355	:0000000000;
3356	:0000000000;
3357	:0000000000;
3358	:0000000000;
3359	:0010111000;
3360	:0010111000;
3361	:0010111000;
3362	:0010111000;
3363	:0010111000;
3364	:0010111000;
3365	:0010111000;
3366	:0010111000;
3367	:0010111000;
3368	:0010111000;
3369	:0010111000;
3370	:0010111000;
3371	:0010111000;
3372	:0010111000;
3373	:0000000000;
3374	:0000000000;
3375	:0000000000;
3376	:0010010010;
3377	:0010010010;
3378	:0010010010;
3379	:0010010010;
3380	:0010010010;
3381	:0010010010;
3382	:0000000000;
3383	:0000000000;
3384	:0000000000;
3385	:0000000000;
3386	:0000000000;
3387	:0000000000;
3388	:0000000000;
3389	:0000000000;
3390	:0000000000;
3391	:0000000000;
3392	:0000000000;
3393	:0010100100;
3394	:0010100100;
3395	:0010100100;
3396	:0010100100;
3397	:0010100100;
3398	:0000000000;
3399	:0000000000;
3400	:0000000000;
3401	:0010111000;
3402	:0010111000;
3403	:0010111000;
3404	:0010111000;
3405	:0010111000;
3406	:0010111000;
3407	:0010111000;
3408	:0010111000;
3409	:0010111000;
3410	:0010111000;
3411	:0010111000;
3412	:0010111000;
3413	:0010111000;
3414	:0010111000;
3415	:0000000000;
3416	:0000000000;
3417	:0000000000;
3418	:0010111000;
3419	:0010111000;
3420	:0010111000;
3421	:0010111000;
3422	:0010111000;
3423	:0010111000;
3424	:0000000000;
3425	:0000000000;
3426	:0000000000;
3427	:0101110001;
3428	:0101110001;
3429	:0101110001;
3430	:0101110001;
3431	:0101110001;
3432	:0000000000;
3433	:0000000000;
3434	:0000000000;
3435	:0010111000;
3436	:0010111000;
3437	:0010111000;
3438	:0010111000;
3439	:0010111000;
3440	:0010111000;
3441	:0000000000;
3442	:0000000000;
3443	:0000000000;
3444	:0000000000;
3445	:0000000000;
3446	:0000000000;
3447	:0000000000;
3448	:0000000000;
3449	:0000000000;
3450	:0000000000;
3451	:0000000000;
3452	:0101110001;
3453	:0101110001;
3454	:0101110001;
3455	:0101110001;
3456	:0101110001;
3457	:0101110001;
3458	:0000000000;
3459	:0000000000;
3460	:0000000000;
3461	:0110000111;
3462	:0110000111;
3463	:0110000111;
3464	:0110000111;
3465	:0110000111;
3466	:0110000111;
3467	:0110000111;
3468	:0110000111;
3469	:0110000111;
3470	:0110000111;
3471	:0110000111;
3472	:0110000111;
3473	:0110000111;
3474	:0110000111;
3475	:0000000000;
3476	:0000000000;
3477	:0000000000;
3478	:0000000000;
3479	:0000000000;
3480	:0000000000;
3481	:0000000000;
3482	:0000000000;
3483	:0000000000;
3484	:0000000000;
3485	:0000000000;
3486	:0101001001;
3487	:0101001001;
3488	:0101001001;
3489	:0101001001;
3490	:0101001001;
3491	:0000000000;
3492	:0000000000;
3493	:0000000000;
3494	:0101110001;
3495	:0101110001;
3496	:0101110001;
3497	:0101110001;
3498	:0101110001;
3499	:0101110001;
3500	:0101110001;
3501	:0101110001;
3502	:0101110001;
3503	:0101110001;
3504	:0101110001;
3505	:0101110001;
3506	:0101110001;
3507	:0101110001;
3508	:0000000000;
3509	:0000000000;
3510	:0000000000;
3511	:0000000000;
3512	:0000000000;
3513	:0000000000;
3514	:0000000000;
3515	:0000000000;
3516	:0000000000;
3517	:0000000000;
3518	:0000000000;
3519	:0000000000;
3520	:0100100101;
3521	:0100100101;
3522	:0100100101;
3523	:0100100101;
3524	:0100100101;
3525	:0000000000;
3526	:0000000000;
3527	:0000000000;
3528	:0011110110;
3529	:0011110110;
3530	:0011110110;
3531	:0011110110;
3532	:0011110110;
3533	:0011110110;
3534	:0000000000;
3535	:0000000000;
3536	:0000000000;
3537	:0101110001;
3538	:0101110001;
3539	:0101110001;
3540	:0101110001;
3541	:0101110001;
3542	:0101110001;
3543	:0101110001;
3544	:0101110001;
3545	:0101110001;
3546	:0101110001;
3547	:0101110001;
3548	:0101110001;
3549	:0101110001;
3550	:0101110001;
3551	:0000000000;
3552	:0000000000;
3553	:0000000000;
3554	:0101110001;
3555	:0101110001;
3556	:0101110001;
3557	:0101110001;
3558	:0101110001;
3559	:0000000000;
3560	:0000000000;
3561	:0000000000;
3562	:1000101010;
3563	:1000101010;
3564	:1000101010;
3565	:1000101010;
3566	:1000101010;
3567	:1000101010;
3568	:1000101010;
3569	:1000101010;
3570	:1000101010;
3571	:1000101010;
3572	:1000101010;
3573	:1000101010;
3574	:1000101010;
3575	:1000101010;
3576	:0000000000;
3577	:0000000000;
3578	:0000000000;
3579	:0100010101;
3580	:0100010101;
3581	:0100010101;
3582	:0100010101;
3583	:0100010101;
3584	:0100010101;
3585	:0100010101;
3586	:0100010101;
3587	:0100010101;
3588	:0100010101;
3589	:0100010101;
3590	:0100010101;
3591	:0100010101;
3592	:0100010101;
3593	:0100010101;
3594	:0100010101;
3595	:0100010101;
3596	:0100010101;
3597	:0100010101;
3598	:0100010101;
3599	:0100010101;
3600	:0100010101;
3601	:0000000000;
3602	:0000000000;
3603	:0000000000;
3604	:0101110001;
3605	:0101110001;
3606	:0101110001;
3607	:0101110001;
3608	:0101110001;
3609	:0101110001;
3610	:0101110001;
3611	:0101110001;
3612	:0101110001;
3613	:0101110001;
3614	:0101110001;
3615	:0101110001;
3616	:0101110001;
3617	:0101110001;
3618	:0101110001;
3619	:0101110001;
3620	:0101110001;
3621	:0101110001;
3622	:0101110001;
3623	:0101110001;
3624	:0101110001;
3625	:0101110001;
3626	:0101110001;
3627	:0000000000;
3628	:0000000000;
3629	:0000000000;
3630	:0110111000;
3631	:0110111000;
3632	:0110111000;
3633	:0110111000;
3634	:0110111000;
3635	:0110111000;
3636	:0110111000;
3637	:0110111000;
3638	:0110111000;
3639	:0110111000;
3640	:0110111000;
3641	:0110111000;
3642	:0110111000;
3643	:0110111000;
3644	:0000000000;
3645	:0000000000;
3646	:0000000000;
3647	:0110011111;
3648	:0110011111;
3649	:0110011111;
3650	:0110011111;
3651	:0110011111;
3652	:0110011111;
3653	:0110011111;
3654	:0110011111;
3655	:0110011111;
3656	:0110011111;
3657	:0110011111;
3658	:0110011111;
3659	:0110011111;
3660	:0110011111;
3661	:0000000000;
3662	:0000000000;
3663	:0000000000;
3664	:0101110001;
3665	:0101110001;
3666	:0101110001;
3667	:0101110001;
3668	:0101110001;
3669	:0000000000;
3670	:0000000000;
3671	:0000000000;
3672	:0101001001;
3673	:0101001001;
3674	:0101001001;
3675	:0101001001;
3676	:0101001001;
3677	:0101001001;
3678	:0101001001;
3679	:0101001001;
3680	:0101001001;
3681	:0101001001;
3682	:0101001001;
3683	:0101001001;
3684	:0101001001;
3685	:0101001001;
3686	:0101001001;
3687	:0101001001;
3688	:0101001001;
3689	:0101001001;
3690	:0101001001;
3691	:0101001001;
3692	:0101001001;
3693	:0101001001;
3694	:0000000000;
3695	:0000000000;
3696	:0000000000;
3697	:0100100101;
3698	:0100100101;
3699	:0100100101;
3700	:0100100101;
3701	:0100100101;
3702	:0100100101;
3703	:0000000000;
3704	:0000000000;
3705	:0000000000;
3706	:0100010101;
3707	:0100010101;
3708	:0100010101;
3709	:0100010101;
3710	:0100010101;
3711	:0100010101;
3712	:0100010101;
3713	:0100010101;
3714	:0100010101;
3715	:0100010101;
3716	:0100010101;
3717	:0100010101;
3718	:0100010101;
3719	:0100010101;
3720	:0100010101;
3721	:0100010101;
3722	:0100010101;
3723	:0100010101;
3724	:0100010101;
3725	:0100010101;
3726	:0100010101;
3727	:0100010101;
3728	:0100010101;
3729	:0100010101;
3730	:0100010101;
3731	:0100010101;
3732	:0100010101;
3733	:0100010101;
3734	:0100010101;
3735	:0100010101;
3736	:0100010101;
3737	:0000000000;
3738	:0000000000;
3739	:0000000000;
3740	:0100010101;
3741	:0100010101;
3742	:0100010101;
3743	:0100010101;
3744	:0100010101;
3745	:0000000000;
3746	:0000000000;
3747	:0000000000;
3748	:0100010101;
3749	:0100010101;
3750	:0100010101;
3751	:0100010101;
3752	:0100010101;
3753	:0100010101;
3754	:0100010101;
3755	:0100010101;
3756	:0100010101;
3757	:0100010101;
3758	:0000000000;
3759	:0000000000;
3760	:0000000000;
3761	:0100100101;
3762	:0100100101;
3763	:0100100101;
3764	:0100100101;
3765	:0100100101;
3766	:0100100101;
3767	:0100100101;
3768	:0100100101;
3769	:0100100101;
3770	:0100100101;
3771	:0000000000;
3772	:0000000000;
3773	:0000000000;
3774	:0100010101;
3775	:0100010101;
3776	:0100010101;
3777	:0100010101;
3778	:0100010101;
3779	:0000000000;
3780	:0000000000;
3781	:0000000000;
3782	:0100010101;
3783	:0100010101;
3784	:0100010101;
3785	:0100010101;
3786	:0100010101;
3787	:0100010101;
3788	:0100010101;
3789	:0100010101;
3790	:0100010101;
3791	:0100010101;
3792	:0100010101;
3793	:0100010101;
3794	:0100010101;
3795	:0100010101;
3796	:0100010101;
3797	:0100010101;
3798	:0100010101;
3799	:0100010101;
3800	:0100010101;
3801	:0100010101;
3802	:0100010101;
3803	:0100010101;
3804	:0000000000;
3805	:0000000000;
3806	:0000000000;
3807	:0011110110;
3808	:0011110110;
3809	:0011110110;
3810	:0011110110;
3811	:0011110110;
3812	:0011110110;
3813	:0000000000;
3814	:0000000000;
3815	:0000000000;
3816	:0011110110;
3817	:0011110110;
3818	:0011110110;
3819	:0011110110;
3820	:0011110110;
3821	:0011110110;
3822	:0011110110;
3823	:0011110110;
3824	:0011110110;
3825	:0011110110;
3826	:0011110110;
3827	:0011110110;
3828	:0011110110;
3829	:0011110110;
3830	:0011110110;
3831	:0011110110;
3832	:0011110110;
3833	:0011110110;
3834	:0011110110;
3835	:0011110110;
3836	:0011110110;
3837	:0011110110;
3838	:0011110110;
3839	:0011110110;
3840	:0011110110;
3841	:0011110110;
3842	:0011110110;
3843	:0011110110;
3844	:0011110110;
3845	:0011110110;
3846	:0011110110;
3847	:0000000000;
3848	:0000000000;
3849	:0000000000;
3850	:0100010101;
3851	:0100010101;
3852	:0100010101;
3853	:0100010101;
3854	:0100010101;
3855	:0100010101;
3856	:0100010101;
3857	:0100010101;
3858	:0100010101;
3859	:0100010101;
3860	:0100010101;
3861	:0100010101;
3862	:0100010101;
3863	:0100010101;
3864	:0100010101;
3865	:0100010101;
3866	:0100010101;
3867	:0100010101;
3868	:0100010101;
3869	:0100010101;
3870	:0100010101;
3871	:0100010101;
3872	:0000000000;
3873	:0000000000;
3874	:0000000000;
3875	:0101110001;
3876	:0101110001;
3877	:0101110001;
3878	:0101110001;
3879	:0101110001;
3880	:0101110001;
3881	:0101110001;
3882	:0101110001;
3883	:0101110001;
3884	:0101110001;
3885	:0101110001;
3886	:0101110001;
3887	:0101110001;
3888	:0101110001;
3889	:0101110001;
3890	:0101110001;
3891	:0101110001;
3892	:0101110001;
3893	:0101110001;
3894	:0101110001;
3895	:0101110001;
3896	:0101110001;
3897	:0000000000;
3898	:0000000000;
3899	:0000000000;
3900	:0110111000;
3901	:0110111000;
3902	:0110111000;
3903	:0110111000;
3904	:0110111000;
3905	:0110111000;
3906	:0110111000;
3907	:0110111000;
3908	:0110111000;
3909	:0110111000;
3910	:0110111000;
3911	:0110111000;
3912	:0110111000;
3913	:0110111000;
3914	:0000000000;
3915	:0000000000;
3916	:0000000000;
3917	:0111101101;
3918	:0111101101;
3919	:0111101101;
3920	:0111101101;
3921	:0111101101;
3922	:0111101101;
3923	:0111101101;
3924	:0111101101;
3925	:0111101101;
3926	:0111101101;
3927	:0111101101;
3928	:0111101101;
3929	:0111101101;
3930	:0111101101;
3931	:0000000000;
3932	:0000000000;
3933	:0000000000;
3934	:0110111000;
3935	:0110111000;
3936	:0110111000;
3937	:0110111000;
3938	:0110111000;
3939	:0110111000;
3940	:0000000000;
3941	:0000000000;
3942	:0000000000;
3943	:0110011111;
3944	:0110011111;
3945	:0110011111;
3946	:0110011111;
3947	:0110011111;
3948	:0110011111;
3949	:0110011111;
3950	:0110011111;
3951	:0110011111;
3952	:0110011111;
3953	:0110011111;
3954	:0110011111;
3955	:0110011111;
3956	:0110011111;
3957	:0000000000;
3958	:0000000000;
3959	:0000000000;
3960	:0101110001;
3961	:0101110001;
3962	:0101110001;
3963	:0101110001;
3964	:0101110001;
3965	:0000000000;
3966	:0000000000;
3967	:0000000000;
3968	:0101110001;
3969	:0101110001;
3970	:0101110001;
3971	:0101110001;
3972	:0101110001;
3973	:0101110001;
3974	:0000000000;
3975	:0000000000;
3976	:0000000000;
3977	:0101001001;
3978	:0101001001;
3979	:0101001001;
3980	:0101001001;
3981	:0101001001;
3982	:0000000000;
3983	:0000000000;
3984	:0000000000;
3985	:0101110001;
3986	:0101110001;
3987	:0101110001;
3988	:0101110001;
3989	:0101110001;
3990	:0000000000;
3991	:0000000000;
3992	:0000000000;
3993	:0101001001;
3994	:0101001001;
3995	:0101001001;
3996	:0101001001;
3997	:0101001001;
3998	:0101001001;
3999	:0101001001;
4000	:0101001001;
4001	:0101001001;
4002	:0101001001;
4003	:0101001001;
4004	:0101001001;
4005	:0101001001;
4006	:0101001001;
4007	:0101001001;
4008	:0101001001;
4009	:0101001001;
4010	:0101001001;
4011	:0101001001;
4012	:0101001001;
4013	:0101001001;
4014	:0101001001;
4015	:0101001001;
4016	:0101001001;
4017	:0101001001;
4018	:0101001001;
4019	:0101001001;
4020	:0101001001;
4021	:0101001001;
4022	:0101001001;
4023	:0101001001;
4024	:0000000000;
4025	:0000000000;
4026	:0000000000;
4027	:0001101110;
4028	:0001101110;
4029	:0001101110;
4030	:0001101110;
4031	:0001101110;
4032	:0001101110;
4033	:0000000000;
4034	:0000000000;
4035	:0000000000;
4036	:0001111011;
4037	:0001111011;
4038	:0001111011;
4039	:0001111011;
4040	:0001111011;
4041	:0000000000;
4042	:0000000000;
4043	:0000000000;
4044	:0010000010;
4045	:0010000010;
4046	:0010000010;
4047	:0010000010;
4048	:0010000010;
4049	:0010000010;
4050	:0000000000;
4051	:0000000000;
4052	:0000000000;
4053	:0010001010;
4054	:0010001010;
4055	:0010001010;
4056	:0010001010;
4057	:0010001010;
4058	:0000000000;
4059	:0000000000;
4060	:0000000000;
4061	:0010001010;
4062	:0010001010;
4063	:0010001010;
4064	:0010001010;
4065	:0010001010;
4066	:0010001010;
4067	:0000000000;
4068	:0000000000;
4069	:0000000000;
4070	:0010001010;
4071	:0010001010;
4072	:0010001010;
4073	:0010001010;
4074	:0010001010;
4075	:0000000000;
4076	:0000000000;
4077	:0000000000;
4078	:0010010010;
4079	:0010010010;
4080	:0010010010;
4081	:0010010010;
4082	:0010010010;
4083	:0010010010;
4084	:0010010010;
4085	:0010010010;
4086	:0010010010;
4087	:0010010010;
4088	:0010010010;
4089	:0010010010;
4090	:0010010010;
4091	:0010010010;
4092	:0000000000;
4093	:0000000000;
4094	:0000000000;
4095	:0001111011;
4096	:0001111011;
4097	:0001111011;
4098	:0001111011;
4099	:0001111011;
4100	:0001111011;
4101	:0001111011;
4102	:0001111011;
4103	:0001111011;
4104	:0001111011;
4105	:0001111011;
4106	:0001111011;
4107	:0001111011;
4108	:0001111011;
4109	:0000000000;
4110	:0000000000;
4111	:0000000000;
4112	:0010001010;
4113	:0010001010;
4114	:0010001010;
4115	:0010001010;
4116	:0010001010;
4117	:0000000000;
4118	:0000000000;
4119	:0000000000;
4120	:0000000000;
4121	:0100010101;
4122	:0100010101;
4123	:0100010101;
4124	:0100010101;
4125	:0100010101;
4126	:0100010101;
4127	:0100010101;
4128	:0100010101;
4129	:0100010101;
4130	:0100010101;
4131	:0100010101;
4132	:0100010101;
4133	:0100010101;
4134	:0100010101;
4135	:0100010101;
4136	:0100010101;
4137	:0100010101;
4138	:0100010101;
4139	:0100010101;
4140	:0100010101;
4141	:0100010101;
4142	:0100010101;
4143	:0000000000;
4144	:0000000000;
4145	:0000000000;
4146	:0101110001;
4147	:0101110001;
4148	:0101110001;
4149	:0101110001;
4150	:0101110001;
4151	:0101110001;
4152	:0101110001;
4153	:0101110001;
4154	:0101110001;
4155	:0101110001;
4156	:0101110001;
4157	:0101110001;
4158	:0101110001;
4159	:0101110001;
4160	:0101110001;
4161	:0101110001;
4162	:0101110001;
4163	:0101110001;
4164	:0101110001;
4165	:0101110001;
4166	:0101110001;
4167	:0101110001;
4168	:0101110001;
4169	:0000000000;
4170	:0000000000;
4171	:0000000000;
4172	:0110111000;
4173	:0110111000;
4174	:0110111000;
4175	:0110111000;
4176	:0110111000;
4177	:0110111000;
4178	:0110111000;
4179	:0110111000;
4180	:0110111000;
4181	:0110111000;
4182	:0110111000;
4183	:0110111000;
4184	:0110111000;
4185	:0110111000;
4186	:0000000000;
4187	:0000000000;
4188	:0000000000;
4189	:0110011111;
4190	:0110011111;
4191	:0110011111;
4192	:0110011111;
4193	:0110011111;
4194	:0110011111;
4195	:0110011111;
4196	:0110011111;
4197	:0110011111;
4198	:0110011111;
4199	:0110011111;
4200	:0110011111;
4201	:0110011111;
4202	:0110011111;
4203	:0000000000;
4204	:0000000000;
4205	:0000000000;
4206	:0101110001;
4207	:0101110001;
4208	:0101110001;
4209	:0101110001;
4210	:0101110001;
4211	:0000000000;
4212	:0000000000;
4213	:0000000000;
4214	:0101001001;
4215	:0101001001;
4216	:0101001001;
4217	:0101001001;
4218	:0101001001;
4219	:0101001001;
4220	:0101001001;
4221	:0101001001;
4222	:0101001001;
4223	:0101001001;
4224	:0101001001;
4225	:0101001001;
4226	:0101001001;
4227	:0101001001;
4228	:0101001001;
4229	:0101001001;
4230	:0101001001;
4231	:0101001001;
4232	:0101001001;
4233	:0101001001;
4234	:0101001001;
4235	:0101001001;
4236	:0000000000;
4237	:0000000000;
4238	:0000000000;
4239	:0100100101;
4240	:0100100101;
4241	:0100100101;
4242	:0100100101;
4243	:0100100101;
4244	:0100100101;
4245	:0000000000;
4246	:0000000000;
4247	:0000000000;
4248	:0100010101;
4249	:0100010101;
4250	:0100010101;
4251	:0100010101;
4252	:0100010101;
4253	:0100010101;
4254	:0100010101;
4255	:0100010101;
4256	:0100010101;
4257	:0100010101;
4258	:0100010101;
4259	:0100010101;
4260	:0100010101;
4261	:0100010101;
4262	:0100010101;
4263	:0100010101;
4264	:0100010101;
4265	:0100010101;
4266	:0100010101;
4267	:0100010101;
4268	:0100010101;
4269	:0100010101;
4270	:0100010101;
4271	:0100010101;
4272	:0100010101;
4273	:0100010101;
4274	:0100010101;
4275	:0100010101;
4276	:0100010101;
4277	:0100010101;
4278	:0100010101;
4279	:0000000000;
4280	:0000000000;
4281	:0000000000;
4282	:0100010101;
4283	:0100010101;
4284	:0100010101;
4285	:0100010101;
4286	:0100010101;
4287	:0000000000;
4288	:0000000000;
4289	:0000000000;
4290	:0101001001;
4291	:0101001001;
4292	:0101001001;
4293	:0101001001;
4294	:0101001001;
4295	:0101001001;
4296	:0101001001;
4297	:0101001001;
4298	:0101001001;
4299	:0101001001;
4300	:0000000000;
4301	:0000000000;
4302	:0000000000;
4303	:0110111000;
4304	:0110111000;
4305	:0110111000;
4306	:0110111000;
4307	:0110111000;
4308	:0110111000;
4309	:0110111000;
4310	:0110111000;
4311	:0110111000;
4312	:0000000000;
4313	:0000000000;
4314	:0000000000;
4315	:1000101010;
4316	:1000101010;
4317	:1000101010;
4318	:1000101010;
4319	:1000101010;
4320	:1000101010;
4321	:0000000000;
4322	:0000000000;
4323	:0000000000;
4324	:1000101010;
4325	:1000101010;
4326	:1000101010;
4327	:1000101010;
4328	:1000101010;
4329	:1000101010;
4330	:1000101010;
4331	:1000101010;
4332	:1000101010;
4333	:1000101010;
4334	:0000000000;
4335	:0000000000;
4336	:0000000000;
4337	:0111101101;
4338	:0111101101;
4339	:0111101101;
4340	:0111101101;
4341	:0111101101;
4342	:0111101101;
4343	:0111101101;
4344	:0111101101;
4345	:0111101101;
4346	:0000000000;
4347	:0000000000;
4348	:0000000000;
4349	:0110111000;
4350	:0110111000;
4351	:0110111000;
4352	:0110111000;
4353	:0110111000;
4354	:0110111000;
4355	:0000000000;
4356	:0000000000;
4357	:0000000000;
4358	:0110011111;
4359	:0110011111;
4360	:0110011111;
4361	:0110011111;
4362	:0110011111;
4363	:0110011111;
4364	:0110011111;
4365	:0110011111;
4366	:0110011111;
4367	:0110011111;
4368	:0110011111;
4369	:0110011111;
4370	:0110011111;
4371	:0110011111;
4372	:0110011111;
4373	:0110011111;
4374	:0110011111;
4375	:0110011111;
4376	:0110011111;
4377	:0110011111;
4378	:0110011111;
4379	:0110011111;
4380	:0110011111;
4381	:0110011111;
4382	:0110011111;
4383	:0110011111;
4384	:0110011111;
4385	:0110011111;
4386	:0110011111;
4387	:0110011111;
4388	:0110011111;
4389	:0000000000;
4390	:0000000000;
4391	:0000000000;
4392	:0100010101;
4393	:0100010101;
4394	:0100010101;
4395	:0100010101;
4396	:0100010101;
4397	:0100010101;
4398	:0100010101;
4399	:0100010101;
4400	:0100010101;
4401	:0100010101;
4402	:0100010101;
4403	:0100010101;
4404	:0100010101;
4405	:0100010101;
4406	:0100010101;
4407	:0100010101;
4408	:0100010101;
4409	:0100010101;
4410	:0100010101;
4411	:0100010101;
4412	:0100010101;
4413	:0100010101;
4414	:0000000000;
4415	:0000000000;
4416	:0000000000;
4417	:0101110001;
4418	:0101110001;
4419	:0101110001;
4420	:0101110001;
4421	:0101110001;
4422	:0101110001;
4423	:0101110001;
4424	:0101110001;
4425	:0101110001;
4426	:0101110001;
4427	:0101110001;
4428	:0101110001;
4429	:0101110001;
4430	:0101110001;
4431	:0101110001;
4432	:0101110001;
4433	:0101110001;
4434	:0101110001;
4435	:0101110001;
4436	:0101110001;
4437	:0101110001;
4438	:0101110001;
4439	:0000000000;
4440	:0000000000;
4441	:0000000000;
4442	:0110111000;
4443	:0110111000;
4444	:0110111000;
4445	:0110111000;
4446	:0110111000;
4447	:0110111000;
4448	:0110111000;
4449	:0110111000;
4450	:0110111000;
4451	:0110111000;
4452	:0110111000;
4453	:0110111000;
4454	:0110111000;
4455	:0110111000;
4456	:0000000000;
4457	:0000000000;
4458	:0000000000;
4459	:0111101101;
4460	:0111101101;
4461	:0111101101;
4462	:0111101101;
4463	:0111101101;
4464	:0111101101;
4465	:0111101101;
4466	:0111101101;
4467	:0111101101;
4468	:0111101101;
4469	:0111101101;
4470	:0111101101;
4471	:0111101101;
4472	:0111101101;
4473	:0000000000;
4474	:0000000000;
4475	:0000000000;
4476	:0110111000;
4477	:0110111000;
4478	:0110111000;
4479	:0110111000;
4480	:0110111000;
4481	:0110111000;
4482	:0000000000;
4483	:0000000000;
4484	:0000000000;
4485	:0110011111;
4486	:0110011111;
4487	:0110011111;
4488	:0110011111;
4489	:0110011111;
4490	:0110011111;
4491	:0110011111;
4492	:0110011111;
4493	:0110011111;
4494	:0110011111;
4495	:0110011111;
4496	:0110011111;
4497	:0110011111;
4498	:0110011111;
4499	:0000000000;
4500	:0000000000;
4501	:0000000000;
4502	:0101110001;
4503	:0101110001;
4504	:0101110001;
4505	:0101110001;
4506	:0101110001;
4507	:0000000000;
4508	:0000000000;
4509	:0000000000;
4510	:0101110001;
4511	:0101110001;
4512	:0101110001;
4513	:0101110001;
4514	:0101110001;
4515	:0000000000;
4516	:0000000000;
4517	:0000000000;
4518	:0101001001;
4519	:0101001001;
4520	:0101001001;
4521	:0101001001;
4522	:0101001001;
4523	:0101001001;
4524	:0000000000;
4525	:0000000000;
4526	:0000000000;
4527	:0101110001;
4528	:0101110001;
4529	:0101110001;
4530	:0101110001;
4531	:0101110001;
4532	:0000000000;
4533	:0000000000;
4534	:0000000000;
4535	:0101001001;
4536	:0101001001;
4537	:0101001001;
4538	:0101001001;
4539	:0101001001;
4540	:0101001001;
4541	:0101001001;
4542	:0101001001;
4543	:0101001001;
4544	:0101001001;
4545	:0101001001;
4546	:0101001001;
4547	:0101001001;
4548	:0101001001;
4549	:0101001001;
4550	:0101001001;
4551	:0101001001;
4552	:0101001001;
4553	:0101001001;
4554	:0101001001;
4555	:0101001001;
4556	:0101001001;
4557	:0101001001;
4558	:0101001001;
4559	:0101001001;
4560	:0101001001;
4561	:0101001001;
4562	:0101001001;
4563	:0101001001;
4564	:0101001001;
4565	:0101001001;
4566	:0101001001;
4567	:0101001001;
4568	:0101001001;
4569	:0101001001;
4570	:0101001001;
4571	:0101001001;
4572	:0101001001;
4573	:0101001001;
4574	:0101001001;
4575	:0101001001;
4576	:0101001001;
4577	:0101001001;
4578	:0101001001;
4579	:0101001001;
4580	:0101001001;
4581	:0101001001;
4582	:0101001001;
4583	:0101001001;
4584	:0101001001;
4585	:0101001001;
4586	:0101001001;
4587	:0101001001;
4588	:0101001001;
4589	:0101001001;
4590	:0101001001;
4591	:0101001001;
4592	:0000000000;
4593	:0000000000;
4594	:0000000000;
4595	:0010001010;
4596	:0010001010;
4597	:0010001010;
4598	:0010001010;
4599	:0010001010;
4600	:0000000000;
4601	:0000000000;
4602	:0000000000;
4603	:0010001010;
4604	:0010001010;
4605	:0010001010;
4606	:0010001010;
4607	:0010001010;
4608	:0000000000;
4609	:0000000000;
4610	:0000000000;
4611	:0010001010;
4612	:0010001010;
4613	:0010001010;
4614	:0010001010;
4615	:0010001010;
4616	:0010001010;
4617	:0000000000;
4618	:0000000000;
4619	:0000000000;
4620	:0010010010;
4621	:0010010010;
4622	:0010010010;
4623	:0010010010;
4624	:0010010010;
4625	:0010010010;
4626	:0010010010;
4627	:0010010010;
4628	:0010010010;
4629	:0010010010;
4630	:0010010010;
4631	:0010010010;
4632	:0010010010;
4633	:0010010010;
4634	:0000000000;
4635	:0000000000;
4636	:0000000000;
4637	:0001111011;
4638	:0001111011;
4639	:0001111011;
4640	:0001111011;
4641	:0001111011;
4642	:0001111011;
4643	:0001111011;
4644	:0001111011;
4645	:0001111011;
4646	:0001111011;
4647	:0001111011;
4648	:0001111011;
4649	:0001111011;
4650	:0001111011;
4651	:0000000000;
4652	:0000000000;
4653	:0000000000;
4654	:0000000000;
4655	:0000000000;
4656	:0000000000;
4657	:0000000000;
4658	:0000000000;
4659	:0000000000;
4660	:0100010101;
4661	:0100010101;
4662	:0100010101;
4663	:0100010101;
4664	:0100010101;
4665	:0100010101;
4666	:0100010101;
4667	:0100010101;
4668	:0100010101;
4669	:0100010101;
4670	:0100010101;
4671	:0100010101;
4672	:0100010101;
4673	:0100010101;
4674	:0100010101;
4675	:0100010101;
4676	:0100010101;
4677	:0100010101;
4678	:0100010101;
4679	:0100010101;
4680	:0100010101;
4681	:0100010101;
4682	:0000000000;
4683	:0000000000;
4684	:0000000000;
4685	:0101110001;
4686	:0101110001;
4687	:0101110001;
4688	:0101110001;
4689	:0101110001;
4690	:0101110001;
4691	:0101110001;
4692	:0101110001;
4693	:0101110001;
4694	:0101110001;
4695	:0101110001;
4696	:0101110001;
4697	:0101110001;
4698	:0101110001;
4699	:0101110001;
4700	:0101110001;
4701	:0101110001;
4702	:0101110001;
4703	:0101110001;
4704	:0101110001;
4705	:0101110001;
4706	:0101110001;
4707	:0101110001;
4708	:0000000000;
4709	:0000000000;
4710	:0000000000;
4711	:0110111000;
4712	:0110111000;
4713	:0110111000;
4714	:0110111000;
4715	:0110111000;
4716	:0110111000;
4717	:0110111000;
4718	:0110111000;
4719	:0110111000;
4720	:0110111000;
4721	:0110111000;
4722	:0110111000;
4723	:0110111000;
4724	:0110111000;
4725	:0000000000;
4726	:0000000000;
4727	:0000000000;
4728	:0110011111;
4729	:0110011111;
4730	:0110011111;
4731	:0110011111;
4732	:0110011111;
4733	:0110011111;
4734	:0110011111;
4735	:0110011111;
4736	:0110011111;
4737	:0110011111;
4738	:0110011111;
4739	:0110011111;
4740	:0110011111;
4741	:0110011111;
4742	:0000000000;
4743	:0000000000;
4744	:0000000000;
4745	:0000000000;
4746	:0000000000;
4747	:0000000000;
4748	:0000000000;
4749	:0000000000;
4750	:0000000000;
4751	:0000000000;
4752	:0000000000;
4753	:0110111000;
4754	:0110111000;
4755	:0110111000;
4756	:0110111000;
4757	:0110111000;
4758	:0110111000;
4759	:0000000000;
4760	:0000000000;
4761	:0000000000;
4762	:0110111000;
4763	:0110111000;
4764	:0110111000;
4765	:0110111000;
4766	:0110111000;
4767	:0000000000;
4768	:0000000000;
4769	:0000000000;
4770	:0110011111;
4771	:0110011111;
4772	:0110011111;
4773	:0110011111;
4774	:0110011111;
4775	:0000000000;
4776	:0000000000;
4777	:0000000000;
4778	:0101110001;
4779	:0101110001;
4780	:0101110001;
4781	:0101110001;
4782	:0101110001;
4783	:0101110001;
4784	:0000000000;
4785	:0000000000;
4786	:0000000000;
4787	:0110011111;
4788	:0110011111;
4789	:0110011111;
4790	:0110011111;
4791	:0110011111;
4792	:0000000000;
4793	:0000000000;
4794	:0000000000;
4795	:0110011111;
4796	:0110011111;
4797	:0110011111;
4798	:0110011111;
4799	:0110011111;
4800	:0110011111;
4801	:0110011111;
4802	:0110011111;
4803	:0110011111;
4804	:0110011111;
4805	:0110011111;
4806	:0110011111;
4807	:0110011111;
4808	:0110011111;
4809	:0110011111;
4810	:0110011111;
4811	:0110011111;
4812	:0110011111;
4813	:0110011111;
4814	:0110011111;
4815	:0110011111;
4816	:0110011111;
4817	:0110011111;
4818	:0000000000;
4819	:0000000000;
4820	:0000000000;
4821	:0101110001;
4822	:0101110001;
4823	:0101110001;
4824	:0101110001;
4825	:0101110001;
4826	:0000000000;
4827	:0000000000;
4828	:0000000000;
4829	:0101110001;
4830	:0101110001;
4831	:0101110001;
4832	:0101110001;
4833	:0101110001;
4834	:0101110001;
4835	:0101110001;
4836	:0101110001;
4837	:0101110001;
4838	:0101110001;
4839	:0101110001;
4840	:0101110001;
4841	:0101110001;
4842	:0101110001;
4843	:0101110001;
4844	:0101110001;
4845	:0101110001;
4846	:0101110001;
4847	:0101110001;
4848	:0101110001;
4849	:0101110001;
4850	:0101110001;
4851	:0101110001;
4852	:0101110001;
4853	:0101110001;
4854	:0101110001;
4855	:0101110001;
4856	:0101110001;
4857	:0101110001;
4858	:0101110001;
4859	:0101110001;
4860	:0000000000;
4861	:0000000000;
4862	:0000000000;
4863	:0010010010;
4864	:0010010010;
4865	:0010010010;
4866	:0010010010;
4867	:0010010010;
4868	:0000000000;
4869	:0000000000;
4870	:0000000000;
4871	:0011011100;
4872	:0011011100;
4873	:0011011100;
4874	:0011011100;
4875	:0011011100;
4876	:0011011100;
4877	:0000000000;
4878	:0000000000;
4879	:0000000000;
4880	:0011001111;
4881	:0011001111;
4882	:0011001111;
4883	:0011001111;
4884	:0011001111;
4885	:0000000000;
4886	:0000000000;
4887	:0000000000;
4888	:0010100100;
4889	:0010100100;
4890	:0010100100;
4891	:0010100100;
4892	:0010100100;
4893	:0010100100;
4894	:0000000000;
4895	:0000000000;
4896	:0000000000;
4897	:0011110110;
4898	:0011110110;
4899	:0011110110;
4900	:0011110110;
4901	:0011110110;
4902	:0000000000;
4903	:0000000000;
4904	:0000000000;
4905	:0011011100;
4906	:0011011100;
4907	:0011011100;
4908	:0011011100;
4909	:0011011100;
4910	:0011011100;
4911	:0000000000;
4912	:0000000000;
4913	:0000000000;
4914	:0011001111;
4915	:0011001111;
4916	:0011001111;
4917	:0011001111;
4918	:0011001111;
4919	:0000000000;
4920	:0000000000;
4921	:0000000000;
4922	:0010100100;
4923	:0010100100;
4924	:0010100100;
4925	:0010100100;
4926	:0010100100;
4927	:0010100100;
4928	:0000000000;
4929	:0000000000;
4930	:0000000000;
4931	:0010111000;
4932	:0010111000;
4933	:0010111000;
4934	:0010111000;
4935	:0010111000;
4936	:0000000000;
4937	:0000000000;
4938	:0000000000;
4939	:0011011100;
4940	:0011011100;
4941	:0011011100;
4942	:0011011100;
4943	:0011011100;
4944	:0011011100;
4945	:0000000000;
4946	:0000000000;
4947	:0000000000;
4948	:0011001111;
4949	:0011001111;
4950	:0011001111;
4951	:0011001111;
4952	:0011001111;
4953	:0000000000;
4954	:0000000000;
4955	:0000000000;
4956	:0011011100;
4957	:0011011100;
4958	:0011011100;
4959	:0011011100;
4960	:0011011100;
4961	:0000000000;
4962	:0000000000;
4963	:0000000000;
4964	:0011110110;
4965	:0011110110;
4966	:0011110110;
4967	:0011110110;
4968	:0011110110;
4969	:0011110110;
4970	:0000000000;
4971	:0000000000;
4972	:0000000000;
4973	:0011011100;
4974	:0011011100;
4975	:0011011100;
4976	:0011011100;
4977	:0011011100;
4978	:0000000000;
4979	:0000000000;
4980	:0000000000;
4981	:0011001111;
4982	:0011001111;
4983	:0011001111;
4984	:0011001111;
4985	:0011001111;
4986	:0011001111;
4987	:0000000000;
4988	:0000000000;
4989	:0000000000;
4990	:0010100100;
4991	:0010100100;
4992	:0010100100;
4993	:0010100100;
4994	:0010100100;
4995	:0000000000;
4996	:0000000000;
4997	:0000000000;
4998	:0011110110;
4999	:0011110110;
5000	:0011110110;
5001	:0011110110;
5002	:0011110110;
5003	:0011110110;
5004	:0000000000;
5005	:0000000000;
5006	:0000000000;
5007	:0011011100;
5008	:0011011100;
5009	:0011011100;
5010	:0011011100;
5011	:0011011100;
5012	:0000000000;
5013	:0000000000;
5014	:0000000000;
5015	:0011001111;
5016	:0011001111;
5017	:0011001111;
5018	:0011001111;
5019	:0011001111;
5020	:0011001111;
5021	:0000000000;
5022	:0000000000;
5023	:0000000000;
5024	:0000000000;
5025	:0000000000;
5026	:0000000000;
5027	:0000000000;
5028	:0000000000;
5029	:0000000000;
5030	:0000000000;
5031	:0000000000;
5032	:0011110110;
5033	:0011110110;
5034	:0011110110;
5035	:0011110110;
5036	:0011110110;
5037	:0011110110;
5038	:0000000000;
5039	:0000000000;
5040	:0000000000;
5041	:0011011100;
5042	:0011011100;
5043	:0011011100;
5044	:0011011100;
5045	:0011011100;
5046	:0000000000;
5047	:0000000000;
5048	:0000000000;
5049	:0011001111;
5050	:0011001111;
5051	:0011001111;
5052	:0011001111;
5053	:0011001111;
5054	:0000000000;
5055	:0000000000;
5056	:0000000000;
5057	:0000000000;
5058	:0010100100;
5059	:0010100100;
5060	:0010100100;
5061	:0010100100;
5062	:0010100100;
5063	:0000000000;
5064	:0000000000;
5065	:0000000000;
5066	:0011011100;
5067	:0011011100;
5068	:0011011100;
5069	:0011011100;
5070	:0011011100;
5071	:0000000000;
5072	:0000000000;
5073	:0000000000;
5074	:0100000101;
5075	:0100000101;
5076	:0100000101;
5077	:0100000101;
5078	:0100000101;
5079	:0100000101;
5080	:0000000000;
5081	:0000000000;
5082	:0000000000;
5083	:0011110110;
5084	:0011110110;
5085	:0011110110;
5086	:0011110110;
5087	:0011110110;
5088	:0000000000;
5089	:0000000000;
5090	:0000000000;
5091	:0100000101;
5092	:0100000101;
5093	:0100000101;
5094	:0100000101;
5095	:0100000101;
5096	:0100000101;
5097	:0000000000;
5098	:0000000000;
5099	:0000000000;
5100	:0100100101;
5101	:0100100101;
5102	:0100100101;
5103	:0100100101;
5104	:0100100101;
5105	:0000000000;
5106	:0000000000;
5107	:0000000000;
5108	:0100000101;
5109	:0100000101;
5110	:0100000101;
5111	:0100000101;
5112	:0100000101;
5113	:0100000101;
5114	:0000000000;
5115	:0000000000;
5116	:0000000000;
5117	:0011110110;
5118	:0011110110;
5119	:0011110110;
5120	:0011110110;
5121	:0011110110;
5122	:0000000000;
5123	:0000000000;
5124	:0000000000;
5125	:0011000011;
5126	:0011000011;
5127	:0011000011;
5128	:0011000011;
5129	:0011000011;
5130	:0011000011;
5131	:0000000000;
5132	:0000000000;
5133	:0000000000;
5134	:0100100101;
5135	:0100100101;
5136	:0100100101;
5137	:0100100101;
5138	:0100100101;
5139	:0000000000;
5140	:0000000000;
5141	:0000000000;
5142	:0100000101;
5143	:0100000101;
5144	:0100000101;
5145	:0100000101;
5146	:0100000101;
5147	:0100000101;
5148	:0000000000;
5149	:0000000000;
5150	:0000000000;
5151	:0011110110;
5152	:0011110110;
5153	:0011110110;
5154	:0011110110;
5155	:0011110110;
5156	:0000000000;
5157	:0000000000;
5158	:0000000000;
5159	:0011000011;
5160	:0011000011;
5161	:0011000011;
5162	:0011000011;
5163	:0011000011;
5164	:0000000000;
5165	:0000000000;
5166	:0000000000;
5167	:0100100101;
5168	:0100100101;
5169	:0100100101;
5170	:0100100101;
5171	:0100100101;
5172	:0100100101;
5173	:0000000000;
5174	:0000000000;
5175	:0000000000;
5176	:0100000101;
5177	:0100000101;
5178	:0100000101;
5179	:0100000101;
5180	:0100000101;
5181	:0000000000;
5182	:0000000000;
5183	:0000000000;
5184	:0011110110;
5185	:0011110110;
5186	:0011110110;
5187	:0011110110;
5188	:0011110110;
5189	:0011110110;
5190	:0000000000;
5191	:0000000000;
5192	:0000000000;
5193	:0011000011;
5194	:0011000011;
5195	:0011000011;
5196	:0011000011;
5197	:0011000011;
5198	:0000000000;
5199	:0000000000;
5200	:0000000000;
5201	:0011011100;
5202	:0011011100;
5203	:0011011100;
5204	:0011011100;
5205	:0011011100;
5206	:0011011100;
5207	:0000000000;
5208	:0000000000;
5209	:0000000000;
5210	:0100000101;
5211	:0100000101;
5212	:0100000101;
5213	:0100000101;
5214	:0100000101;
5215	:0000000000;
5216	:0000000000;
5217	:0000000000;
5218	:0011110110;
5219	:0011110110;
5220	:0011110110;
5221	:0011110110;
5222	:0011110110;
5223	:0011110110;
5224	:0000000000;
5225	:0000000000;
5226	:0000000000;
5227	:0100000101;
5228	:0100000101;
5229	:0100000101;
5230	:0100000101;
5231	:0100000101;
5232	:0000000000;
5233	:0000000000;
5234	:0000000000;
5235	:0100100101;
5236	:0100100101;
5237	:0100100101;
5238	:0100100101;
5239	:0100100101;
5240	:0100100101;
5241	:0000000000;
5242	:0000000000;
5243	:0000000000;
5244	:0100000101;
5245	:0100000101;
5246	:0100000101;
5247	:0100000101;
5248	:0100000101;
5249	:0000000000;
5250	:0000000000;
5251	:0000000000;
5252	:0011110110;
5253	:0011110110;
5254	:0011110110;
5255	:0011110110;
5256	:0011110110;
5257	:0000000000;
5258	:0000000000;
5259	:0000000000;
5260	:0011000011;
5261	:0011000011;
5262	:0011000011;
5263	:0011000011;
5264	:0011000011;
5265	:0011000011;
5266	:0000000000;
5267	:0000000000;
5268	:0000000000;
5269	:0100100101;
5270	:0100100101;
5271	:0100100101;
5272	:0100100101;
5273	:0100100101;
5274	:0000000000;
5275	:0000000000;
5276	:0000000000;
5277	:0100000101;
5278	:0100000101;
5279	:0100000101;
5280	:0100000101;
5281	:0100000101;
5282	:0100000101;
5283	:0000000000;
5284	:0000000000;
5285	:0000000000;
5286	:0011101001;
5287	:0011101001;
5288	:0011101001;
5289	:0011101001;
5290	:0011101001;
5291	:0000000000;
5292	:0000000000;
5293	:0000000000;
5294	:0011000011;
5295	:0011000011;
5296	:0011000011;
5297	:0011000011;
5298	:0011000011;
5299	:0011000011;
5300	:0000000000;
5301	:0000000000;
5302	:0000000000;
5303	:0100100101;
5304	:0100100101;
5305	:0100100101;
5306	:0100100101;
5307	:0100100101;
5308	:0000000000;
5309	:0000000000;
5310	:0000000000;
5311	:0100000101;
5312	:0100000101;
5313	:0100000101;
5314	:0100000101;
5315	:0100000101;
5316	:0100000101;
5317	:0000000000;
5318	:0000000000;
5319	:0000000000;
5320	:0011110110;
5321	:0011110110;
5322	:0011110110;
5323	:0011110110;
5324	:0011110110;
5325	:0000000000;
5326	:0000000000;
5327	:0000000000;
5328	:0011001111;
5329	:0011001111;
5330	:0011001111;
5331	:0011001111;
5332	:0011001111;
5333	:0011001111;
5334	:0000000000;
5335	:0000000000;
5336	:0000000000;
5337	:0011011100;
5338	:0011011100;
5339	:0011011100;
5340	:0011011100;
5341	:0011011100;
5342	:0000000000;
5343	:0000000000;
5344	:0000000000;
5345	:0011011100;
5346	:0011011100;
5347	:0011011100;
5348	:0011011100;
5349	:0011011100;
5350	:0000000000;
5351	:0000000000;
5352	:0000000000;
5353	:0011011100;
5354	:0011011100;
5355	:0011011100;
5356	:0011011100;
5357	:0011011100;
5358	:0011011100;
5359	:0000000000;
5360	:0000000000;
5361	:0000000000;
5362	:0011101001;
5363	:0011101001;
5364	:0011101001;
5365	:0011101001;
5366	:0011101001;
5367	:0011101001;
5368	:0011101001;
5369	:0011101001;
5370	:0011101001;
5371	:0011101001;
5372	:0011101001;
5373	:0011101001;
5374	:0011101001;
5375	:0011101001;
5376	:0000000000;
5377	:0000000000;
5378	:0000000000;
5379	:0000000000;
5380	:0000000000;
5381	:0000000000;
5382	:0000000000;
5383	:0000000000;
5384	:0000000000;
5385	:0000000000;
5386	:0000000000;
5387	:0000000000;
5388	:0000000000;
5389	:0000000000;
5390	:0000000000;
5391	:0000000000;
5392	:0000000000;
5393	:0000000000;
5394	:0000000000;
5395	:0000000000;
5396	:0011011100;
5397	:0011011100;
5398	:0011011100;
5399	:0011011100;
5400	:0011011100;
5401	:0011011100;
5402	:0011011100;
5403	:0011011100;
5404	:0011011100;
5405	:0011011100;
5406	:0011011100;
5407	:0011011100;
5408	:0011011100;
5409	:0011011100;
5410	:0000000000;
5411	:0000000000;
5412	:0000000000;
5413	:0010100100;
5414	:0010100100;
5415	:0010100100;
5416	:0010100100;
5417	:0010100100;
5418	:0010100100;
5419	:0010100100;
5420	:0010100100;
5421	:0010100100;
5422	:0010100100;
5423	:0010100100;
5424	:0010100100;
5425	:0010100100;
5426	:0010100100;
5427	:0000000000;
5428	:0000000000;
5429	:0000000000;
5430	:0010100100;
5431	:0010100100;
5432	:0010100100;
5433	:0010100100;
5434	:0010100100;
5435	:0000000000;
5436	:0000000000;
5437	:0000000000;
5438	:0010101110;
5439	:0010101110;
5440	:0010101110;
5441	:0010101110;
5442	:0010101110;
5443	:0010101110;
5444	:0010101110;
5445	:0010101110;
5446	:0010101110;
5447	:0010101110;
5448	:0010101110;
5449	:0010101110;
5450	:0010101110;
5451	:0010101110;
5452	:0000000000;
5453	:0000000000;
5454	:0000000000;
5455	:0011000011;
5456	:0011000011;
5457	:0011000011;
5458	:0011000011;
5459	:0011000011;
5460	:0011000011;
5461	:0011000011;
5462	:0011000011;
5463	:0011000011;
5464	:0011000011;
5465	:0011000011;
5466	:0011000011;
5467	:0011000011;
5468	:0011000011;
5469	:0000000000;
5470	:0000000000;
5471	:0000000000;
5472	:0011011100;
5473	:0011011100;
5474	:0011011100;
5475	:0011011100;
5476	:0011011100;
5477	:0000000000;
5478	:0000000000;
5479	:0000000000;
5480	:0000000000;
5481	:0000000000;
5482	:0000000000;
5483	:0000000000;
5484	:0000000000;
5485	:0000000000;
5486	:0000000000;
5487	:0000000000;
5488	:0000000000;
5489	:0011011100;
5490	:0011011100;
5491	:0011011100;
5492	:0011011100;
5493	:0011011100;
5494	:0000000000;
5495	:0000000000;
5496	:0000000000;
5497	:0011101001;
5498	:0011101001;
5499	:0011101001;
5500	:0011101001;
END;