DEPTH = 2048;
WIDTH = 10;
ADDRESS_RADIX=DEC;
DATA_RADIX=BIN;
CONTENT
BEGIN
0000	:0000000000;
0001	:0011110110;
0002	:0011110110;
0003	:0011110110;
0004	:0011110110;
0005	:0011110110;
0006	:0011110110;
0007	:0011110110;
0008	:0011110110;
0009	:0011110110;
0010	:0011110110;
0011	:0011110110;
0012	:0011110110;
0013	:0100010101;
0014	:0100010101;
0015	:0100010101;
0016	:0100010101;
0017	:0100010101;
0018	:0100010101;
0019	:0100010101;
0020	:0100010101;
0021	:0100010101;
0022	:0100010101;
0023	:0100010101;
0024	:0100010101;
0025	:0100010101;
0026	:0100100101;
0027	:0100100101;
0028	:0100100101;
0029	:0100100101;
0030	:0100100101;
0031	:0100100101;
0032	:0100100101;
0033	:0100100101;
0034	:0100100101;
0035	:0100100101;
0036	:0100100101;
0037	:0100100101;
0038	:0101001001;
0039	:0101001001;
0040	:0101001001;
0041	:0101001001;
0042	:0101001001;
0043	:0101001001;
0044	:0101001001;
0045	:0101001001;
0046	:0101001001;
0047	:0101001001;
0048	:0101001001;
0049	:0101001001;
0050	:0101001001;
0051	:0101110001;
0052	:0101110001;
0053	:0101110001;
0054	:0101110001;
0055	:0101110001;
0056	:0101110001;
0057	:0101110001;
0058	:0101110001;
0059	:0101110001;
0060	:0101110001;
0061	:0101110001;
0062	:0101110001;
0063	:0100100101;
0064	:0100100101;
0065	:0100100101;
0066	:0100100101;
0067	:0100100101;
0068	:0100100101;
0069	:0100100101;
0070	:0100100101;
0071	:0100100101;
0072	:0100100101;
0073	:0100100101;
0074	:0100100101;
0075	:0100100101;
0076	:0101110001;
0077	:0101110001;
0078	:0101110001;
0079	:0101110001;
0080	:0101110001;
0081	:0101110001;
0082	:0101110001;
0083	:0101110001;
0084	:0101110001;
0085	:0101110001;
0086	:0101110001;
0087	:0101110001;
0088	:0101110001;
0089	:0101110001;
0090	:0101110001;
0091	:0101110001;
0092	:0101110001;
0093	:0101110001;
0094	:0101110001;
0095	:0101110001;
0096	:0101110001;
0097	:0101110001;
0098	:0101110001;
0099	:0101110001;
0100	:0101110001;
0101	:0101011101;
0102	:0101011101;
0103	:0101011101;
0104	:0101011101;
0105	:0101011101;
0106	:0101011101;
0107	:0101011101;
0108	:0101011101;
0109	:0101011101;
0110	:0101011101;
0111	:0101011101;
0112	:0101011101;
0113	:0100010101;
0114	:0100010101;
0115	:0100010101;
0116	:0100010101;
0117	:0100010101;
0118	:0100010101;
0119	:0100010101;
0120	:0100010101;
0121	:0100010101;
0122	:0100010101;
0123	:0100010101;
0124	:0100010101;
0125	:0100010101;
0126	:0101011101;
0127	:0101011101;
0128	:0101011101;
0129	:0101011101;
0130	:0101011101;
0131	:0101011101;
0132	:0101011101;
0133	:0101011101;
0134	:0101011101;
0135	:0101011101;
0136	:0101011101;
0137	:0101011101;
0138	:0101011101;
0139	:0101011101;
0140	:0101011101;
0141	:0101011101;
0142	:0101011101;
0143	:0101011101;
0144	:0101011101;
0145	:0101011101;
0146	:0101011101;
0147	:0101011101;
0148	:0101011101;
0149	:0101011101;
0150	:0101011101;
0151	:0101001001;
0152	:0101001001;
0153	:0101001001;
0154	:0101001001;
0155	:0101001001;
0156	:0101001001;
0157	:0101001001;
0158	:0101001001;
0159	:0101001001;
0160	:0101001001;
0161	:0101001001;
0162	:0101001001;
0163	:0100000101;
0164	:0100000101;
0165	:0100000101;
0166	:0100000101;
0167	:0100000101;
0168	:0100000101;
0169	:0100000101;
0170	:0100000101;
0171	:0100000101;
0172	:0100000101;
0173	:0100000101;
0174	:0100000101;
0175	:0100000101;
0176	:0101001001;
0177	:0101001001;
0178	:0101001001;
0179	:0101001001;
0180	:0101001001;
0181	:0101001001;
0182	:0101001001;
0183	:0101001001;
0184	:0101001001;
0185	:0101001001;
0186	:0101001001;
0187	:0101001001;
0188	:0101001001;
0189	:0101001001;
0190	:0101001001;
0191	:0101001001;
0192	:0101001001;
0193	:0101001001;
0194	:0101001001;
0195	:0101001001;
0196	:0101001001;
0197	:0101001001;
0198	:0101001001;
0199	:0000000000;
0200	:0000000000;
0201	:0011110110;
0202	:0011110110;
0203	:0011110110;
0204	:0011110110;
0205	:0011110110;
0206	:0011110110;
0207	:0011110110;
0208	:0011110110;
0209	:0011110110;
0210	:0011110110;
0211	:0011110110;
0212	:0011110110;
0213	:0100010101;
0214	:0100010101;
0215	:0100010101;
0216	:0100010101;
0217	:0100010101;
0218	:0100010101;
0219	:0100010101;
0220	:0100010101;
0221	:0100010101;
0222	:0100010101;
0223	:0100010101;
0224	:0100010101;
0225	:0100010101;
0226	:0100100101;
0227	:0100100101;
0228	:0100100101;
0229	:0100100101;
0230	:0100100101;
0231	:0100100101;
0232	:0100100101;
0233	:0100100101;
0234	:0100100101;
0235	:0100100101;
0236	:0100100101;
0237	:0100100101;
0238	:0101001001;
0239	:0101001001;
0240	:0101001001;
0241	:0101001001;
0242	:0101001001;
0243	:0101001001;
0244	:0101001001;
0245	:0101001001;
0246	:0101001001;
0247	:0101001001;
0248	:0101001001;
0249	:0101001001;
0250	:0101001001;
0251	:0101110001;
0252	:0101110001;
0253	:0101110001;
0254	:0101110001;
0255	:0101110001;
0256	:0101110001;
0257	:0101110001;
0258	:0101110001;
0259	:0101110001;
0260	:0101110001;
0261	:0101110001;
0262	:0101110001;
0263	:0100100101;
0264	:0100100101;
0265	:0100100101;
0266	:0100100101;
0267	:0100100101;
0268	:0100100101;
0269	:0100100101;
0270	:0100100101;
0271	:0100100101;
0272	:0100100101;
0273	:0100100101;
0274	:0100100101;
0275	:0100100101;
0276	:0101110001;
0277	:0101110001;
0278	:0101110001;
0279	:0101110001;
0280	:0101110001;
0281	:0101110001;
0282	:0101110001;
0283	:0101110001;
0284	:0101110001;
0285	:0101110001;
0286	:0101110001;
0287	:0101110001;
0288	:0111101101;
0289	:0111101101;
0290	:0111101101;
0291	:0111101101;
0292	:0111101101;
0293	:0111101101;
0294	:0111101101;
0295	:0111101101;
0296	:0111101101;
0297	:0111101101;
0298	:0111101101;
0299	:0111101101;
0300	:0111101101;
0301	:0110111000;
0302	:0110111000;
0303	:0110111000;
0304	:0110111000;
0305	:0110111000;
0306	:0110111000;
0307	:0110111000;
0308	:0110111000;
0309	:0110111000;
0310	:0110111000;
0311	:0110111000;
0312	:0110111000;
0313	:0101110001;
0314	:0101110001;
0315	:0101110001;
0316	:0101110001;
0317	:0101110001;
0318	:0101110001;
0319	:0101110001;
0320	:0101110001;
0321	:0101110001;
0322	:0101110001;
0323	:0101110001;
0324	:0101110001;
0325	:0101110001;
0326	:0100100101;
0327	:0100100101;
0328	:0100100101;
0329	:0100100101;
0330	:0100100101;
0331	:0100100101;
0332	:0100100101;
0333	:0100100101;
0334	:0100100101;
0335	:0100100101;
0336	:0100100101;
0337	:0100100101;
0338	:0101110001;
0339	:0101110001;
0340	:0101110001;
0341	:0101110001;
0342	:0101110001;
0343	:0101110001;
0344	:0101110001;
0345	:0101110001;
0346	:0101110001;
0347	:0101110001;
0348	:0101110001;
0349	:0101110001;
0350	:0101110001;
0351	:0110111000;
0352	:0110111000;
0353	:0110111000;
0354	:0110111000;
0355	:0110111000;
0356	:0110111000;
0357	:0110111000;
0358	:0110111000;
0359	:0110111000;
0360	:0110111000;
0361	:0110111000;
0362	:0110111000;
0363	:0110111000;
0364	:0110111000;
0365	:0110111000;
0366	:0110111000;
0367	:0110111000;
0368	:0110111000;
0369	:0110111000;
0370	:0110111000;
0371	:0110111000;
0372	:0110111000;
0373	:0110111000;
0374	:0110111000;
0375	:0110111000;
0376	:0110111000;
0377	:0110111000;
0378	:0110111000;
0379	:0110111000;
0380	:0110111000;
0381	:0110111000;
0382	:0110111000;
0383	:0110111000;
0384	:0110111000;
0385	:0110111000;
0386	:0110111000;
0387	:0110111000;
0388	:0110111000;
0389	:0110111000;
0390	:0110111000;
0391	:0110111000;
0392	:0110111000;
0393	:0110111000;
0394	:0110111000;
0395	:0110111000;
0396	:0110111000;
0397	:0110111000;
0398	:0000000000;
0399	:0000000000;
0400	:0000000000;
0401	:0011110110;
0402	:0011110110;
0403	:0011110110;
0404	:0011110110;
0405	:0011110110;
0406	:0011110110;
0407	:0011110110;
0408	:0011110110;
0409	:0011110110;
0410	:0011110110;
0411	:0011110110;
0412	:0011110110;
0413	:0100010101;
0414	:0100010101;
0415	:0100010101;
0416	:0100010101;
0417	:0100010101;
0418	:0100010101;
0419	:0100010101;
0420	:0100010101;
0421	:0100010101;
0422	:0100010101;
0423	:0100010101;
0424	:0100010101;
0425	:0100010101;
0426	:0100100101;
0427	:0100100101;
0428	:0100100101;
0429	:0100100101;
0430	:0100100101;
0431	:0100100101;
0432	:0100100101;
0433	:0100100101;
0434	:0100100101;
0435	:0100100101;
0436	:0100100101;
0437	:0100100101;
0438	:0101001001;
0439	:0101001001;
0440	:0101001001;
0441	:0101001001;
0442	:0101001001;
0443	:0101001001;
0444	:0101001001;
0445	:0101001001;
0446	:0101001001;
0447	:0101001001;
0448	:0101001001;
0449	:0101001001;
0450	:0101001001;
0451	:0101110001;
0452	:0101110001;
0453	:0101110001;
0454	:0101110001;
0455	:0101110001;
0456	:0101110001;
0457	:0101110001;
0458	:0101110001;
0459	:0101110001;
0460	:0101110001;
0461	:0101110001;
0462	:0101110001;
0463	:0100100101;
0464	:0100100101;
0465	:0100100101;
0466	:0100100101;
0467	:0100100101;
0468	:0100100101;
0469	:0100100101;
0470	:0100100101;
0471	:0100100101;
0472	:0100100101;
0473	:0100100101;
0474	:0100100101;
0475	:0100100101;
0476	:0101110001;
0477	:0101110001;
0478	:0101110001;
0479	:0101110001;
0480	:0101110001;
0481	:0101110001;
0482	:0101110001;
0483	:0101110001;
0484	:0101110001;
0485	:0101110001;
0486	:0101110001;
0487	:0101110001;
0488	:0101110001;
0489	:0101110001;
0490	:0101110001;
0491	:0101110001;
0492	:0101110001;
0493	:0101110001;
0494	:0101110001;
0495	:0101110001;
0496	:0101110001;
0497	:0101110001;
0498	:0101110001;
0499	:0101110001;
0500	:0101110001;
0501	:0101011101;
0502	:0101011101;
0503	:0101011101;
0504	:0101011101;
0505	:0101011101;
0506	:0101011101;
0507	:0101011101;
0508	:0101011101;
0509	:0101011101;
0510	:0101011101;
0511	:0101011101;
0512	:0101011101;
0513	:0100010101;
0514	:0100010101;
0515	:0100010101;
0516	:0100010101;
0517	:0100010101;
0518	:0100010101;
0519	:0100010101;
0520	:0100010101;
0521	:0100010101;
0522	:0100010101;
0523	:0100010101;
0524	:0100010101;
0525	:0100010101;
0526	:0101011101;
0527	:0101011101;
0528	:0101011101;
0529	:0101011101;
0530	:0101011101;
0531	:0101011101;
0532	:0101011101;
0533	:0101011101;
0534	:0101011101;
0535	:0101011101;
0536	:0101011101;
0537	:0101011101;
0538	:0101011101;
0539	:0101011101;
0540	:0101011101;
0541	:0101011101;
0542	:0101011101;
0543	:0101011101;
0544	:0101011101;
0545	:0101011101;
0546	:0101011101;
0547	:0101011101;
0548	:0101011101;
0549	:0101011101;
0550	:0101011101;
0551	:0101001001;
0552	:0101001001;
0553	:0101001001;
0554	:0101001001;
0555	:0101001001;
0556	:0101001001;
0557	:0101001001;
0558	:0101001001;
0559	:0101001001;
0560	:0101001001;
0561	:0101001001;
0562	:0101001001;
0563	:0100000101;
0564	:0100000101;
0565	:0100000101;
0566	:0100000101;
0567	:0100000101;
0568	:0100000101;
0569	:0100000101;
0570	:0100000101;
0571	:0100000101;
0572	:0100000101;
0573	:0100000101;
0574	:0100000101;
0575	:0100000101;
0576	:0101001001;
0577	:0101001001;
0578	:0101001001;
0579	:0101001001;
0580	:0101001001;
0581	:0101001001;
0582	:0101001001;
0583	:0101001001;
0584	:0101001001;
0585	:0101001001;
0586	:0101001001;
0587	:0101001001;
0588	:0101001001;
0589	:0101001001;
0590	:0101001001;
0591	:0101001001;
0592	:0101001001;
0593	:0101001001;
0594	:0101001001;
0595	:0101001001;
0596	:0101001001;
0597	:0101001001;
0598	:0101001001;
0599	:0000000000;
0600	:0000000000;
0601	:0011110110;
0602	:0011110110;
0603	:0011110110;
0604	:0011110110;
0605	:0011110110;
0606	:0011110110;
0607	:0011110110;
0608	:0011110110;
0609	:0011110110;
0610	:0011110110;
0611	:0011110110;
0612	:0011110110;
0613	:0100010101;
0614	:0100010101;
0615	:0100010101;
0616	:0100010101;
0617	:0100010101;
0618	:0100010101;
0619	:0100010101;
0620	:0100010101;
0621	:0100010101;
0622	:0100010101;
0623	:0100010101;
0624	:0100010101;
0625	:0100010101;
0626	:0100100101;
0627	:0100100101;
0628	:0100100101;
0629	:0100100101;
0630	:0100100101;
0631	:0100100101;
0632	:0100100101;
0633	:0100100101;
0634	:0100100101;
0635	:0100100101;
0636	:0100100101;
0637	:0100100101;
0638	:0101001001;
0639	:0101001001;
0640	:0101001001;
0641	:0101001001;
0642	:0101001001;
0643	:0101001001;
0644	:0101001001;
0645	:0101001001;
0646	:0101001001;
0647	:0101001001;
0648	:0101001001;
0649	:0101001001;
0650	:0101001001;
0651	:0101110001;
0652	:0101110001;
0653	:0101110001;
0654	:0101110001;
0655	:0101110001;
0656	:0101110001;
0657	:0101110001;
0658	:0101110001;
0659	:0101110001;
0660	:0101110001;
0661	:0101110001;
0662	:0101110001;
0663	:0100100101;
0664	:0100100101;
0665	:0100100101;
0666	:0100100101;
0667	:0100100101;
0668	:0100100101;
0669	:0100100101;
0670	:0100100101;
0671	:0100100101;
0672	:0100100101;
0673	:0100100101;
0674	:0100100101;
0675	:0100100101;
0676	:0101110001;
0677	:0101110001;
0678	:0101110001;
0679	:0101110001;
0680	:0101110001;
0681	:0101110001;
0682	:0101110001;
0683	:0101110001;
0684	:0101110001;
0685	:0101110001;
0686	:0101110001;
0687	:0101110001;
0688	:0111101101;
0689	:0111101101;
0690	:0111101101;
0691	:0111101101;
0692	:0111101101;
0693	:0111101101;
0694	:0111101101;
0695	:0111101101;
0696	:0111101101;
0697	:0111101101;
0698	:0111101101;
0699	:0111101101;
0700	:0111101101;
0701	:0110111000;
0702	:0110111000;
0703	:0110111000;
0704	:0110111000;
0705	:0110111000;
0706	:0110111000;
0707	:0110111000;
0708	:0110111000;
0709	:0110111000;
0710	:0110111000;
0711	:0110111000;
0712	:0110111000;
0713	:0101110001;
0714	:0101110001;
0715	:0101110001;
0716	:0101110001;
0717	:0101110001;
0718	:0101110001;
0719	:0101110001;
0720	:0101110001;
0721	:0101110001;
0722	:0101110001;
0723	:0101110001;
0724	:0101110001;
0725	:0101110001;
0726	:0100100101;
0727	:0100100101;
0728	:0100100101;
0729	:0100100101;
0730	:0100100101;
0731	:0100100101;
0732	:0100100101;
0733	:0100100101;
0734	:0100100101;
0735	:0100100101;
0736	:0100100101;
0737	:0100100101;
0738	:0101110001;
0739	:0101110001;
0740	:0101110001;
0741	:0101110001;
0742	:0101110001;
0743	:0101110001;
0744	:0101110001;
0745	:0101110001;
0746	:0101110001;
0747	:0101110001;
0748	:0101110001;
0749	:0101110001;
0750	:0101110001;
0751	:0110111000;
0752	:0110111000;
0753	:0110111000;
0754	:0110111000;
0755	:0110111000;
0756	:0110111000;
0757	:0110111000;
0758	:0110111000;
0759	:0110111000;
0760	:0110111000;
0761	:0110111000;
0762	:0110111000;
0763	:0110111000;
0764	:0110111000;
0765	:0110111000;
0766	:0110111000;
0767	:0110111000;
0768	:0110111000;
0769	:0110111000;
0770	:0110111000;
0771	:0110111000;
0772	:0110111000;
0773	:0110111000;
0774	:0110111000;
0775	:0110111000;
0776	:0110111000;
0777	:0110111000;
0778	:0110111000;
0779	:0110111000;
0780	:0110111000;
0781	:0110111000;
0782	:0110111000;
0783	:0110111000;
0784	:0110111000;
0785	:0110111000;
0786	:0110111000;
0787	:0110111000;
0788	:0110111000;
0789	:0110111000;
0790	:0110111000;
0791	:0110111000;
0792	:0110111000;
0793	:0110111000;
0794	:0110111000;
0795	:0110111000;
0796	:0110111000;
0797	:0110111000;
0798	:0000000000;
0799	:0000000000;
0800	:0000000000;
0801	:0101110001;
0802	:0101110001;
0803	:0101110001;
0804	:0101110001;
0805	:0101110001;
0806	:0101110001;
0807	:0101110001;
0808	:0101110001;
0809	:0101110001;
0810	:0101110001;
0811	:0101110001;
0812	:0101110001;
0813	:0110011111;
0814	:0110011111;
0815	:0110011111;
0816	:0110011111;
0817	:0110011111;
0818	:0110011111;
0819	:0110011111;
0820	:0110011111;
0821	:0110011111;
0822	:0110011111;
0823	:0110011111;
0824	:0110011111;
0825	:0110011111;
0826	:0111010010;
0827	:0111010010;
0828	:0111010010;
0829	:0111010010;
0830	:0111010010;
0831	:0111010010;
0832	:0111010010;
0833	:0111010010;
0834	:0111010010;
0835	:0111010010;
0836	:0111010010;
0837	:0111010010;
0838	:0111101101;
0839	:0111101101;
0840	:0111101101;
0841	:0111101101;
0842	:0111101101;
0843	:0111101101;
0844	:0111101101;
0845	:0111101101;
0846	:0111101101;
0847	:0111101101;
0848	:0111101101;
0849	:0111101101;
0850	:0111101101;
0851	:1000101010;
0852	:1000101010;
0853	:1000101010;
0854	:1000101010;
0855	:1000101010;
0856	:1000101010;
0857	:1000101010;
0858	:1000101010;
0859	:1000101010;
0860	:1000101010;
0861	:1000101010;
0862	:1000101010;
0863	:0111010010;
0864	:0111010010;
0865	:0111010010;
0866	:0111010010;
0867	:0111010010;
0868	:0111010010;
0869	:0111010010;
0870	:0111010010;
0871	:0111010010;
0872	:0111010010;
0873	:0111010010;
0874	:0111010010;
0875	:0111010010;
0876	:1000101010;
0877	:1000101010;
0878	:1000101010;
0879	:1000101010;
0880	:1000101010;
0881	:1000101010;
0882	:1000101010;
0883	:1000101010;
0884	:1000101010;
0885	:1000101010;
0886	:1000101010;
0887	:1000101010;
0888	:1000101010;
0889	:1000101010;
0890	:1000101010;
0891	:1000101010;
0892	:1000101010;
0893	:1000101010;
0894	:1000101010;
0895	:1000101010;
0896	:1000101010;
0897	:1000101010;
0898	:1000101010;
0899	:1000101010;
0900	:1000101010;
0901	:1001001011;
0902	:1001001011;
0903	:1001001011;
0904	:1001001011;
0905	:1001001011;
0906	:1001001011;
0907	:1001001011;
0908	:1001001011;
0909	:1001001011;
0910	:1001001011;
0911	:1001001011;
0912	:1001001011;
0913	:0111010010;
0914	:0111010010;
0915	:0111010010;
0916	:0111010010;
0917	:0111010010;
0918	:0111010010;
0919	:0111010010;
0920	:0111010010;
0921	:0111010010;
0922	:0111010010;
0923	:0111010010;
0924	:0111010010;
0925	:0111010010;
0926	:1001001011;
0927	:1001001011;
0928	:1001001011;
0929	:1001001011;
0930	:1001001011;
0931	:1001001011;
0932	:1001001011;
0933	:1001001011;
0934	:1001001011;
0935	:1001001011;
0936	:1001001011;
0937	:1001001011;
0938	:1001001011;
0939	:1001001011;
0940	:1001001011;
0941	:1001001011;
0942	:1001001011;
0943	:1001001011;
0944	:1001001011;
0945	:1001001011;
0946	:1001001011;
0947	:1001001011;
0948	:1001001011;
0949	:1001001011;
0950	:1001001011;
0951	:1000101010;
0952	:1000101010;
0953	:1000101010;
0954	:1000101010;
0955	:1000101010;
0956	:1000101010;
0957	:1000101010;
0958	:1000101010;
0959	:1000101010;
0960	:1000101010;
0961	:1000101010;
0962	:1000101010;
0963	:0111010010;
0964	:0111010010;
0965	:0111010010;
0966	:0111010010;
0967	:0111010010;
0968	:0111010010;
0969	:0111010010;
0970	:0111010010;
0971	:0111010010;
0972	:0111010010;
0973	:0111010010;
0974	:0111010010;
0975	:0111010010;
0976	:1000101010;
0977	:1000101010;
0978	:1000101010;
0979	:1000101010;
0980	:1000101010;
0981	:1000101010;
0982	:1000101010;
0983	:1000101010;
0984	:1000101010;
0985	:1000101010;
0986	:1000101010;
0987	:1000101010;
0988	:1000101010;
0989	:1000101010;
0990	:1000101010;
0991	:1000101010;
0992	:1000101010;
0993	:1000101010;
0994	:1000101010;
0995	:1000101010;
0996	:1000101010;
0997	:1000101010;
0998	:1000101010;
0999	:0000000000;
1000	:0000000000;
1001	:0101110001;
1002	:0101110001;
1003	:0101110001;
1004	:0101110001;
1005	:0101110001;
1006	:0101110001;
1007	:0101110001;
1008	:0101110001;
1009	:0101110001;
1010	:0101110001;
1011	:0101110001;
1012	:0101110001;
1013	:0110011111;
1014	:0110011111;
1015	:0110011111;
1016	:0110011111;
1017	:0110011111;
1018	:0110011111;
1019	:0110011111;
1020	:0110011111;
1021	:0110011111;
1022	:0110011111;
1023	:0110011111;
1024	:0110011111;
1025	:0110011111;
1026	:0111010010;
1027	:0111010010;
1028	:0111010010;
1029	:0111010010;
1030	:0111010010;
1031	:0111010010;
1032	:0111010010;
1033	:0111010010;
1034	:0111010010;
1035	:0111010010;
1036	:0111010010;
1037	:0111010010;
1038	:0111101101;
1039	:0111101101;
1040	:0111101101;
1041	:0111101101;
1042	:0111101101;
1043	:0111101101;
1044	:0111101101;
1045	:0111101101;
1046	:0111101101;
1047	:0111101101;
1048	:0111101101;
1049	:0111101101;
1050	:0111101101;
1051	:1000101010;
1052	:1000101010;
1053	:1000101010;
1054	:1000101010;
1055	:1000101010;
1056	:1000101010;
1057	:1000101010;
1058	:1000101010;
1059	:1000101010;
1060	:1000101010;
1061	:1000101010;
1062	:1000101010;
1063	:0111010010;
1064	:0111010010;
1065	:0111010010;
1066	:0111010010;
1067	:0111010010;
1068	:0111010010;
1069	:0111010010;
1070	:0111010010;
1071	:0111010010;
1072	:0111010010;
1073	:0111010010;
1074	:0111010010;
1075	:0111010010;
1076	:1000101010;
1077	:1000101010;
1078	:1000101010;
1079	:1000101010;
1080	:1000101010;
1081	:1000101010;
1082	:1000101010;
1083	:1000101010;
1084	:1000101010;
1085	:1000101010;
1086	:1000101010;
1087	:1000101010;
1088	:1000101010;
1089	:1000101010;
1090	:1000101010;
1091	:1000101010;
1092	:1000101010;
1093	:1000101010;
1094	:1000101010;
1095	:1000101010;
1096	:1000101010;
1097	:1000101010;
1098	:1000101010;
1099	:1000101010;
1100	:1000101010;
1101	:1001001011;
1102	:1001001011;
1103	:1001001011;
1104	:1001001011;
1105	:1001001011;
1106	:1001001011;
1107	:1001001011;
1108	:1001001011;
1109	:1001001011;
1110	:1001001011;
1111	:1001001011;
1112	:1001001011;
1113	:0111010010;
1114	:0111010010;
1115	:0111010010;
1116	:0111010010;
1117	:0111010010;
1118	:0111010010;
1119	:0111010010;
1120	:0111010010;
1121	:0111010010;
1122	:0111010010;
1123	:0111010010;
1124	:0111010010;
1125	:0111010010;
1126	:1001001011;
1127	:1001001011;
1128	:1001001011;
1129	:1001001011;
1130	:1001001011;
1131	:1001001011;
1132	:1001001011;
1133	:1001001011;
1134	:1001001011;
1135	:1001001011;
1136	:1001001011;
1137	:1001001011;
1138	:1001001011;
1139	:1001001011;
1140	:1001001011;
1141	:1001001011;
1142	:1001001011;
1143	:1001001011;
1144	:1001001011;
1145	:1001001011;
1146	:1001001011;
1147	:1001001011;
1148	:1001001011;
1149	:1001001011;
1150	:1001001011;
1151	:1000101010;
1152	:1000101010;
1153	:1000101010;
1154	:1000101010;
1155	:1000101010;
1156	:1000101010;
1157	:1000101010;
1158	:1000101010;
1159	:1000101010;
1160	:1000101010;
1161	:1000101010;
1162	:1000101010;
1163	:1000101010;
1164	:1000101010;
1165	:1000101010;
1166	:1000101010;
1167	:1000101010;
1168	:1000101010;
1169	:1000101010;
1170	:1000101010;
1171	:1000101010;
1172	:1000101010;
1173	:1000101010;
1174	:1000101010;
1175	:1000101010;
1176	:1000101010;
1177	:1000101010;
1178	:1000101010;
1179	:1000101010;
1180	:1000101010;
1181	:1000101010;
1182	:1000101010;
1183	:1000101010;
1184	:1000101010;
1185	:1000101010;
1186	:1000101010;
1187	:1000101010;
1188	:1000101010;
1189	:1000101010;
1190	:1000101010;
1191	:1000101010;
1192	:1000101010;
1193	:1000101010;
1194	:1000101010;
1195	:1000101010;
1196	:1000101010;
1197	:1000101010;
1198	:0000000000;
1199	:0000000000;
1200	:0000000000;
1201	:0101110001;
1202	:0101110001;
1203	:0101110001;
1204	:0101110001;
1205	:0101110001;
1206	:0101110001;
1207	:0101110001;
1208	:0101110001;
1209	:0101110001;
1210	:0101110001;
1211	:0101110001;
1212	:0101110001;
1213	:0110011111;
1214	:0110011111;
1215	:0110011111;
1216	:0110011111;
1217	:0110011111;
1218	:0110011111;
1219	:0110011111;
1220	:0110011111;
1221	:0110011111;
1222	:0110011111;
1223	:0110011111;
1224	:0110011111;
1225	:0110011111;
1226	:0111010010;
1227	:0111010010;
1228	:0111010010;
1229	:0111010010;
1230	:0111010010;
1231	:0111010010;
1232	:0111010010;
1233	:0111010010;
1234	:0111010010;
1235	:0111010010;
1236	:0111010010;
1237	:0111010010;
1238	:0111101101;
1239	:0111101101;
1240	:0111101101;
1241	:0111101101;
1242	:0111101101;
1243	:0111101101;
1244	:0111101101;
1245	:0111101101;
1246	:0111101101;
1247	:0111101101;
1248	:0111101101;
1249	:0111101101;
1250	:0111101101;
1251	:1000101010;
1252	:1000101010;
1253	:1000101010;
1254	:1000101010;
1255	:1000101010;
1256	:1000101010;
1257	:1000101010;
1258	:1000101010;
1259	:1000101010;
1260	:1000101010;
1261	:1000101010;
1262	:1000101010;
1263	:0111010010;
1264	:0111010010;
1265	:0111010010;
1266	:0111010010;
1267	:0111010010;
1268	:0111010010;
1269	:0111010010;
1270	:0111010010;
1271	:0111010010;
1272	:0111010010;
1273	:0111010010;
1274	:0111010010;
1275	:0111010010;
1276	:1000101010;
1277	:1000101010;
1278	:1000101010;
1279	:1000101010;
1280	:1000101010;
1281	:1000101010;
1282	:1000101010;
1283	:1000101010;
1284	:1000101010;
1285	:1000101010;
1286	:1000101010;
1287	:1000101010;
1288	:1000101010;
1289	:1000101010;
1290	:1000101010;
1291	:1000101010;
1292	:1000101010;
1293	:1000101010;
1294	:1000101010;
1295	:1000101010;
1296	:1000101010;
1297	:1000101010;
1298	:1000101010;
1299	:1000101010;
1300	:1000101010;
1301	:1001001011;
1302	:1001001011;
1303	:1001001011;
1304	:1001001011;
1305	:1001001011;
1306	:1001001011;
1307	:1001001011;
1308	:1001001011;
1309	:1001001011;
1310	:1001001011;
1311	:1001001011;
1312	:1001001011;
1313	:0111010010;
1314	:0111010010;
1315	:0111010010;
1316	:0111010010;
1317	:0111010010;
1318	:0111010010;
1319	:0111010010;
1320	:0111010010;
1321	:0111010010;
1322	:0111010010;
1323	:0111010010;
1324	:0111010010;
1325	:0111010010;
1326	:1001001011;
1327	:1001001011;
1328	:1001001011;
1329	:1001001011;
1330	:1001001011;
1331	:1001001011;
1332	:1001001011;
1333	:1001001011;
1334	:1001001011;
1335	:1001001011;
1336	:1001001011;
1337	:1001001011;
1338	:1001001011;
1339	:1001001011;
1340	:1001001011;
1341	:1001001011;
1342	:1001001011;
1343	:1001001011;
1344	:1001001011;
1345	:1001001011;
1346	:1001001011;
1347	:1001001011;
1348	:1001001011;
1349	:1001001011;
1350	:1001001011;
1351	:1000101010;
1352	:1000101010;
1353	:1000101010;
1354	:1000101010;
1355	:1000101010;
1356	:1000101010;
1357	:1000101010;
1358	:1000101010;
1359	:1000101010;
1360	:1000101010;
1361	:1000101010;
1362	:1000101010;
1363	:0111010010;
1364	:0111010010;
1365	:0111010010;
1366	:0111010010;
1367	:0111010010;
1368	:0111010010;
1369	:0111010010;
1370	:0111010010;
1371	:0111010010;
1372	:0111010010;
1373	:0111010010;
1374	:0111010010;
1375	:0111010010;
1376	:1000101010;
1377	:1000101010;
1378	:1000101010;
1379	:1000101010;
1380	:1000101010;
1381	:1000101010;
1382	:1000101010;
1383	:1000101010;
1384	:1000101010;
1385	:1000101010;
1386	:1000101010;
1387	:1000101010;
1388	:1000101010;
1389	:1000101010;
1390	:1000101010;
1391	:1000101010;
1392	:1000101010;
1393	:1000101010;
1394	:1000101010;
1395	:1000101010;
1396	:1000101010;
1397	:1000101010;
1398	:1000101010;
1399	:0000000000;
1400	:0000000000;
1401	:0101110001;
1402	:0101110001;
1403	:0101110001;
1404	:0101110001;
1405	:0101110001;
1406	:0101110001;
1407	:0101110001;
1408	:0101110001;
1409	:0101110001;
1410	:0101110001;
1411	:0101110001;
1412	:0101110001;
1413	:0110011111;
1414	:0110011111;
1415	:0110011111;
1416	:0110011111;
1417	:0110011111;
1418	:0110011111;
1419	:0110011111;
1420	:0110011111;
1421	:0110011111;
1422	:0110011111;
1423	:0110011111;
1424	:0110011111;
1425	:0110011111;
1426	:0111010010;
1427	:0111010010;
1428	:0111010010;
1429	:0111010010;
1430	:0111010010;
1431	:0111010010;
1432	:0111010010;
1433	:0111010010;
1434	:0111010010;
1435	:0111010010;
1436	:0111010010;
1437	:0111010010;
1438	:0111101101;
1439	:0111101101;
1440	:0111101101;
1441	:0111101101;
1442	:0111101101;
1443	:0111101101;
1444	:0111101101;
1445	:0111101101;
1446	:0111101101;
1447	:0111101101;
1448	:0111101101;
1449	:0111101101;
1450	:0111101101;
1451	:1000101010;
1452	:1000101010;
1453	:1000101010;
1454	:1000101010;
1455	:1000101010;
1456	:1000101010;
1457	:1000101010;
1458	:1000101010;
1459	:1000101010;
1460	:1000101010;
1461	:1000101010;
1462	:1000101010;
1463	:0111010010;
1464	:0111010010;
1465	:0111010010;
1466	:0111010010;
1467	:0111010010;
1468	:0111010010;
1469	:0111010010;
1470	:0111010010;
1471	:0111010010;
1472	:0111010010;
1473	:0111010010;
1474	:0111010010;
1475	:0111010010;
1476	:1000101010;
1477	:1000101010;
1478	:1000101010;
1479	:1000101010;
1480	:1000101010;
1481	:1000101010;
1482	:1000101010;
1483	:1000101010;
1484	:1000101010;
1485	:1000101010;
1486	:1000101010;
1487	:1000101010;
1488	:1000101010;
1489	:1000101010;
1490	:1000101010;
1491	:1000101010;
1492	:1000101010;
1493	:1000101010;
1494	:1000101010;
1495	:1000101010;
1496	:1000101010;
1497	:1000101010;
1498	:1000101010;
1499	:1000101010;
1500	:1000101010;
1501	:1001001011;
1502	:1001001011;
1503	:1001001011;
1504	:1001001011;
1505	:1001001011;
1506	:1001001011;
1507	:1001001011;
1508	:1001001011;
1509	:1001001011;
1510	:1001001011;
1511	:1001001011;
1512	:1001001011;
1513	:0111010010;
1514	:0111010010;
1515	:0111010010;
1516	:0111010010;
1517	:0111010010;
1518	:0111010010;
1519	:0111010010;
1520	:0111010010;
1521	:0111010010;
1522	:0111010010;
1523	:0111010010;
1524	:0111010010;
1525	:0111010010;
1526	:1001001011;
1527	:1001001011;
1528	:1001001011;
1529	:1001001011;
1530	:1001001011;
1531	:1001001011;
1532	:1001001011;
1533	:1001001011;
1534	:1001001011;
1535	:1001001011;
1536	:1001001011;
1537	:1001001011;
1538	:1001001011;
1539	:1001001011;
1540	:1001001011;
1541	:1001001011;
1542	:1001001011;
1543	:1001001011;
1544	:1001001011;
1545	:1001001011;
1546	:1001001011;
1547	:1001001011;
1548	:1001001011;
1549	:1001001011;
1550	:1001001011;
1551	:1000101010;
1552	:1000101010;
1553	:1000101010;
1554	:1000101010;
1555	:1000101010;
1556	:1000101010;
1557	:1000101010;
1558	:1000101010;
1559	:1000101010;
1560	:1000101010;
1561	:1000101010;
1562	:1000101010;
1563	:1000101010;
1564	:1000101010;
1565	:1000101010;
1566	:1000101010;
1567	:1000101010;
1568	:1000101010;
1569	:1000101010;
1570	:1000101010;
1571	:1000101010;
1572	:1000101010;
1573	:1000101010;
1574	:1000101010;
1575	:1000101010;
1576	:1000101010;
1577	:1000101010;
1578	:1000101010;
1579	:1000101010;
1580	:1000101010;
1581	:1000101010;
1582	:1000101010;
1583	:1000101010;
1584	:1000101010;
1585	:1000101010;
1586	:1000101010;
1587	:1000101010;
1588	:1000101010;
1589	:1000101010;
1590	:1000101010;
1591	:1000101010;
1592	:1000101010;
1593	:1000101010;
1594	:1000101010;
1595	:1000101010;
1596	:1000101010;
1597	:1000101010;
1598	:0000000000;
1599	:0000000000;
1600	:0000000000;
1601	:0111101101;
1602	:0111101101;
1603	:0111101101;
1604	:0111101101;
1605	:0111101101;
1606	:0111101101;
1607	:0111101101;
1608	:0111101101;
1609	:0111101101;
1610	:0111101101;
1611	:0111101101;
1612	:0111101101;
1613	:1000101010;
1614	:1000101010;
1615	:1000101010;
1616	:1000101010;
1617	:1000101010;
1618	:1000101010;
1619	:1000101010;
1620	:1000101010;
1621	:1000101010;
1622	:1000101010;
1623	:1000101010;
1624	:1000101010;
1625	:1000101010;
1626	:1001001011;
1627	:1001001011;
1628	:1001001011;
1629	:1001001011;
1630	:1001001011;
1631	:1001001011;
1632	:1001001011;
1633	:1001001011;
1634	:1001001011;
1635	:1001001011;
1636	:1001001011;
1637	:1001001011;
1638	:1010010011;
1639	:1010010011;
1640	:1010010011;
1641	:1010010011;
1642	:1010010011;
1643	:1010010011;
1644	:1010010011;
1645	:1010010011;
1646	:1010010011;
1647	:1010010011;
1648	:1010010011;
1649	:1010010011;
1650	:1010010011;
1651	:1011100011;
1652	:1011100011;
1653	:1011100011;
1654	:1011100011;
1655	:1011100011;
1656	:1011100011;
1657	:1011100011;
1658	:1011100011;
1659	:1011100011;
1660	:1011100011;
1661	:1011100011;
1662	:1011100011;
1663	:1001001011;
1664	:1001001011;
1665	:1001001011;
1666	:1001001011;
1667	:1001001011;
1668	:1001001011;
1669	:1001001011;
1670	:1001001011;
1671	:1001001011;
1672	:1001001011;
1673	:1001001011;
1674	:1001001011;
1675	:1001001011;
1676	:1011100011;
1677	:1011100011;
1678	:1011100011;
1679	:1011100011;
1680	:1011100011;
1681	:1011100011;
1682	:1011100011;
1683	:1011100011;
1684	:1011100011;
1685	:1011100011;
1686	:1011100011;
1687	:1011100011;
1688	:1011100011;
1689	:1011100011;
1690	:1011100011;
1691	:1011100011;
1692	:1011100011;
1693	:1011100011;
1694	:1011100011;
1695	:1011100011;
1696	:1011100011;
1697	:1011100011;
1698	:1011100011;
1699	:1011100011;
1700	:1011100011;
1701	:1010111010;
1702	:1010111010;
1703	:1010111010;
1704	:1010111010;
1705	:1010111010;
1706	:1010111010;
1707	:1010111010;
1708	:1010111010;
1709	:1010111010;
1710	:1010111010;
1711	:1010111010;
1712	:1010111010;
1713	:1000101010;
1714	:1000101010;
1715	:1000101010;
1716	:1000101010;
1717	:1000101010;
1718	:1000101010;
1719	:1000101010;
1720	:1000101010;
1721	:1000101010;
1722	:1000101010;
1723	:1000101010;
1724	:1000101010;
1725	:1000101010;
1726	:1010111010;
1727	:1010111010;
1728	:1010111010;
1729	:1010111010;
1730	:1010111010;
1731	:1010111010;
1732	:1010111010;
1733	:1010111010;
1734	:1010111010;
1735	:1010111010;
1736	:1010111010;
1737	:1010111010;
1738	:1010111010;
1739	:1010111010;
1740	:1010111010;
1741	:1010111010;
1742	:1010111010;
1743	:1010111010;
1744	:1010111010;
1745	:1010111010;
1746	:1010111010;
1747	:1010111010;
1748	:1010111010;
1749	:1010111010;
1750	:1010111010;
1751	:1010010011;
1752	:1010010011;
1753	:1010010011;
1754	:1010010011;
1755	:1010010011;
1756	:1010010011;
1757	:1010010011;
1758	:1010010011;
1759	:1010010011;
1760	:1010010011;
1761	:1010010011;
1762	:1010010011;
1763	:1000001011;
1764	:1000001011;
1765	:1000001011;
1766	:1000001011;
1767	:1000001011;
1768	:1000001011;
1769	:1000001011;
1770	:1000001011;
1771	:1000001011;
1772	:1000001011;
1773	:1000001011;
1774	:1000001011;
1775	:1000001011;
1776	:1010010011;
1777	:1010010011;
1778	:1010010011;
1779	:1010010011;
1780	:1010010011;
1781	:1010010011;
1782	:1010010011;
1783	:1010010011;
1784	:1010010011;
1785	:1010010011;
1786	:1010010011;
1787	:1010010011;
1788	:1010010011;
1789	:1010010011;
1790	:1010010011;
1791	:1010010011;
1792	:1010010011;
1793	:1010010011;
1794	:1010010011;
1795	:1010010011;
1796	:1010010011;
1797	:1010010011;
1798	:1010010011;
1799	:0000000000;
1800	:0000000000;
1801	:0111101101;
1802	:0111101101;
1803	:0111101101;
1804	:0111101101;
1805	:0111101101;
1806	:0111101101;
1807	:0111101101;
1808	:0111101101;
1809	:0111101101;
1810	:0111101101;
1811	:0111101101;
1812	:0111101101;
1813	:1000101010;
1814	:1000101010;
1815	:1000101010;
1816	:1000101010;
1817	:1000101010;
1818	:1000101010;
1819	:1000101010;
1820	:1000101010;
1821	:1000101010;
1822	:1000101010;
1823	:1000101010;
1824	:1000101010;
1825	:1000101010;
1826	:1001001011;
1827	:1001001011;
1828	:1001001011;
1829	:1001001011;
1830	:1001001011;
1831	:1001001011;
1832	:1001001011;
1833	:1001001011;
1834	:1001001011;
1835	:1001001011;
1836	:1001001011;
1837	:1001001011;
1838	:1010010011;
1839	:1010010011;
1840	:1010010011;
1841	:1010010011;
1842	:1010010011;
1843	:1010010011;
1844	:1010010011;
1845	:1010010011;
1846	:1010010011;
1847	:1010010011;
1848	:1010010011;
1849	:1010010011;
1850	:1010010011;
1851	:1011100011;
1852	:1011100011;
1853	:1011100011;
1854	:1011100011;
1855	:1011100011;
1856	:1011100011;
1857	:1011100011;
1858	:1011100011;
1859	:1011100011;
1860	:1011100011;
1861	:1011100011;
1862	:1011100011;
1863	:1001001011;
1864	:1001001011;
1865	:1001001011;
1866	:1001001011;
1867	:1001001011;
1868	:1001001011;
1869	:1001001011;
1870	:1001001011;
1871	:1001001011;
1872	:1001001011;
1873	:1001001011;
1874	:1001001011;
1875	:1001001011;
1876	:1011100011;
1877	:1011100011;
1878	:1011100011;
1879	:1011100011;
1880	:1011100011;
1881	:1011100011;
1882	:1011100011;
1883	:1011100011;
1884	:1011100011;
1885	:1011100011;
1886	:1011100011;
1887	:1011100011;
1888	:1111011011;
1889	:1111011011;
1890	:1111011011;
1891	:1111011011;
1892	:1111011011;
1893	:1111011011;
1894	:1111011011;
1895	:1111011011;
1896	:1111011011;
1897	:1111011011;
1898	:1111011011;
1899	:1111011011;
1900	:1111011011;
1901	:1101110000;
1902	:1101110000;
1903	:1101110000;
1904	:1101110000;
1905	:1101110000;
1906	:1101110000;
1907	:1101110000;
1908	:1101110000;
1909	:1101110000;
1910	:1101110000;
1911	:1101110000;
1912	:1101110000;
1913	:1011100011;
1914	:1011100011;
1915	:1011100011;
1916	:1011100011;
1917	:1011100011;
1918	:1011100011;
1919	:1011100011;
1920	:1011100011;
1921	:1011100011;
1922	:1011100011;
1923	:1011100011;
1924	:1011100011;
1925	:1011100011;
1926	:1001001011;
1927	:1001001011;
1928	:1001001011;
1929	:1001001011;
1930	:1001001011;
1931	:1001001011;
1932	:1001001011;
1933	:1001001011;
1934	:1001001011;
1935	:1001001011;
1936	:1001001011;
1937	:1001001011;
1938	:1011100011;
1939	:1011100011;
1940	:1011100011;
1941	:1011100011;
1942	:1011100011;
1943	:1011100011;
1944	:1011100011;
1945	:1011100011;
1946	:1011100011;
1947	:1011100011;
1948	:1011100011;
1949	:1011100011;
1950	:1011100011;
1951	:1101110000;
1952	:1101110000;
1953	:1101110000;
1954	:1101110000;
1955	:1101110000;
1956	:1101110000;
1957	:1101110000;
1958	:1101110000;
1959	:1101110000;
1960	:1101110000;
1961	:1101110000;
1962	:1101110000;
1963	:1101110000;
1964	:1101110000;
1965	:1101110000;
1966	:1101110000;
1967	:1101110000;
1968	:1101110000;
1969	:1101110000;
1970	:1101110000;
1971	:1101110000;
1972	:1101110000;
1973	:1101110000;
1974	:1101110000;
1975	:1101110000;
1976	:1101110000;
1977	:1101110000;
1978	:1101110000;
1979	:1101110000;
1980	:1101110000;
1981	:1101110000;
1982	:1101110000;
1983	:1101110000;
1984	:1101110000;
1985	:1101110000;
1986	:1101110000;
1987	:1101110000;
1988	:1101110000;
1989	:1101110000;
1990	:1101110000;
1991	:1101110000;
1992	:1101110000;
1993	:1101110000;
1994	:1101110000;
1995	:1101110000;
1996	:1101110000;
1997	:1101110000;
END;