DEPTH = 8192;
WIDTH = 10;
ADDRESS_RADIX=DEC;
DATA_RADIX=BIN;
CONTENT
BEGIN
0000	:0001010111;
0001	:0001010111;
0002	:0001101110;
0003	:0001101110;
0004	:0001100001;
0005	:0001100001;
0006	:0001010111;
0007	:0001010111;
0008	:0001010010;
0009	:0001010010;
0010	:0001001001;
0011	:0001001001;
0012	:0001001001;
0013	:0001001001;
0014	:0001001001;
0015	:0001001001;
0016	:0001001001;
0017	:0001101110;
0018	:0001101110;
0019	:0001101110;
0020	:0001101110;
0021	:0001100001;
0022	:0001100001;
0023	:0001101110;
0024	:0001101110;
0025	:0001101110;
0026	:0001101110;
0027	:0001010010;
0028	:0001010010;
0029	:0001010010;
0030	:0001010010;
0031	:0001010111;
0032	:0001010111;
0033	:0001010111;
0034	:0001010111;
0035	:0001101110;
0036	:0001101110;
0037	:0001000001;
0038	:0001000001;
0039	:0001000001;
0040	:0001000001;
0041	:0001000001;
0042	:0001000101;
0043	:0001000101;
0044	:0001000101;
0045	:0001000101;
0046	:0001001001;
0047	:0001001001;
0048	:0001001001;
0049	:0001001001;
0050	:0001101110;
0051	:0001101110;
0052	:0001101110;
0053	:0001101110;
0054	:0001100001;
0055	:0001100001;
0056	:0001101110;
0057	:0001101110;
0058	:0001101110;
0059	:0001101110;
0060	:0001010010;
0061	:0001010010;
0062	:0001010010;
0063	:0001010010;
0064	:0001010111;
0065	:0001010111;
0066	:0001010111;
0067	:0001010111;
0068	:0001010111;
0069	:0001101110;
0070	:0001101110;
0071	:0001100001;
0072	:0001100001;
0073	:0001010111;
0074	:0001010111;
0075	:0001010010;
0076	:0001010010;
0077	:0001001001;
0078	:0001001001;
0079	:0001001001;
0080	:0001001001;
0081	:0001001001;
0082	:0001001001;
0083	:0001101110;
0084	:0001101110;
0085	:0001101110;
0086	:0001101110;
0087	:0001100001;
0088	:0001100001;
0089	:0001101110;
0090	:0001101110;
0091	:0001101110;
0092	:0001101110;
0093	:0001101110;
0094	:0001010010;
0095	:0001010010;
0096	:0001010010;
0097	:0001010010;
0098	:0001010111;
0099	:0001010111;
0100	:0001010111;
0101	:0001010111;
0102	:0001101110;
0103	:0001101110;
0104	:0001000001;
0105	:0001000001;
0106	:0001000001;
0107	:0001000001;
0108	:0001000101;
0109	:0001000101;
0110	:0001000101;
0111	:0001000101;
0112	:0010010010;
0113	:0010010010;
0114	:0010010010;
0115	:0010010010;
0116	:0010010010;
0117	:0011011100;
0118	:0011011100;
0119	:0011011100;
0120	:0011011100;
0121	:0011000011;
0122	:0011000011;
0123	:0011011100;
0124	:0011011100;
0125	:0011011100;
0126	:0011011100;
0127	:0010100100;
0128	:0010100100;
0129	:0010100100;
0130	:0010100100;
0131	:0010101110;
0132	:0010101110;
0133	:0010101110;
0134	:0010101110;
0135	:0011011100;
0136	:0011011100;
0137	:0011000011;
0138	:0011000011;
0139	:0010101110;
0140	:0010101110;
0141	:0010101110;
0142	:0010100100;
0143	:0010100100;
0144	:0010010010;
0145	:0010010010;
0146	:0010010010;
0147	:0010010010;
0148	:0010010010;
0149	:0010010010;
0150	:0011011100;
0151	:0011011100;
0152	:0011011100;
0153	:0011011100;
0154	:0011000011;
0155	:0011000011;
0156	:0011011100;
0157	:0011011100;
0158	:0011011100;
0159	:0011011100;
0160	:0010100100;
0161	:0010100100;
0162	:0010100100;
0163	:0010100100;
0164	:0010101110;
0165	:0010101110;
0166	:0010101110;
0167	:0010101110;
0168	:0010101110;
0169	:0011011100;
0170	:0011011100;
0171	:0010000010;
0172	:0010000010;
0173	:0010000010;
0174	:0010000010;
0175	:0010001010;
0176	:0010001010;
0177	:0010001010;
0178	:0010001010;
0179	:0010010010;
0180	:0010010010;
0181	:0010010010;
0182	:0010010010;
0183	:0011011100;
0184	:0011011100;
0185	:0011011100;
0186	:0011011100;
0187	:0011000011;
0188	:0011000011;
0189	:0011011100;
0190	:0011011100;
0191	:0011011100;
0192	:0011011100;
0193	:0011011100;
0194	:0010100100;
0195	:0010100100;
0196	:0010100100;
0197	:0010100100;
0198	:0010101110;
0199	:0010101110;
0200	:0010101110;
0201	:0010101110;
0202	:0011011100;
0203	:0011011100;
0204	:0011000011;
0205	:0011000011;
0206	:0010101110;
0207	:0010101110;
0208	:0010100100;
0209	:0010100100;
0210	:0010010010;
0211	:0010010010;
0212	:0010010010;
0213	:0010010010;
0214	:0010010010;
0215	:0010010010;
0216	:0010010010;
0217	:0011011100;
0218	:0011011100;
0219	:0011011100;
0220	:0011011100;
0221	:0011000011;
0222	:0011000011;
0223	:0011011100;
0224	:0011011100;
0225	:0011011100;
0226	:0011011100;
0227	:0100000101;
0228	:0100000101;
0229	:0100000101;
0230	:0100000101;
0231	:0100000101;
0232	:0100000101;
0233	:0011011100;
0234	:0011011100;
0235	:0110111000;
0236	:0110111000;
0237	:0101001001;
0238	:0101001001;
0239	:0101001001;
0240	:0101001001;
0241	:0101001001;
0242	:0100000101;
0243	:0100000101;
0244	:0010001010;
0245	:0010001010;
0246	:0001001001;
0247	:0001001001;
0248	:0001001001;
0249	:0001001001;
0250	:0001101110;
0251	:0001101110;
0252	:0001101110;
0253	:0001101110;
0254	:0001100001;
0255	:0001100001;
0256	:0001101110;
0257	:0001101110;
0258	:0001101110;
0259	:0001101110;
0260	:0001010010;
0261	:0001010010;
0262	:0001010010;
0263	:0001010010;
0264	:0001010111;
0265	:0001010111;
0266	:0001010111;
0267	:0001010111;
0268	:0001010111;
0269	:0001101110;
0270	:0001101110;
0271	:0001100001;
0272	:0001100001;
0273	:0001010111;
0274	:0001010111;
0275	:0001010010;
0276	:0001010010;
0277	:0001001001;
0278	:0001001001;
0279	:0001001001;
0280	:0001001001;
0281	:0001001001;
0282	:0001001001;
0283	:0001101110;
0284	:0001101110;
0285	:0001101110;
0286	:0001101110;
0287	:0001100001;
0288	:0001100001;
0289	:0001101110;
0290	:0001101110;
0291	:0001101110;
0292	:0001101110;
0293	:0001101110;
0294	:0001010010;
0295	:0001010010;
0296	:0001010010;
0297	:0001010010;
0298	:0001010111;
0299	:0001010111;
0300	:0001010111;
0301	:0001010111;
0302	:0001101110;
0303	:0001101110;
0304	:0001000001;
0305	:0001000001;
0306	:0001000001;
0307	:0001000001;
0308	:0001000101;
0309	:0001000101;
0310	:0001000101;
0311	:0001000101;
0312	:0001001001;
0313	:0001001001;
0314	:0001001001;
0315	:0001001001;
0316	:0001001001;
0317	:0001101110;
0318	:0001101110;
0319	:0001101110;
0320	:0001101110;
0321	:0001100001;
0322	:0001100001;
0323	:0001101110;
0324	:0001101110;
0325	:0001101110;
0326	:0001101110;
0327	:0001010010;
0328	:0001010010;
0329	:0001010010;
0330	:0001010010;
0331	:0001010111;
0332	:0001010111;
0333	:0001010111;
0334	:0001010111;
0335	:0001101110;
0336	:0001101110;
0337	:0001100001;
0338	:0001100001;
0339	:0001010111;
0340	:0001010111;
0341	:0001010111;
0342	:0001010010;
0343	:0001010010;
0344	:0001001001;
0345	:0001001001;
0346	:0001001001;
0347	:0001001001;
0348	:0001001001;
0349	:0001001001;
0350	:0001101110;
0351	:0001101110;
0352	:0001101110;
0353	:0001101110;
0354	:0001100001;
0355	:0001100001;
0356	:0001101110;
0357	:0001101110;
0358	:0001101110;
0359	:0001101110;
0360	:0001010010;
0361	:0001010010;
0362	:0001010010;
0363	:0001010010;
0364	:0001010111;
0365	:0001010111;
0366	:0001010111;
0367	:0001010111;
0368	:0001010111;
0369	:0001101110;
0370	:0001101110;
0371	:0001000001;
0372	:0001000001;
0373	:0001000001;
0374	:0001000001;
0375	:0001000101;
0376	:0001000101;
0377	:0001000101;
0378	:0001000101;
0379	:0001001001;
0380	:0001001001;
0381	:0001001001;
0382	:0001001001;
0383	:0001101110;
0384	:0001101110;
0385	:0001101110;
0386	:0001101110;
0387	:0001100001;
0388	:0001100001;
0389	:0001101110;
0390	:0001101110;
0391	:0001101110;
0392	:0001101110;
0393	:0001101110;
0394	:0001010010;
0395	:0001010010;
0396	:0001010010;
0397	:0001010010;
0398	:0001010111;
0399	:0001010111;
0400	:0001010111;
0401	:0001010111;
0402	:0001101110;
0403	:0001101110;
0404	:0001100001;
0405	:0001100001;
0406	:0001010111;
0407	:0001010111;
0408	:0001010010;
0409	:0001010010;
0410	:0001001001;
0411	:0001001001;
0412	:0001001001;
0413	:0001001001;
0414	:0001001001;
0415	:0001001001;
0416	:0001001001;
0417	:0001101110;
0418	:0001101110;
0419	:0001101110;
0420	:0001101110;
0421	:0001100001;
0422	:0001100001;
0423	:0001101110;
0424	:0001101110;
0425	:0001101110;
0426	:0001101110;
0427	:0001010010;
0428	:0001010010;
0429	:0001010010;
0430	:0001010010;
0431	:0001010111;
0432	:0001010111;
0433	:0001010111;
0434	:0001010111;
0435	:0001101110;
0436	:0001101110;
0437	:0001000001;
0438	:0001000001;
0439	:0001000001;
0440	:0001000001;
0441	:0001000001;
0442	:0001000101;
0443	:0001000101;
0444	:0001000101;
0445	:0001000101;
0446	:0001001001;
0447	:0001001001;
0448	:0001001001;
0449	:0001001001;
0450	:0001101110;
0451	:0001101110;
0452	:0001101110;
0453	:0001101110;
0454	:0001100001;
0455	:0001100001;
0456	:0001101110;
0457	:0001101110;
0458	:0001101110;
0459	:0001101110;
0460	:0001010010;
0461	:0001010010;
0462	:0001010010;
0463	:0001010010;
0464	:0001010111;
0465	:0001010111;
0466	:0001010111;
0467	:0001010111;
0468	:0001010111;
0469	:0001101110;
0470	:0001101110;
0471	:0001100001;
0472	:0001100001;
0473	:0001010111;
0474	:0001010111;
0475	:0001010010;
0476	:0001010010;
0477	:0001001001;
0478	:0001001001;
0479	:0001001001;
0480	:0001001001;
0481	:0001001001;
0482	:0001001001;
0483	:0001101110;
0484	:0001101110;
0485	:0001101110;
0486	:0001101110;
0487	:0001100001;
0488	:0001100001;
0489	:0001101110;
0490	:0001101110;
0491	:0001101110;
0492	:0001101110;
0493	:0001101110;
0494	:0010000010;
0495	:0010000010;
0496	:0010000010;
0497	:0010000010;
0498	:0010010010;
0499	:0010010010;
0500	:0010010010;
0501	:0010010010;
0502	:0010101110;
0503	:0010101110;
0504	:0010100100;
0505	:0010100100;
0506	:0010010010;
0507	:0010010010;
0508	:0010000010;
0509	:0010000010;
0510	:0010000010;
0511	:0010000010;
0512	:0010000010;
0513	:0010000010;
0514	:0001110100;
0515	:0001110100;
0516	:0001110100;
0517	:0001110100;
0518	:0001110100;
0519	:0010101110;
0520	:0010101110;
0521	:0010100100;
0522	:0010100100;
0523	:0010101110;
0524	:0010101110;
0525	:0010101110;
0526	:0010101110;
0527	:0010100100;
0528	:0010100100;
0529	:0010100100;
0530	:0010100100;
0531	:0011000011;
0532	:0011000011;
0533	:0011000011;
0534	:0011000011;
0535	:0010101110;
0536	:0010101110;
0537	:0010100100;
0538	:0010100100;
0539	:0010101110;
0540	:0010101110;
0541	:0010101110;
0542	:0010100100;
0543	:0010100100;
0544	:0010000010;
0545	:0010000010;
0546	:0010000010;
0547	:0010000010;
0548	:0010010010;
0549	:0010010010;
0550	:0010010010;
0551	:0010010010;
0552	:0011011100;
0553	:0011011100;
0554	:0011000011;
0555	:0011000011;
0556	:0011011100;
0557	:0011011100;
0558	:0011000011;
0559	:0011000011;
0560	:0011011100;
0561	:0011011100;
0562	:0011011100;
0563	:0011011100;
0564	:0100000101;
0565	:0100000101;
0566	:0100000101;
0567	:0100000101;
0568	:0100000101;
0569	:0011011100;
0570	:0011011100;
0571	:0011011100;
0572	:0011011100;
0573	:0011000011;
0574	:0011000011;
0575	:0011000011;
0576	:0011000011;
0577	:0011011100;
0578	:0011011100;
0579	:0011011100;
0580	:0011011100;
0581	:0001110100;
0582	:0001110100;
0583	:0001110100;
0584	:0001110100;
0585	:0010101110;
0586	:0010101110;
0587	:0010100100;
0588	:0010100100;
0589	:0010101110;
0590	:0010101110;
0591	:0010101110;
0592	:0010101110;
0593	:0010101110;
0594	:0010100100;
0595	:0010100100;
0596	:0010100100;
0597	:0010100100;
0598	:0011000011;
0599	:0011000011;
0600	:0011000011;
0601	:0011000011;
0602	:0010101110;
0603	:0010101110;
0604	:0010100100;
0605	:0010100100;
0606	:0010101110;
0607	:0010101110;
0608	:0010100100;
0609	:0010100100;
0610	:0010000010;
0611	:0010000010;
0612	:0010000010;
0613	:0010000010;
0614	:0010010010;
0615	:0010010010;
0616	:0010010010;
0617	:0010010010;
0618	:0010010010;
0619	:0011011100;
0620	:0011011100;
0621	:0011000011;
0622	:0011000011;
0623	:0011011100;
0624	:0011011100;
0625	:0011000011;
0626	:0011000011;
0627	:0011011100;
0628	:0011011100;
0629	:0011011100;
0630	:0011011100;
0631	:0100010101;
0632	:0100010101;
0633	:0100010101;
0634	:0100010101;
0635	:0011011100;
0636	:0011011100;
0637	:0011011100;
0638	:0011011100;
0639	:0011000011;
0640	:0011000011;
0641	:0011000011;
0642	:0011000011;
0643	:0011000011;
0644	:0011011100;
0645	:0011011100;
0646	:0011011100;
0647	:0011011100;
0648	:0001110100;
0649	:0001110100;
0650	:0001110100;
0651	:0001110100;
0652	:0010101110;
0653	:0010101110;
0654	:0010100100;
0655	:0010100100;
0656	:0010101110;
0657	:0010101110;
0658	:0010101110;
0659	:0010101110;
0660	:0010100100;
0661	:0010100100;
0662	:0010100100;
0663	:0010100100;
0664	:0011000011;
0665	:0011000011;
0666	:0011000011;
0667	:0011000011;
0668	:0011000011;
0669	:0010101110;
0670	:0010101110;
0671	:0010100100;
0672	:0010100100;
0673	:0010101110;
0674	:0010101110;
0675	:0010100100;
0676	:0010100100;
0677	:0010000010;
0678	:0010000010;
0679	:0010000010;
0680	:0010000010;
0681	:0010010010;
0682	:0010010010;
0683	:0010010010;
0684	:0010010010;
0685	:0011011100;
0686	:0011011100;
0687	:0011000011;
0688	:0011000011;
0689	:0011011100;
0690	:0011011100;
0691	:0011011100;
0692	:0011000011;
0693	:0011000011;
0694	:0011011100;
0695	:0011011100;
0696	:0011011100;
0697	:0011011100;
0698	:0100000101;
0699	:0100000101;
0700	:0011000011;
0701	:0011011100;
0702	:0011000011;
0703	:0011000011;
0704	:0011000011;
0705	:0011000011;
0706	:0010101110;
0707	:0010101110;
0708	:0010101110;
0709	:0010101110;
0710	:0010111000;
0711	:0010111000;
0712	:0011000011;
0713	:0011000011;
0714	:0011000011;
0715	:0011000011;
0716	:0011000011;
0717	:0001110100;
0718	:0001110100;
0719	:0011000011;
0720	:0011000011;
0721	:0001110100;
0722	:0001110100;
0723	:0001110100;
0724	:0001110100;
0725	:0011000011;
0726	:0011000011;
0727	:0011000011;
0728	:0011000011;
0729	:0011011100;
0730	:0011011100;
0731	:0011011100;
0732	:0011011100;
0733	:0010000010;
0734	:0010000010;
0735	:0011011100;
0736	:0011011100;
0737	:0010000010;
0738	:0010000010;
0739	:0010000010;
0740	:0010000010;
0741	:0010000010;
0742	:0011011100;
0743	:0011011100;
0744	:0011011100;
0745	:0011011100;
0746	:0011101001;
0747	:0011101001;
0748	:0011101001;
0749	:0011101001;
0750	:0011101001;
0751	:0011101001;
0752	:0011101001;
0753	:0011101001;
0754	:0011101001;
0755	:0011101001;
0756	:0011101001;
0757	:0011101001;
0758	:0011101001;
0759	:0011110110;
0760	:0011110110;
0761	:0011110110;
0762	:0011110110;
0763	:0011110110;
0764	:0011110110;
0765	:0011110110;
0766	:0011110110;
0767	:0011110110;
0768	:0011110110;
0769	:0011110110;
0770	:0011110110;
0771	:0011110110;
0772	:0011110110;
0773	:0011110110;
0774	:0011110110;
0775	:0011110110;
0776	:0011110110;
0777	:0100000101;
0778	:0100000101;
0779	:0100000101;
0780	:0100000101;
0781	:0001110100;
0782	:0001110100;
0783	:0001110100;
0784	:0001110100;
0785	:0010101110;
0786	:0010101110;
0787	:0010100100;
0788	:0010100100;
0789	:0010101110;
0790	:0010101110;
0791	:0010101110;
0792	:0010101110;
0793	:0010101110;
0794	:0010100100;
0795	:0010100100;
0796	:0010100100;
0797	:0010100100;
0798	:0011000011;
0799	:0011000011;
0800	:0011000011;
0801	:0011000011;
0802	:0010101110;
0803	:0010101110;
0804	:0010100100;
0805	:0010100100;
0806	:0010101110;
0807	:0010101110;
0808	:0010100100;
0809	:0010100100;
0810	:0010000010;
0811	:0010000010;
0812	:0010000010;
0813	:0010000010;
0814	:0010010010;
0815	:0010010010;
0816	:0010010010;
0817	:0010010010;
0818	:0010010010;
0819	:0011011100;
0820	:0011011100;
0821	:0011000011;
0822	:0011000011;
0823	:0011011100;
0824	:0011011100;
0825	:0011000011;
0826	:0011000011;
0827	:0011011100;
0828	:0011011100;
0829	:0011011100;
0830	:0011011100;
0831	:0100000101;
0832	:0100000101;
0833	:0100000101;
0834	:0100000101;
0835	:0011011100;
0836	:0011011100;
0837	:0011011100;
0838	:0011011100;
0839	:0011000011;
0840	:0011000011;
0841	:0011000011;
0842	:0011000011;
0843	:0011000011;
0844	:0011011100;
0845	:0011011100;
0846	:0011011100;
0847	:0011011100;
0848	:0001110100;
0849	:0001110100;
0850	:0001110100;
0851	:0001110100;
0852	:0010101110;
0853	:0010101110;
0854	:0010100100;
0855	:0010100100;
0856	:0010101110;
0857	:0010101110;
0858	:0010101110;
0859	:0010101110;
0860	:0010100100;
0861	:0010100100;
0862	:0010100100;
0863	:0010100100;
0864	:0011000011;
0865	:0011000011;
0866	:0011000011;
0867	:0011000011;
0868	:0011000011;
0869	:0010101110;
0870	:0010101110;
0871	:0010100100;
0872	:0010100100;
0873	:0010101110;
0874	:0010101110;
0875	:0010100100;
0876	:0010100100;
0877	:0010000010;
0878	:0010000010;
0879	:0010000010;
0880	:0010000010;
0881	:0010010010;
0882	:0010010010;
0883	:0010010010;
0884	:0010010010;
0885	:0011011100;
0886	:0011011100;
0887	:0011000011;
0888	:0011000011;
0889	:0011011100;
0890	:0011011100;
0891	:0011011100;
0892	:0011000011;
0893	:0011000011;
0894	:0011011100;
0895	:0011011100;
0896	:0011011100;
0897	:0011011100;
0898	:0100010101;
0899	:0100010101;
0900	:0100010101;
0901	:0100010101;
0902	:0011011100;
0903	:0011011100;
0904	:0011011100;
0905	:0011011100;
0906	:0011000011;
0907	:0011000011;
0908	:0011000011;
0909	:0011000011;
0910	:0011011100;
0911	:0011011100;
0912	:0011011100;
0913	:0011011100;
0914	:0001110100;
0915	:0001110100;
0916	:0001110100;
0917	:0001110100;
0918	:0001110100;
0919	:0010101110;
0920	:0010101110;
0921	:0010100100;
0922	:0010100100;
0923	:0010101110;
0924	:0010101110;
0925	:0010101110;
0926	:0010101110;
0927	:0010100100;
0928	:0010100100;
0929	:0010100100;
0930	:0010100100;
0931	:0011000011;
0932	:0011000011;
0933	:0011000011;
0934	:0011000011;
0935	:0010101110;
0936	:0010101110;
0937	:0010100100;
0938	:0010100100;
0939	:0010101110;
0940	:0010101110;
0941	:0010101110;
0942	:0010100100;
0943	:0010100100;
0944	:0010000010;
0945	:0010000010;
0946	:0010000010;
0947	:0010000010;
0948	:0010010010;
0949	:0010010010;
0950	:0010010010;
0951	:0010010010;
0952	:0011011100;
0953	:0011011100;
0954	:0011000011;
0955	:0011000011;
0956	:0011011100;
0957	:0011011100;
0958	:0011000011;
0959	:0011000011;
0960	:0011011100;
0961	:0011011100;
0962	:0011011100;
0963	:0011011100;
0964	:0100000101;
0965	:0100000101;
0966	:0100000101;
0967	:0011000011;
0968	:0011011100;
0969	:0011000011;
0970	:0011000011;
0971	:0011000011;
0972	:0011000011;
0973	:0010101110;
0974	:0010101110;
0975	:0010101110;
0976	:0010101110;
0977	:0010111000;
0978	:0010111000;
0979	:0011000011;
0980	:0011000011;
0981	:0011000011;
0982	:0011000011;
0983	:0001110100;
0984	:0001110100;
0985	:0011000011;
0986	:0011000011;
0987	:0001110100;
0988	:0001110100;
0989	:0001110100;
0990	:0001110100;
0991	:0001110100;
0992	:0011000011;
0993	:0011000011;
0994	:0011000011;
0995	:0011000011;
0996	:0011000011;
0997	:0011000011;
0998	:0011011100;
0999	:0011011100;
1000	:0011000011;
1001	:0011011100;
1002	:0011000011;
1003	:0011000011;
1004	:0011000011;
1005	:0011000011;
1006	:0010101110;
1007	:0010101110;
1008	:0010101110;
1009	:0010101110;
1010	:0010100100;
1011	:0010100100;
1012	:0010100100;
1013	:0010100100;
1014	:0010100100;
1015	:0010100100;
1016	:0010100100;
1017	:0010100100;
1018	:0010100100;
1019	:0010100100;
1020	:0010100100;
1021	:0010100100;
1022	:0010100100;
1023	:0010100100;
1024	:0010100100;
1025	:0010100100;
1026	:0010100100;
1027	:0010100100;
1028	:0010100100;
1029	:0010100100;
1030	:0010100100;
1031	:0010100100;
1032	:0010100100;
1033	:0010100100;
1034	:0010100100;
1035	:0010100100;
1036	:0010100100;
1037	:0010100100;
1038	:0010100100;
1039	:0010100100;
1040	:0010100100;
1041	:0010100100;
1042	:0010100100;
1043	:0010010010;
1044	:0010010010;
1045	:0010010010;
1046	:0010010010;
1047	:0010010010;
1048	:0001101110;
1049	:0001101110;
1050	:0001101110;
1051	:0001101110;
1052	:0010101110;
1053	:0010101110;
1054	:0010100100;
1055	:0010100100;
1056	:0010101110;
1057	:0010101110;
1058	:0010101110;
1059	:0010101110;
1060	:0010100100;
1061	:0010100100;
1062	:0010100100;
1063	:0010100100;
1064	:0011000011;
1065	:0011000011;
1066	:0011000011;
1067	:0011000011;
1068	:0011000011;
1069	:0010101110;
1070	:0010101110;
1071	:0010100100;
1072	:0010100100;
1073	:0010101110;
1074	:0010101110;
1075	:0010100100;
1076	:0010100100;
1077	:0010000010;
1078	:0010000010;
1079	:0010000010;
1080	:0010000010;
1081	:0010010010;
1082	:0010010010;
1083	:0010010010;
1084	:0010010010;
1085	:0011011100;
1086	:0011011100;
1087	:0011000011;
1088	:0011000011;
1089	:0011011100;
1090	:0011011100;
1091	:0011011100;
1092	:0011000011;
1093	:0011000011;
1094	:0011011100;
1095	:0011011100;
1096	:0011011100;
1097	:0011011100;
1098	:0100000101;
1099	:0100000101;
1100	:0100000101;
1101	:0100000101;
1102	:0011011100;
1103	:0011011100;
1104	:0011011100;
1105	:0011011100;
1106	:0011000011;
1107	:0011000011;
1108	:0011000011;
1109	:0011000011;
1110	:0011011100;
1111	:0011011100;
1112	:0011011100;
1113	:0011011100;
1114	:0001101110;
1115	:0001101110;
1116	:0001101110;
1117	:0001101110;
1118	:0001101110;
1119	:0010101110;
1120	:0010101110;
1121	:0010100100;
1122	:0010100100;
1123	:0010101110;
1124	:0010101110;
1125	:0010101110;
1126	:0010101110;
1127	:0010100100;
1128	:0010100100;
1129	:0010100100;
1130	:0010100100;
1131	:0011000011;
1132	:0011000011;
1133	:0011000011;
1134	:0011000011;
1135	:0010101110;
1136	:0010101110;
1137	:0010100100;
1138	:0010100100;
1139	:0010101110;
1140	:0010101110;
1141	:0010101110;
1142	:0010100100;
1143	:0010100100;
1144	:0010000010;
1145	:0010000010;
1146	:0010000010;
1147	:0010000010;
1148	:0010010010;
1149	:0010010010;
1150	:0010010010;
1151	:0010010010;
1152	:0011011100;
1153	:0011011100;
1154	:0011000011;
1155	:0011000011;
1156	:0011011100;
1157	:0011011100;
1158	:0011000011;
1159	:0011000011;
1160	:0011011100;
1161	:0011011100;
1162	:0011011100;
1163	:0011011100;
1164	:0100000101;
1165	:0100000101;
1166	:0100000101;
1167	:0011011100;
1168	:0100000101;
1169	:0011011100;
1170	:0011011100;
1171	:0011011100;
1172	:0011011100;
1173	:0011000011;
1174	:0011000011;
1175	:0011000011;
1176	:0011000011;
1177	:0010100100;
1178	:0010100100;
1179	:0010100100;
1180	:0010100100;
1181	:0010101110;
1182	:0010101110;
1183	:0010100100;
1184	:0010100100;
1185	:0010101110;
1186	:0010101110;
1187	:0010101110;
1188	:0010101110;
1189	:0010100100;
1190	:0010100100;
1191	:0010100100;
1192	:0010100100;
1193	:0010100100;
1194	:0010000010;
1195	:0010000010;
1196	:0010010010;
1197	:0010010010;
1198	:0001101110;
1199	:0001101110;
1200	:0001101110;
1201	:0001101110;
1202	:0010000010;
1203	:0010000010;
1204	:0010000010;
1205	:0010000010;
1206	:0001100001;
1207	:0001100001;
1208	:0001100001;
1209	:0001100001;
1210	:0001010010;
1211	:0001010010;
1212	:0001010010;
1213	:0001010010;
1214	:0001001001;
1215	:0001001001;
1216	:0001001001;
1217	:0001001001;
1218	:0001001001;
1219	:0001010010;
1220	:0001010010;
1221	:0001010010;
1222	:0001010010;
1223	:0001010111;
1224	:0001010111;
1225	:0001010111;
1226	:0001010111;
1227	:0001100001;
1228	:0001100001;
1229	:0001100001;
1230	:0001100001;
1231	:0001101110;
1232	:0001101110;
1233	:0001101110;
1234	:0001101110;
1235	:0010001010;
1236	:0010001010;
1237	:0010001010;
1238	:0010001010;
1239	:0010010010;
1240	:0010010010;
1241	:0010010010;
1242	:0010010010;
1243	:0010010010;
1244	:0010100100;
1245	:0010100100;
1246	:0010100100;
1247	:0010100100;
1248	:0010001010;
1249	:0010001010;
1250	:0010001010;
1251	:0010001010;
1252	:0011011100;
1253	:0011011100;
1254	:0011000011;
1255	:0011000011;
1256	:0011011100;
1257	:0011011100;
1258	:0011011100;
1259	:0011011100;
1260	:0011000011;
1261	:0011000011;
1262	:0011000011;
1263	:0011000011;
1264	:0100010101;
1265	:0100010101;
1266	:0100010101;
1267	:0100010101;
1268	:0100010101;
1269	:0011011100;
1270	:0011011100;
1271	:0011000011;
1272	:0011000011;
1273	:0011011100;
1274	:0011011100;
1275	:0011000011;
1276	:0011000011;
1277	:0010100100;
1278	:0010100100;
1279	:0010100100;
1280	:0010100100;
1281	:0010001010;
1282	:0010001010;
1283	:0010001010;
1284	:0010001010;
1285	:0100010101;
1286	:0100010101;
1287	:0011011100;
1288	:0011011100;
1289	:0100010101;
1290	:0100010101;
1291	:0100010101;
1292	:0011011100;
1293	:0011011100;
1294	:0100010101;
1295	:0100010101;
1296	:0100010101;
1297	:0100010101;
1298	:0101001001;
1299	:0101001001;
1300	:0100010101;
1301	:0101001001;
1302	:0100010101;
1303	:0100010101;
1304	:0100010101;
1305	:0100010101;
1306	:0010101110;
1307	:0010101110;
1308	:0010101110;
1309	:0010101110;
1310	:0010100100;
1311	:0010100100;
1312	:0010100100;
1313	:0010100100;
1314	:0001101110;
1315	:0001101110;
1316	:0001101110;
1317	:0001101110;
1318	:0001101110;
1319	:0010101110;
1320	:0010101110;
1321	:0010100100;
1322	:0010100100;
1323	:0010101110;
1324	:0010101110;
1325	:0010101110;
1326	:0010101110;
1327	:0010100100;
1328	:0010100100;
1329	:0010100100;
1330	:0010100100;
1331	:0011000011;
1332	:0011000011;
1333	:0011000011;
1334	:0011000011;
1335	:0010101110;
1336	:0010101110;
1337	:0010100100;
1338	:0010100100;
1339	:0010101110;
1340	:0010101110;
1341	:0010101110;
1342	:0010100100;
1343	:0010100100;
1344	:0010000010;
1345	:0010000010;
1346	:0010000010;
1347	:0010000010;
1348	:0010010010;
1349	:0010010010;
1350	:0010010010;
1351	:0010010010;
1352	:0011011100;
1353	:0011011100;
1354	:0011000011;
1355	:0011000011;
1356	:0011011100;
1357	:0011011100;
1358	:0011000011;
1359	:0011000011;
1360	:0011011100;
1361	:0011011100;
1362	:0011011100;
1363	:0011011100;
1364	:0100000101;
1365	:0100000101;
1366	:0100000101;
1367	:0100000101;
1368	:0100000101;
1369	:0011011100;
1370	:0011011100;
1371	:0011011100;
1372	:0011011100;
1373	:0011000011;
1374	:0011000011;
1375	:0011000011;
1376	:0011000011;
1377	:0011011100;
1378	:0011011100;
1379	:0011011100;
1380	:0011011100;
1381	:0001101110;
1382	:0001101110;
1383	:0001101110;
1384	:0001101110;
1385	:0010101110;
1386	:0010101110;
1387	:0010100100;
1388	:0010100100;
1389	:0010101110;
1390	:0010101110;
1391	:0010101110;
1392	:0010101110;
1393	:0010101110;
1394	:0010100100;
1395	:0010100100;
1396	:0010100100;
1397	:0010100100;
1398	:0011000011;
1399	:0011000011;
1400	:0011000011;
1401	:0011000011;
1402	:0010101110;
1403	:0010101110;
1404	:0010100100;
1405	:0010100100;
1406	:0010101110;
1407	:0010101110;
1408	:0010100100;
1409	:0010100100;
1410	:0010000010;
1411	:0010000010;
1412	:0010000010;
1413	:0010000010;
1414	:0010010010;
1415	:0010010010;
1416	:0010010010;
1417	:0010010010;
1418	:0010010010;
1419	:0011011100;
1420	:0011011100;
1421	:0011000011;
1422	:0011000011;
1423	:0011011100;
1424	:0011011100;
1425	:0011000011;
1426	:0011000011;
1427	:0011011100;
1428	:0011011100;
1429	:0011011100;
1430	:0011011100;
1431	:0100000101;
1432	:0100000101;
1433	:0011011100;
1434	:0100000101;
1435	:0011011100;
1436	:0011011100;
1437	:0011011100;
1438	:0011011100;
1439	:0011000011;
1440	:0011000011;
1441	:0011000011;
1442	:0011000011;
1443	:0011000011;
1444	:0010100100;
1445	:0010100100;
1446	:0010100100;
1447	:0010100100;
1448	:0010101110;
1449	:0010101110;
1450	:0010100100;
1451	:0010100100;
1452	:0010101110;
1453	:0010101110;
1454	:0010101110;
1455	:0010101110;
1456	:0010100100;
1457	:0010100100;
1458	:0010100100;
1459	:0010100100;
1460	:0010000010;
1461	:0010000010;
1462	:0010010010;
1463	:0010010010;
1464	:0001101110;
1465	:0001101110;
1466	:0001101110;
1467	:0001101110;
1468	:0001101110;
1469	:0010000010;
1470	:0010000010;
1471	:0010000010;
1472	:0010000010;
1473	:0001100001;
1474	:0001100001;
1475	:0001100001;
1476	:0001100001;
1477	:0001010010;
1478	:0001010010;
1479	:0001010010;
1480	:0001010010;
1481	:0001001001;
1482	:0001001001;
1483	:0001001001;
1484	:0001001001;
1485	:0001010010;
1486	:0001010010;
1487	:0001010010;
1488	:0001010010;
1489	:0001010111;
1490	:0001010111;
1491	:0001010111;
1492	:0001010111;
1493	:0001010111;
1494	:0001100001;
1495	:0001100001;
1496	:0001100001;
1497	:0001100001;
1498	:0001101110;
1499	:0001101110;
1500	:0001101110;
1501	:0001101110;
1502	:0010001010;
1503	:0010001010;
1504	:0010001010;
1505	:0010001010;
1506	:0010010010;
1507	:0010010010;
1508	:0010010010;
1509	:0010010010;
1510	:0010100100;
1511	:0010100100;
1512	:0010100100;
1513	:0010100100;
1514	:0010001010;
1515	:0010001010;
1516	:0010001010;
1517	:0010001010;
1518	:0010001010;
1519	:0011011100;
1520	:0011011100;
1521	:0011000011;
1522	:0011000011;
1523	:0011011100;
1524	:0011011100;
1525	:0011011100;
1526	:0011011100;
1527	:0011000011;
1528	:0011000011;
1529	:0011000011;
1530	:0011000011;
1531	:0100010101;
1532	:0100010101;
1533	:0100010101;
1534	:0100010101;
1535	:0011011100;
1536	:0011011100;
1537	:0011000011;
1538	:0011000011;
1539	:0011011100;
1540	:0011011100;
1541	:0011011100;
1542	:0011000011;
1543	:0011000011;
1544	:0010100100;
1545	:0010100100;
1546	:0010100100;
1547	:0010100100;
1548	:0010001010;
1549	:0010001010;
1550	:0010001010;
1551	:0010001010;
1552	:0100010101;
1553	:0100010101;
1554	:0011011100;
1555	:0011011100;
1556	:0100010101;
1557	:0100010101;
1558	:0011011100;
1559	:0011011100;
1560	:0100010101;
1561	:0100010101;
1562	:0100010101;
1563	:0100010101;
1564	:0101001001;
1565	:0101001001;
1566	:0101001001;
1567	:0101001001;
1568	:0101001001;
1569	:0110011111;
1570	:0110011111;
1571	:0110011111;
1572	:0110011111;
1573	:0110011111;
1574	:0110011111;
1575	:0110011111;
1576	:0110011111;
1577	:0110011111;
1578	:0110011111;
1579	:0110011111;
1580	:0110011111;
1581	:0110011111;
1582	:0110011111;
1583	:0110011111;
1584	:0110011111;
1585	:0110011111;
1586	:0110011111;
1587	:0110011111;
1588	:0110011111;
1589	:0110011111;
1590	:0110011111;
1591	:0110011111;
1592	:0110011111;
1593	:0110011111;
1594	:0110011111;
1595	:0110011111;
1596	:0110011111;
1597	:0110011111;
1598	:0110011111;
1599	:0110011111;
1600	:0110011111;
1601	:0110011111;
1602	:0110011111;
1603	:0110011111;
1604	:0110011111;
1605	:0110011111;
1606	:0110011111;
1607	:0110011111;
1608	:0110011111;
1609	:0110011111;
1610	:0110011111;
1611	:0110011111;
1612	:0110011111;
1613	:0110011111;
1614	:0110011111;
1615	:0110011111;
1616	:0110011111;
1617	:0110011111;
1618	:0110011111;
1619	:0110011111;
1620	:0110011111;
1621	:0110011111;
1622	:0110011111;
1623	:0110011111;
1624	:0110011111;
1625	:0110011111;
1626	:0110011111;
1627	:0110011111;
1628	:0110011111;
1629	:0110011111;
1630	:0110011111;
1631	:0110011111;
1632	:0110011111;
1633	:0110011111;
1634	:0110011111;
1635	:0110011111;
1636	:0110011111;
1637	:0110011111;
1638	:0110011111;
1639	:0110011111;
1640	:0110011111;
1641	:0110011111;
1642	:0110011111;
1643	:0110011111;
1644	:0110011111;
1645	:0110011111;
1646	:0110011111;
1647	:0110011111;
1648	:0110011111;
1649	:0110011111;
1650	:0110011111;
1651	:0110011111;
1652	:0110011111;
1653	:0110011111;
1654	:0110011111;
1655	:0110011111;
1656	:0110011111;
1657	:0110011111;
1658	:0110011111;
1659	:0110011111;
1660	:0110011111;
1661	:0110011111;
1662	:0110011111;
1663	:0110011111;
1664	:0110011111;
1665	:0110011111;
1666	:0110011111;
1667	:0110011111;
1668	:0110011111;
1669	:0110011111;
1670	:0110011111;
1671	:0110011111;
1672	:0110011111;
1673	:0110011111;
1674	:0110011111;
1675	:0110011111;
1676	:0110011111;
1677	:0010010010;
1678	:0010010010;
1679	:0010010010;
1680	:0010010010;
1681	:0010010010;
1682	:0010010010;
1683	:0010010010;
1684	:0010010010;
1685	:0010000010;
1686	:0010000010;
1687	:0010000010;
1688	:0010000010;
1689	:0010000010;
1690	:0010000010;
1691	:0010000010;
1692	:0010000010;
1693	:0010000010;
1694	:0011011100;
1695	:0011011100;
1696	:0011011100;
1697	:0011011100;
1698	:0011011100;
1699	:0011011100;
1700	:0011011100;
1701	:0011011100;
1702	:0010100100;
1703	:0010100100;
1704	:0010100100;
1705	:0010100100;
1706	:0010000010;
1707	:0010000010;
1708	:0010000010;
1709	:0010000010;
1710	:0010001010;
1711	:0010001010;
1712	:0010001010;
1713	:0010001010;
1714	:0010001010;
1715	:0010001010;
1716	:0010001010;
1717	:0010001010;
1718	:0010001010;
1719	:0010010010;
1720	:0010010010;
1721	:0010010010;
1722	:0010010010;
1723	:0010010010;
1724	:0010010010;
1725	:0010010010;
1726	:0010010010;
1727	:0010101110;
1728	:0010101110;
1729	:0010101110;
1730	:0010101110;
1731	:0010101110;
1732	:0010101110;
1733	:0010101110;
1734	:0010101110;
1735	:0010100100;
1736	:0010100100;
1737	:0010100100;
1738	:0010100100;
1739	:0010010010;
1740	:0010010010;
1741	:0010010010;
1742	:0010010010;
1743	:0010010010;
1744	:0010010010;
1745	:0010010010;
1746	:0010010010;
1747	:0010010010;
1748	:0010010010;
1749	:0010010010;
1750	:0010010010;
1751	:0010010010;
1752	:0010000010;
1753	:0010000010;
1754	:0010000010;
1755	:0010000010;
1756	:0010000010;
1757	:0010000010;
1758	:0010000010;
1759	:0010000010;
1760	:0011011100;
1761	:0011011100;
1762	:0011011100;
1763	:0011011100;
1764	:0011011100;
1765	:0011011100;
1766	:0011011100;
1767	:0011011100;
1768	:0011011100;
1769	:0010100100;
1770	:0010100100;
1771	:0010100100;
1772	:0010100100;
1773	:0010100100;
1774	:0010100100;
1775	:0010100100;
1776	:0010100100;
1777	:0010000010;
1778	:0010000010;
1779	:0010000010;
1780	:0010000010;
1781	:0010000010;
1782	:0010000010;
1783	:0010000010;
1784	:0010000010;
1785	:0010010010;
1786	:0010010010;
1787	:0010010010;
1788	:0010010010;
1789	:0010010010;
1790	:0010010010;
1791	:0010010010;
1792	:0010010010;
1793	:0010010010;
1794	:0010101110;
1795	:0010101110;
1796	:0010101110;
1797	:0010101110;
1798	:0010101110;
1799	:0010101110;
1800	:0010101110;
1801	:0010101110;
1802	:0010100100;
1803	:0010100100;
1804	:0010100100;
1805	:0010100100;
1806	:0010101110;
1807	:0010101110;
1808	:0010101110;
1809	:0010101110;
1810	:0010101110;
1811	:0010101110;
1812	:0010101110;
1813	:0010101110;
1814	:0010101110;
1815	:0010101110;
1816	:0010101110;
1817	:0010101110;
1818	:0010101110;
1819	:0011000011;
1820	:0011000011;
1821	:0011000011;
1822	:0011000011;
1823	:0011000011;
1824	:0011000011;
1825	:0011000011;
1826	:0011000011;
1827	:0010101110;
1828	:0010101110;
1829	:0010101110;
1830	:0010101110;
1831	:0010101110;
1832	:0010101110;
1833	:0010101110;
1834	:0010101110;
1835	:0010100100;
1836	:0010100100;
1837	:0010100100;
1838	:0010100100;
1839	:0010000010;
1840	:0010000010;
1841	:0010000010;
1842	:0010000010;
1843	:0010000010;
1844	:0011011100;
1845	:0011011100;
1846	:0011011100;
1847	:0011011100;
1848	:0011011100;
1849	:0011011100;
1850	:0011011100;
1851	:0011011100;
1852	:0011101001;
1853	:0011101001;
1854	:0011101001;
1855	:0011101001;
1856	:0011101001;
1857	:0011101001;
1858	:0011101001;
1859	:0011101001;
1860	:0101011101;
1861	:0101011101;
1862	:0101011101;
1863	:0101011101;
1864	:0101011101;
1865	:0101011101;
1866	:0101011101;
1867	:0101011101;
1868	:0101011101;
1869	:0101001001;
1870	:0101001001;
1871	:0101001001;
1872	:0101001001;
1873	:0100100101;
1874	:0100100101;
1875	:0100100101;
1876	:0100100101;
1877	:0100100101;
1878	:0100100101;
1879	:0100100101;
1880	:0100100101;
1881	:0100100101;
1882	:0100100101;
1883	:0100100101;
1884	:0100100101;
1885	:0100000101;
1886	:0100000101;
1887	:0100000101;
1888	:0100000101;
1889	:0100000101;
1890	:0100000101;
1891	:0100000101;
1892	:0100000101;
1893	:0100000101;
1894	:0110000111;
1895	:0110000111;
1896	:0110000111;
1897	:0110000111;
1898	:0110000111;
1899	:0110000111;
1900	:0110000111;
1901	:0110000111;
1902	:0101001001;
1903	:0101001001;
1904	:0101001001;
1905	:0101001001;
1906	:0101001001;
1907	:0101001001;
1908	:0101001001;
1909	:0101001001;
1910	:0100000101;
1911	:0100000101;
1912	:0100000101;
1913	:0100000101;
1914	:0100000101;
1915	:0100000101;
1916	:0100000101;
1917	:0100000101;
1918	:0100000101;
1919	:0100100101;
1920	:0100100101;
1921	:0100100101;
1922	:0100100101;
1923	:0100100101;
1924	:0100100101;
1925	:0100100101;
1926	:0100100101;
1927	:0101011101;
1928	:0101011101;
1929	:0101011101;
1930	:0101011101;
1931	:0101001001;
1932	:0101001001;
1933	:0101001001;
1934	:0101001001;
1935	:0101001001;
1936	:0101001001;
1937	:0101001001;
1938	:0101001001;
1939	:0101011101;
1940	:0101011101;
1941	:0101011101;
1942	:0101011101;
1943	:0101011101;
1944	:0101011101;
1945	:0101011101;
1946	:0101011101;
1947	:0101011101;
1948	:0101011101;
1949	:0101011101;
1950	:0101011101;
1951	:0101011101;
1952	:0110000111;
1953	:0110000111;
1954	:0110000111;
1955	:0110000111;
1956	:0110000111;
1957	:0110000111;
1958	:0110000111;
1959	:0110000111;
1960	:0101011101;
1961	:0101011101;
1962	:0101011101;
1963	:0101011101;
1964	:0101011101;
1965	:0101011101;
1966	:0101011101;
1967	:0101011101;
1968	:0101011101;
1969	:0101001001;
1970	:0101001001;
1971	:0101001001;
1972	:0101001001;
1973	:0101001001;
1974	:0101001001;
1975	:0101001001;
1976	:0101001001;
1977	:0100000101;
1978	:0100000101;
1979	:0100000101;
1980	:0100000101;
1981	:0001110100;
1982	:0001110100;
1983	:0001110100;
1984	:0001110100;
1985	:0001110100;
1986	:0001110100;
1987	:0001110100;
1988	:0001110100;
1989	:0010101110;
1990	:0010101110;
1991	:0010101110;
1992	:0010101110;
1993	:0010101110;
1994	:0010101110;
1995	:0010101110;
1996	:0010101110;
1997	:0010000010;
1998	:0010000010;
1999	:0010000010;
2000	:0010000010;
2001	:0010000010;
2002	:0010000010;
2003	:0010000010;
2004	:0010000010;
2005	:0010000010;
2006	:0010101110;
2007	:0010101110;
2008	:0010101110;
2009	:0010101110;
2010	:0010101110;
2011	:0010101110;
2012	:0010101110;
2013	:0010101110;
2014	:0010001010;
2015	:0010001010;
2016	:0010001010;
2017	:0010001010;
2018	:0010001010;
2019	:0010001010;
2020	:0010001010;
2021	:0010001010;
2022	:0010011011;
2023	:0010011011;
2024	:0010011011;
2025	:0010011011;
2026	:0010011011;
2027	:0010101110;
2028	:0010101110;
2029	:0010101110;
2030	:0010101110;
2031	:0010011011;
2032	:0010011011;
2033	:0010011011;
2034	:0010011011;
2035	:0010011011;
2036	:0010011011;
2037	:0010011011;
2038	:0010011011;
2039	:0011000011;
2040	:0011000011;
2041	:0011000011;
2042	:0011000011;
2043	:0011000011;
2044	:0011000011;
2045	:0011000011;
2046	:0011000011;
2047	:0011101001;
2048	:0011101001;
2049	:0011101001;
2050	:0011101001;
2051	:0011101001;
2052	:0010101110;
2053	:0010101110;
2054	:0010101110;
2055	:0010101110;
2056	:0100000101;
2057	:0100000101;
2058	:0100010101;
2059	:0100010101;
2060	:0100010101;
2061	:0100010101;
2062	:0100010101;
2063	:0100010101;
2064	:0100000101;
2065	:0100000101;
2066	:0100010101;
2067	:0100010101;
2068	:0100000101;
2069	:0100000101;
2070	:0100000101;
2071	:0100000101;
2072	:0011101001;
2073	:0011101001;
2074	:0011101001;
2075	:0011001111;
2076	:0011001111;
2077	:0011001111;
2078	:0011001111;
2079	:0011001111;
2080	:0011001111;
2081	:0010101110;
2082	:0010101110;
2083	:0010101110;
2084	:0010101110;
2085	:0011001111;
2086	:0011001111;
2087	:0011001111;
2088	:0011001111;
2089	:0010011011;
2090	:0010011011;
2091	:0010011011;
2092	:0010011011;
2093	:0010101110;
2094	:0010101110;
2095	:0010101110;
2096	:0010101110;
2097	:0010101110;
2098	:0010101110;
2099	:0010101110;
2100	:0010101110;
2101	:0010101110;
2102	:0010101110;
2103	:0010101110;
2104	:0010101110;
2105	:0010101110;
2106	:0010101110;
2107	:0010101110;
2108	:0010101110;
2109	:0010001010;
2110	:0010001010;
2111	:0010001010;
2112	:0010001010;
2113	:0010001010;
2114	:0001110100;
2115	:0001110100;
2116	:0001110100;
2117	:0001110100;
2118	:0001110100;
2119	:0001110100;
2120	:0001110100;
2121	:0001110100;
2122	:0010101110;
2123	:0010101110;
2124	:0010101110;
2125	:0010101110;
2126	:0010101110;
2127	:0010101110;
2128	:0010101110;
2129	:0010101110;
2130	:0010101110;
2131	:0010000010;
2132	:0010000010;
2133	:0010000010;
2134	:0010000010;
2135	:0010000010;
2136	:0010000010;
2137	:0010000010;
2138	:0010000010;
2139	:0010101110;
2140	:0010101110;
2141	:0010101110;
2142	:0010101110;
2143	:0010101110;
2144	:0010101110;
2145	:0010101110;
2146	:0010101110;
2147	:0010001010;
2148	:0010001010;
2149	:0010001010;
2150	:0010001010;
2151	:0010001010;
2152	:0010001010;
2153	:0010001010;
2154	:0010001010;
2155	:0010001010;
2156	:0010011011;
2157	:0010011011;
2158	:0010011011;
2159	:0010011011;
2160	:0010101110;
2161	:0010101110;
2162	:0010101110;
2163	:0010101110;
2164	:0010011011;
2165	:0010011011;
2166	:0010011011;
2167	:0010011011;
2168	:0010011011;
2169	:0010011011;
2170	:0010011011;
2171	:0010011011;
2172	:0011000011;
2173	:0011000011;
2174	:0011000011;
2175	:0011000011;
2176	:0011000011;
2177	:0011000011;
2178	:0011000011;
2179	:0011000011;
2180	:0011000011;
2181	:0011101001;
2182	:0011101001;
2183	:0011101001;
2184	:0011101001;
2185	:0010101110;
2186	:0010101110;
2187	:0010101110;
2188	:0010101110;
2189	:0100000101;
2190	:0100000101;
2191	:0100010101;
2192	:0100010101;
2193	:0100010101;
2194	:0100010101;
2195	:0100010101;
2196	:0100010101;
2197	:0100000101;
2198	:0100000101;
2199	:0100000101;
2200	:0100010101;
2201	:0100010101;
2202	:0100000101;
2203	:0100000101;
2204	:0100000101;
2205	:0100000101;
2206	:0011101001;
2207	:0011101001;
2208	:0011001111;
2209	:0011001111;
2210	:0011001111;
2211	:0011001111;
2212	:0011001111;
2213	:0011001111;
2214	:0011001111;
2215	:0011001111;
2216	:0011001111;
2217	:0011001111;
2218	:0011001111;
2219	:0011001111;
2220	:0011001111;
2221	:0011001111;
2222	:0011001111;
2223	:0011001111;
2224	:0011001111;
2225	:0011001111;
2226	:0011001111;
2227	:0011001111;
2228	:0011001111;
2229	:0011001111;
2230	:0011001111;
2231	:0011001111;
2232	:0011001111;
2233	:0011001111;
2234	:0011001111;
2235	:0011001111;
2236	:0011001111;
2237	:0011001111;
2238	:0011001111;
2239	:0011001111;
2240	:0011001111;
2241	:0011101001;
2242	:0011101001;
2243	:0011101001;
2244	:0011101001;
2245	:0011101001;
2246	:0011101001;
2247	:0001110100;
2248	:0001110100;
2249	:0001110100;
2250	:0001110100;
2251	:0010101110;
2252	:0010101110;
2253	:0010100100;
2254	:0010100100;
2255	:0010101110;
2256	:0010101110;
2257	:0010101110;
2258	:0010101110;
2259	:0010100100;
2260	:0010100100;
2261	:0010100100;
2262	:0010100100;
2263	:0011000011;
2264	:0011000011;
2265	:0011000011;
2266	:0011000011;
2267	:0011000011;
2268	:0010101110;
2269	:0010101110;
2270	:0010100100;
2271	:0010100100;
2272	:0010101110;
2273	:0010101110;
2274	:0010100100;
2275	:0010100100;
2276	:0010000010;
2277	:0010000010;
2278	:0010000010;
2279	:0010000010;
2280	:0010010010;
2281	:0010010010;
2282	:0010010010;
2283	:0010010010;
2284	:0011011100;
2285	:0011011100;
2286	:0011000011;
2287	:0011000011;
2288	:0011011100;
2289	:0011011100;
2290	:0011011100;
2291	:0011000011;
2292	:0011000011;
2293	:0011011100;
2294	:0011011100;
2295	:0011011100;
2296	:0011011100;
2297	:0100000101;
2298	:0100000101;
2299	:0100000101;
2300	:0100000101;
2301	:0011011100;
2302	:0011011100;
2303	:0011011100;
2304	:0011011100;
2305	:0011000011;
2306	:0011000011;
2307	:0011000011;
2308	:0011000011;
2309	:0011011100;
2310	:0011011100;
2311	:0011011100;
2312	:0011011100;
2313	:0001110100;
2314	:0001110100;
2315	:0001110100;
2316	:0001110100;
2317	:0001110100;
2318	:0010101110;
2319	:0010101110;
2320	:0010100100;
2321	:0010100100;
2322	:0010101110;
2323	:0010101110;
2324	:0010101110;
2325	:0010101110;
2326	:0010100100;
2327	:0010100100;
2328	:0010100100;
2329	:0010100100;
2330	:0011000011;
2331	:0011000011;
2332	:0011000011;
2333	:0011000011;
2334	:0010101110;
2335	:0010101110;
2336	:0010100100;
2337	:0010100100;
2338	:0010101110;
2339	:0010101110;
2340	:0010101110;
2341	:0010100100;
2342	:0010100100;
2343	:0010000010;
2344	:0010000010;
2345	:0010000010;
2346	:0010000010;
2347	:0010010010;
2348	:0010010010;
2349	:0010010010;
2350	:0010010010;
2351	:0011011100;
2352	:0011011100;
2353	:0011000011;
2354	:0011000011;
2355	:0011011100;
2356	:0011011100;
2357	:0011000011;
2358	:0011000011;
2359	:0011011100;
2360	:0011011100;
2361	:0011011100;
2362	:0011011100;
2363	:0100010101;
2364	:0100010101;
2365	:0100010101;
2366	:0100010101;
2367	:0100010101;
2368	:0011011100;
2369	:0011011100;
2370	:0011011100;
2371	:0011011100;
2372	:0011000011;
2373	:0011000011;
2374	:0011000011;
2375	:0011000011;
2376	:0011011100;
2377	:0011011100;
2378	:0011011100;
2379	:0011011100;
2380	:0001110100;
2381	:0001110100;
2382	:0001110100;
2383	:0001110100;
2384	:0010101110;
2385	:0010101110;
2386	:0010100100;
2387	:0010100100;
2388	:0010101110;
2389	:0010101110;
2390	:0010101110;
2391	:0010101110;
2392	:0010101110;
2393	:0010100100;
2394	:0010100100;
2395	:0010100100;
2396	:0010100100;
2397	:0011000011;
2398	:0011000011;
2399	:0011000011;
2400	:0011000011;
2401	:0010101110;
2402	:0010101110;
2403	:0010100100;
2404	:0010100100;
2405	:0010101110;
2406	:0010101110;
2407	:0010100100;
2408	:0010100100;
2409	:0010000010;
2410	:0010000010;
2411	:0010000010;
2412	:0010000010;
2413	:0010010010;
2414	:0010010010;
2415	:0010010010;
2416	:0010010010;
2417	:0010010010;
2418	:0011011100;
2419	:0011011100;
2420	:0011000011;
2421	:0011000011;
2422	:0011011100;
2423	:0011011100;
2424	:0011000011;
2425	:0011000011;
2426	:0011011100;
2427	:0011011100;
2428	:0011011100;
2429	:0011011100;
2430	:0100000101;
2431	:0100000101;
2432	:0011000011;
2433	:0011011100;
2434	:0011000011;
2435	:0011000011;
2436	:0011000011;
2437	:0011000011;
2438	:0010101110;
2439	:0010101110;
2440	:0010101110;
2441	:0010101110;
2442	:0010101110;
2443	:0010111000;
2444	:0010111000;
2445	:0011000011;
2446	:0011000011;
2447	:0011000011;
2448	:0011000011;
2449	:0001110100;
2450	:0001110100;
2451	:0011000011;
2452	:0011000011;
2453	:0001110100;
2454	:0001110100;
2455	:0001110100;
2456	:0001110100;
2457	:0011000011;
2458	:0011000011;
2459	:0011000011;
2460	:0011000011;
2461	:0011011100;
2462	:0011011100;
2463	:0011011100;
2464	:0011011100;
2465	:0011011100;
2466	:0010000010;
2467	:0010000010;
2468	:0011011100;
2469	:0011011100;
2470	:0010000010;
2471	:0010000010;
2472	:0010000010;
2473	:0010000010;
2474	:0011011100;
2475	:0011011100;
2476	:0011011100;
2477	:0011011100;
2478	:0011101001;
2479	:0011101001;
2480	:0011101001;
2481	:0011101001;
2482	:0011101001;
2483	:0011101001;
2484	:0011101001;
2485	:0011101001;
2486	:0011101001;
2487	:0011101001;
2488	:0011101001;
2489	:0011101001;
2490	:0011101001;
2491	:0011101001;
2492	:0011110110;
2493	:0011110110;
2494	:0011110110;
2495	:0011110110;
2496	:0011110110;
2497	:0011110110;
2498	:0011110110;
2499	:0011110110;
2500	:0011110110;
2501	:0011110110;
2502	:0011110110;
2503	:0011110110;
2504	:0011110110;
2505	:0011110110;
2506	:0011110110;
2507	:0011110110;
2508	:0011110110;
2509	:0100000101;
2510	:0100000101;
2511	:0100000101;
2512	:0100000101;
2513	:0010101110;
2514	:0010101110;
2515	:0010101110;
2516	:0010101110;
2517	:0010010010;
2518	:0010010010;
2519	:0010010010;
2520	:0010010010;
2521	:0010101110;
2522	:0010101110;
2523	:0010101110;
2524	:0010101110;
2525	:0010010010;
2526	:0010010010;
2527	:0011000011;
2528	:0011000011;
2529	:0011000011;
2530	:0011000011;
2531	:0011000011;
2532	:0010010010;
2533	:0010010010;
2534	:0010010010;
2535	:0010010010;
2536	:0011011100;
2537	:0011011100;
2538	:0010000010;
2539	:0010000010;
2540	:0010010010;
2541	:0010010010;
2542	:0010010010;
2543	:0010010010;
2544	:0011000011;
2545	:0011000011;
2546	:0011000011;
2547	:0011000011;
2548	:0011000011;
2549	:0011000011;
2550	:0010000010;
2551	:0010000010;
2552	:0010000010;
2553	:0010000010;
2554	:0010000010;
2555	:0010100100;
2556	:0010100100;
2557	:0010100100;
2558	:0010100100;
2559	:0010000010;
2560	:0010000010;
2561	:0011000011;
2562	:0011000011;
2563	:0011000011;
2564	:0011000011;
2565	:0010100100;
2566	:0010100100;
2567	:0010100100;
2568	:0010100100;
2569	:0011011100;
2570	:0011011100;
2571	:0010010010;
2572	:0010010010;
2573	:0010101110;
2574	:0010101110;
2575	:0010010010;
2576	:0010010010;
2577	:0010010010;
2578	:0010010010;
2579	:0010010010;
2580	:0010101110;
2581	:0010101110;
2582	:0010101110;
2583	:0010101110;
2584	:0010010010;
2585	:0010010010;
2586	:0010010010;
2587	:0010010010;
2588	:0010101110;
2589	:0010101110;
2590	:0010101110;
2591	:0010101110;
2592	:0010010010;
2593	:0010010010;
2594	:0011000011;
2595	:0011000011;
2596	:0011000011;
2597	:0011000011;
2598	:0010010010;
2599	:0010010010;
2600	:0010010010;
2601	:0010010010;
2602	:0010010010;
2603	:0010010010;
2604	:0010010010;
2605	:0011011100;
2606	:0011011100;
2607	:0011011100;
2608	:0011011100;
2609	:0010010010;
2610	:0010010010;
2611	:0011000011;
2612	:0011000011;
2613	:0010000010;
2614	:0010000010;
2615	:0010100100;
2616	:0010100100;
2617	:0010000010;
2618	:0010000010;
2619	:0010000010;
2620	:0010000010;
2621	:0011000011;
2622	:0011000011;
2623	:0011000011;
2624	:0011000011;
2625	:0010100100;
2626	:0010100100;
2627	:0011000011;
2628	:0011000011;
2629	:0011000011;
2630	:0010100100;
2631	:0010100100;
2632	:0010100100;
2633	:0010100100;
2634	:0010100100;
2635	:0010100100;
2636	:0011011100;
2637	:0011011100;
2638	:0011011100;
2639	:0011011100;
2640	:0100000101;
2641	:0100000101;
2642	:0011011100;
2643	:0011011100;
2644	:0011011100;
2645	:0011011100;
2646	:0010101110;
2647	:0010101110;
2648	:0010101110;
2649	:0010101110;
2650	:0010010010;
2651	:0010010010;
2652	:0010010010;
2653	:0010010010;
2654	:0010010010;
2655	:0010101110;
2656	:0010101110;
2657	:0010101110;
2658	:0010101110;
2659	:0010010010;
2660	:0010010010;
2661	:0011000011;
2662	:0011000011;
2663	:0011000011;
2664	:0011000011;
2665	:0010010010;
2666	:0010010010;
2667	:0010010010;
2668	:0010010010;
2669	:0011011100;
2670	:0011011100;
2671	:0010000010;
2672	:0010000010;
2673	:0010010010;
2674	:0010010010;
2675	:0010010010;
2676	:0010010010;
2677	:0011000011;
2678	:0011000011;
2679	:0011000011;
2680	:0011000011;
2681	:0011000011;
2682	:0011000011;
2683	:0011000011;
2684	:0010000010;
2685	:0010000010;
2686	:0010000010;
2687	:0010000010;
2688	:0010100100;
2689	:0010100100;
2690	:0010100100;
2691	:0010100100;
2692	:0010000010;
2693	:0010000010;
2694	:0011000011;
2695	:0011000011;
2696	:0011000011;
2697	:0011000011;
2698	:0010100100;
2699	:0010100100;
2700	:0010100100;
2701	:0010100100;
2702	:0011011100;
2703	:0011011100;
2704	:0011011100;
2705	:0010010010;
2706	:0010010010;
2707	:0010101110;
2708	:0010101110;
2709	:0010010010;
2710	:0010010010;
2711	:0010010010;
2712	:0010010010;
2713	:0010101110;
2714	:0010101110;
2715	:0010101110;
2716	:0010101110;
2717	:0010010010;
2718	:0010010010;
2719	:0010010010;
2720	:0010010010;
2721	:0010101110;
2722	:0010101110;
2723	:0010101110;
2724	:0010101110;
2725	:0010010010;
2726	:0010010010;
2727	:0011000011;
2728	:0011000011;
2729	:0011000011;
2730	:0011000011;
2731	:0011000011;
2732	:0010010010;
2733	:0010010010;
2734	:0010010010;
2735	:0010010010;
2736	:0010010010;
2737	:0010010010;
2738	:0011011100;
2739	:0011011100;
2740	:0011011100;
2741	:0011011100;
2742	:0010010010;
2743	:0010010010;
2744	:0011000011;
2745	:0011000011;
2746	:0010000010;
2747	:0010000010;
2748	:0010100100;
2749	:0010100100;
2750	:0010000010;
2751	:0010000010;
2752	:0010000010;
2753	:0010000010;
2754	:0010000010;
2755	:0011000011;
2756	:0011000011;
2757	:0011000011;
2758	:0011000011;
2759	:0010100100;
2760	:0010100100;
2761	:0011000011;
2762	:0011000011;
2763	:0010100100;
2764	:0010100100;
2765	:0010100100;
2766	:0010100100;
2767	:0010100100;
2768	:0010100100;
2769	:0010100100;
2770	:0010100100;
2771	:0010100100;
2772	:0010100100;
2773	:0010100100;
2774	:0010100100;
2775	:0011011100;
2776	:0011011100;
2777	:0011011100;
2778	:0011011100;
2779	:0011011100;
2780	:0010101110;
2781	:0010101110;
2782	:0010101110;
2783	:0010101110;
2784	:0010010010;
2785	:0010010010;
2786	:0010010010;
2787	:0010101110;
2788	:0010101110;
2789	:0010010010;
2790	:0010010010;
2791	:0010101110;
2792	:0010101110;
2793	:0011000011;
2794	:0011000011;
2795	:0011000011;
2796	:0011000011;
2797	:0011011100;
2798	:0011011100;
2799	:0011011100;
2800	:0011011100;
2801	:0010101110;
2802	:0010101110;
2803	:0010101110;
2804	:0010101110;
2805	:0010010010;
2806	:0010010010;
2807	:0010100100;
2808	:0010100100;
2809	:0010101110;
2810	:0010101110;
2811	:0010101110;
2812	:0010101110;
2813	:0010101110;
2814	:0011000011;
2815	:0011000011;
2816	:0011000011;
2817	:0011000011;
2818	:0011000011;
2819	:0011000011;
2820	:0010000010;
2821	:0010000010;
2822	:0010000010;
2823	:0010000010;
2824	:0100000101;
2825	:0100000101;
2826	:0011101001;
2827	:0011101001;
2828	:0011101001;
2829	:0011101001;
2830	:0011011100;
2831	:0011011100;
2832	:0011011100;
2833	:0011011100;
2834	:0011101001;
2835	:0011101001;
2836	:0011101001;
2837	:0011101001;
2838	:0011101001;
2839	:0011011100;
2840	:0011011100;
2841	:0011011100;
2842	:0011011100;
2843	:0011000011;
2844	:0011000011;
2845	:0011000011;
2846	:0011000011;
2847	:0010101110;
2848	:0010101110;
2849	:0010101110;
2850	:0010101110;
2851	:0010010010;
2852	:0010010010;
2853	:0010101110;
2854	:0010101110;
2855	:0010010010;
2856	:0010010010;
2857	:0010101110;
2858	:0010101110;
2859	:0011000011;
2860	:0011000011;
2861	:0011000011;
2862	:0011000011;
2863	:0011000011;
2864	:0011011100;
2865	:0011011100;
2866	:0011011100;
2867	:0011011100;
2868	:0010101110;
2869	:0010101110;
2870	:0010101110;
2871	:0010101110;
2872	:0010010010;
2873	:0010010010;
2874	:0010010010;
2875	:0010010010;
2876	:0010101110;
2877	:0010101110;
2878	:0010101110;
2879	:0010101110;
2880	:0010100100;
2881	:0010100100;
2882	:0010100100;
2883	:0010100100;
2884	:0010101110;
2885	:0010101110;
2886	:0010101110;
2887	:0010101110;
2888	:0010101110;
2889	:0010100100;
2890	:0010100100;
2891	:0010100100;
2892	:0010100100;
2893	:0010000010;
2894	:0010000010;
2895	:0010000010;
2896	:0010000010;
2897	:0010010010;
2898	:0010010010;
2899	:0010010010;
2900	:0010010010;
2901	:0010010010;
2902	:0010010010;
2903	:0010010010;
2904	:0010010010;
2905	:0010100100;
2906	:0010100100;
2907	:0010100100;
2908	:0010100100;
2909	:0010101110;
2910	:0010101110;
2911	:0010101110;
2912	:0010101110;
2913	:0010101110;
2914	:0010101110;
2915	:0010101110;
2916	:0010101110;
2917	:0010101110;
2918	:0010010010;
2919	:0010010010;
2920	:0010101110;
2921	:0010101110;
2922	:0010010010;
2923	:0010010010;
2924	:0010101110;
2925	:0010101110;
2926	:0011000011;
2927	:0011000011;
2928	:0011000011;
2929	:0011000011;
2930	:0011011100;
2931	:0011011100;
2932	:0011011100;
2933	:0011011100;
2934	:0010101110;
2935	:0010101110;
2936	:0010101110;
2937	:0010101110;
2938	:0010101110;
2939	:0010010010;
2940	:0010010010;
2941	:0010100100;
2942	:0010100100;
2943	:0010101110;
2944	:0010101110;
2945	:0010101110;
2946	:0010101110;
2947	:0011000011;
2948	:0011000011;
2949	:0011000011;
2950	:0011000011;
2951	:0011000011;
2952	:0011000011;
2953	:0010000010;
2954	:0010000010;
2955	:0010000010;
2956	:0010000010;
2957	:0100000101;
2958	:0100000101;
2959	:0011101001;
2960	:0011101001;
2961	:0011101001;
2962	:0011101001;
2963	:0011101001;
2964	:0011011100;
2965	:0011011100;
2966	:0011011100;
2967	:0011011100;
2968	:0011101001;
2969	:0011101001;
2970	:0011101001;
2971	:0011101001;
2972	:0011011100;
2973	:0011011100;
2974	:0011011100;
2975	:0011011100;
2976	:0011000011;
2977	:0011000011;
2978	:0011000011;
2979	:0011000011;
2980	:0010101110;
2981	:0010101110;
2982	:0010101110;
2983	:0010101110;
2984	:0010010010;
2985	:0010010010;
2986	:0010010010;
2987	:0010101110;
2988	:0010101110;
2989	:0010010010;
2990	:0010010010;
2991	:0010101110;
2992	:0010101110;
2993	:0011000011;
2994	:0011000011;
2995	:0011000011;
2996	:0011000011;
2997	:0011011100;
2998	:0011011100;
2999	:0011011100;
3000	:0011011100;
3001	:0010101110;
3002	:0010101110;
3003	:0010101110;
3004	:0010101110;
3005	:0010010010;
3006	:0010010010;
3007	:0010010010;
3008	:0010010010;
3009	:0010101110;
3010	:0010101110;
3011	:0010101110;
3012	:0010101110;
3013	:0010101110;
3014	:0010100100;
3015	:0010100100;
3016	:0010100100;
3017	:0010100100;
3018	:0010101110;
3019	:0010101110;
3020	:0010101110;
3021	:0010101110;
3022	:0010100100;
3023	:0010100100;
3024	:0010100100;
3025	:0010100100;
3026	:0010000010;
3027	:0010000010;
3028	:0010000010;
3029	:0010000010;
3030	:0010000010;
3031	:0010000010;
3032	:0010000010;
3033	:0010000010;
3034	:0010000010;
3035	:0010000010;
3036	:0010000010;
3037	:0010000010;
3038	:0010000010;
3039	:0010000010;
3040	:0010000010;
3041	:0010000010;
3042	:0010000010;
3043	:0010010010;
3044	:0010010010;
3045	:0010010010;
3046	:0010010010;
3047	:0001110100;
3048	:0001110100;
3049	:0001110100;
3050	:0001110100;
3051	:0010101110;
3052	:0010101110;
3053	:0010100100;
3054	:0010100100;
3055	:0010101110;
3056	:0010101110;
3057	:0010101110;
3058	:0010101110;
3059	:0010100100;
3060	:0010100100;
3061	:0010100100;
3062	:0010100100;
3063	:0011000011;
3064	:0011000011;
3065	:0011000011;
3066	:0011000011;
3067	:0011000011;
3068	:0010101110;
3069	:0010101110;
3070	:0010100100;
3071	:0010100100;
3072	:0010101110;
3073	:0010101110;
3074	:0010100100;
3075	:0010100100;
3076	:0010000010;
3077	:0010000010;
3078	:0010000010;
3079	:0010000010;
3080	:0010010010;
3081	:0010010010;
3082	:0010010010;
3083	:0010010010;
3084	:0011011100;
3085	:0011011100;
3086	:0011000011;
3087	:0011000011;
3088	:0011011100;
3089	:0011011100;
3090	:0011011100;
3091	:0011000011;
3092	:0011000011;
3093	:0011011100;
3094	:0011011100;
3095	:0011011100;
3096	:0011011100;
3097	:0100000101;
3098	:0100000101;
3099	:0100000101;
3100	:0100000101;
3101	:0011011100;
3102	:0011011100;
3103	:0011011100;
3104	:0011011100;
3105	:0011000011;
3106	:0011000011;
3107	:0011000011;
3108	:0011000011;
3109	:0011011100;
3110	:0011011100;
3111	:0011011100;
3112	:0011011100;
3113	:0001110100;
3114	:0001110100;
3115	:0001110100;
3116	:0001110100;
3117	:0001110100;
3118	:0010101110;
3119	:0010101110;
3120	:0010100100;
3121	:0010100100;
3122	:0010101110;
3123	:0010101110;
3124	:0010101110;
3125	:0010101110;
3126	:0010100100;
3127	:0010100100;
3128	:0010100100;
3129	:0010100100;
3130	:0011000011;
3131	:0011000011;
3132	:0011000011;
3133	:0011000011;
3134	:0010101110;
3135	:0010101110;
3136	:0010100100;
3137	:0010100100;
3138	:0010101110;
3139	:0010101110;
3140	:0010101110;
3141	:0010100100;
3142	:0010100100;
3143	:0010000010;
3144	:0010000010;
3145	:0010000010;
3146	:0010000010;
3147	:0010010010;
3148	:0010010010;
3149	:0010010010;
3150	:0010010010;
3151	:0011011100;
3152	:0011011100;
3153	:0011000011;
3154	:0011000011;
3155	:0011011100;
3156	:0011011100;
3157	:0011000011;
3158	:0011000011;
3159	:0011011100;
3160	:0011011100;
3161	:0011011100;
3162	:0011011100;
3163	:0100010101;
3164	:0100010101;
3165	:0100010101;
3166	:0100010101;
3167	:0100010101;
3168	:0011011100;
3169	:0011011100;
3170	:0011011100;
3171	:0011011100;
3172	:0011000011;
3173	:0011000011;
3174	:0011000011;
3175	:0011000011;
3176	:0011011100;
3177	:0011011100;
3178	:0011011100;
3179	:0011011100;
3180	:0001110100;
3181	:0001110100;
3182	:0001110100;
3183	:0001110100;
3184	:0010101110;
3185	:0010101110;
3186	:0010100100;
3187	:0010100100;
3188	:0010101110;
3189	:0010101110;
3190	:0010101110;
3191	:0010101110;
3192	:0010101110;
3193	:0010100100;
3194	:0010100100;
3195	:0010100100;
3196	:0010100100;
3197	:0011000011;
3198	:0011000011;
3199	:0011000011;
3200	:0011000011;
3201	:0010101110;
3202	:0010101110;
3203	:0010100100;
3204	:0010100100;
3205	:0010101110;
3206	:0010101110;
3207	:0010100100;
3208	:0010100100;
3209	:0010000010;
3210	:0010000010;
3211	:0010000010;
3212	:0010000010;
3213	:0010010010;
3214	:0010010010;
3215	:0010010010;
3216	:0010010010;
3217	:0010010010;
3218	:0011011100;
3219	:0011011100;
3220	:0011000011;
3221	:0011000011;
3222	:0011011100;
3223	:0011011100;
3224	:0011000011;
3225	:0011000011;
3226	:0011011100;
3227	:0011011100;
3228	:0011011100;
3229	:0011011100;
3230	:0100000101;
3231	:0100000101;
3232	:0011000011;
3233	:0011011100;
3234	:0011000011;
3235	:0011000011;
3236	:0011000011;
3237	:0011000011;
3238	:0010101110;
3239	:0010101110;
3240	:0010101110;
3241	:0010101110;
3242	:0010101110;
3243	:0010111000;
3244	:0010111000;
3245	:0011000011;
3246	:0011000011;
3247	:0011000011;
3248	:0011000011;
3249	:0001110100;
3250	:0001110100;
3251	:0011000011;
3252	:0011000011;
3253	:0001110100;
3254	:0001110100;
3255	:0001110100;
3256	:0001110100;
3257	:0011000011;
3258	:0011000011;
3259	:0011000011;
3260	:0011000011;
3261	:0011000011;
3262	:0011000011;
3263	:0011011100;
3264	:0011011100;
3265	:0011011100;
3266	:0011000011;
3267	:0011011100;
3268	:0011000011;
3269	:0011000011;
3270	:0011000011;
3271	:0011000011;
3272	:0010101110;
3273	:0010101110;
3274	:0010101110;
3275	:0010101110;
3276	:0010100100;
3277	:0010100100;
3278	:0010100100;
3279	:0010100100;
3280	:0010100100;
3281	:0010100100;
3282	:0010100100;
3283	:0010100100;
3284	:0010100100;
3285	:0010100100;
3286	:0010100100;
3287	:0010100100;
3288	:0010100100;
3289	:0010100100;
3290	:0010100100;
3291	:0010100100;
3292	:0010100100;
3293	:0010100100;
3294	:0010100100;
3295	:0010100100;
3296	:0010100100;
3297	:0010100100;
3298	:0010100100;
3299	:0010100100;
3300	:0010100100;
3301	:0010100100;
3302	:0010100100;
3303	:0010100100;
3304	:0010100100;
3305	:0010100100;
3306	:0010100100;
3307	:0010100100;
3308	:0010010010;
3309	:0010010010;
3310	:0010010010;
3311	:0010010010;
3312	:0010010010;
3313	:0010010010;
3314	:0010010010;
3315	:0010010010;
3316	:0010010010;
3317	:0010010010;
3318	:0010100100;
3319	:0010100100;
3320	:0010100100;
3321	:0010100100;
3322	:0010101110;
3323	:0010101110;
3324	:0010101110;
3325	:0010101110;
3326	:0010101110;
3327	:0011000011;
3328	:0011000011;
3329	:0011000011;
3330	:0011000011;
3331	:0011011100;
3332	:0011011100;
3333	:0011011100;
3334	:0011011100;
3335	:0011011100;
3336	:0011011100;
3337	:0011011100;
3338	:0011011100;
3339	:0100100101;
3340	:0100100101;
3341	:0100100101;
3342	:0100100101;
3343	:0100000101;
3344	:0100000101;
3345	:0100000101;
3346	:0100000101;
3347	:0011011100;
3348	:0011011100;
3349	:0011011100;
3350	:0011011100;
3351	:0011011100;
3352	:0011011100;
3353	:0011011100;
3354	:0011011100;
3355	:0011011100;
3356	:0010010010;
3357	:0010010010;
3358	:0010010010;
3359	:0010010010;
3360	:0010010010;
3361	:0010010010;
3362	:0010010010;
3363	:0010010010;
3364	:0011011100;
3365	:0011011100;
3366	:0011011100;
3367	:0011011100;
3368	:0011000011;
3369	:0011000011;
3370	:0011000011;
3371	:0011000011;
3372	:0010101110;
3373	:0010101110;
3374	:0010101110;
3375	:0010101110;
3376	:0010101110;
3377	:0010100100;
3378	:0010100100;
3379	:0010100100;
3380	:0010100100;
3381	:0010010010;
3382	:0010010010;
3383	:0010010010;
3384	:0010010010;
3385	:0010100100;
3386	:0010100100;
3387	:0010100100;
3388	:0010100100;
3389	:0010101110;
3390	:0010101110;
3391	:0010101110;
3392	:0010101110;
3393	:0011000011;
3394	:0011000011;
3395	:0011000011;
3396	:0011000011;
3397	:0011011100;
3398	:0011011100;
3399	:0011011100;
3400	:0011011100;
3401	:0011011100;
3402	:0011011100;
3403	:0011011100;
3404	:0011011100;
3405	:0011011100;
3406	:0011000011;
3407	:0011000011;
3408	:0011000011;
3409	:0011000011;
3410	:0010101110;
3411	:0010101110;
3412	:0010101110;
3413	:0010101110;
3414	:0010100100;
3415	:0010100100;
3416	:0010100100;
3417	:0010100100;
3418	:0010010010;
3419	:0010010010;
3420	:0010010010;
3421	:0010010010;
3422	:0010100100;
3423	:0010100100;
3424	:0010100100;
3425	:0010100100;
3426	:0010100100;
3427	:0010101110;
3428	:0010101110;
3429	:0010101110;
3430	:0010101110;
3431	:0010100100;
3432	:0010100100;
3433	:0010100100;
3434	:0010100100;
3435	:0010010010;
3436	:0010010010;
3437	:0010010010;
3438	:0010010010;
3439	:0010001010;
3440	:0010001010;
3441	:0010001010;
3442	:0010001010;
3443	:0010100100;
3444	:0010100100;
3445	:0010100100;
3446	:0010100100;
3447	:0010010010;
3448	:0010010010;
3449	:0010010010;
3450	:0010010010;
3451	:0010010010;
3452	:0010100100;
3453	:0010100100;
3454	:0010100100;
3455	:0010100100;
3456	:0010101110;
3457	:0010101110;
3458	:0010101110;
3459	:0010101110;
3460	:0011000011;
3461	:0011000011;
3462	:0011000011;
3463	:0011000011;
3464	:0011011100;
3465	:0011011100;
3466	:0011011100;
3467	:0011011100;
3468	:0011011100;
3469	:0011011100;
3470	:0011011100;
3471	:0011011100;
3472	:0100100101;
3473	:0100100101;
3474	:0100100101;
3475	:0100100101;
3476	:0100100101;
3477	:0100000101;
3478	:0100000101;
3479	:0100000101;
3480	:0100000101;
3481	:0011011100;
3482	:0011011100;
3483	:0011011100;
3484	:0011011100;
3485	:0011011100;
3486	:0011011100;
3487	:0011011100;
3488	:0011011100;
3489	:0010010010;
3490	:0010010010;
3491	:0010010010;
3492	:0010010010;
3493	:0010010010;
3494	:0010010010;
3495	:0010010010;
3496	:0010010010;
3497	:0011011100;
3498	:0011011100;
3499	:0011011100;
3500	:0011011100;
3501	:0011011100;
3502	:0011000011;
3503	:0011000011;
3504	:0011000011;
3505	:0011000011;
3506	:0010101110;
3507	:0010101110;
3508	:0010101110;
3509	:0010101110;
3510	:0010100100;
3511	:0010100100;
3512	:0010100100;
3513	:0010100100;
3514	:0010010010;
3515	:0010010010;
3516	:0010010010;
3517	:0010010010;
3518	:0010100100;
3519	:0010100100;
3520	:0010100100;
3521	:0010100100;
3522	:0010101110;
3523	:0010101110;
3524	:0010101110;
3525	:0010101110;
3526	:0010101110;
3527	:0011000011;
3528	:0011000011;
3529	:0011000011;
3530	:0011000011;
3531	:0011011100;
3532	:0011011100;
3533	:0011011100;
3534	:0011011100;
3535	:0011011100;
3536	:0011011100;
3537	:0011011100;
3538	:0011011100;
3539	:0011000011;
3540	:0011000011;
3541	:0011000011;
3542	:0011000011;
3543	:0010101110;
3544	:0010101110;
3545	:0010101110;
3546	:0010101110;
3547	:0010100100;
3548	:0010100100;
3549	:0010100100;
3550	:0010100100;
3551	:0010100100;
3552	:0010100100;
3553	:0010100100;
3554	:0010100100;
3555	:0010100100;
3556	:0010101110;
3557	:0010101110;
3558	:0010101110;
3559	:0010101110;
3560	:0010101110;
3561	:0010101110;
3562	:0010101110;
3563	:0010101110;
3564	:0011000011;
3565	:0011000011;
3566	:0011000011;
3567	:0011000011;
3568	:0011000011;
3569	:0011000011;
3570	:0011000011;
3571	:0011000011;
3572	:0011011100;
3573	:0011011100;
3574	:0011011100;
3575	:0011011100;
3576	:0011011100;
3577	:0011011100;
3578	:0011011100;
3579	:0011011100;
3580	:0011011100;
3581	:0011011100;
3582	:0001111011;
3583	:0001111011;
3584	:0001111011;
3585	:0001111011;
3586	:0010111000;
3587	:0010111000;
3588	:0010101110;
3589	:0010101110;
3590	:0010101110;
3591	:0010111000;
3592	:0010111000;
3593	:0010111000;
3594	:0010111000;
3595	:0010101110;
3596	:0010101110;
3597	:0010101110;
3598	:0010101110;
3599	:0011001111;
3600	:0011001111;
3601	:0011001111;
3602	:0011001111;
3603	:0010111000;
3604	:0010111000;
3605	:0010101110;
3606	:0010101110;
3607	:0010111000;
3608	:0010111000;
3609	:0010101110;
3610	:0010101110;
3611	:0010001010;
3612	:0010001010;
3613	:0010001010;
3614	:0010001010;
3615	:0010001010;
3616	:0010011011;
3617	:0010011011;
3618	:0010011011;
3619	:0010011011;
3620	:0011101001;
3621	:0011101001;
3622	:0011001111;
3623	:0011001111;
3624	:0011101001;
3625	:0011101001;
3626	:0011001111;
3627	:0011001111;
3628	:0011101001;
3629	:0011101001;
3630	:0011101001;
3631	:0011101001;
3632	:0100010101;
3633	:0100010101;
3634	:0100010101;
3635	:0100010101;
3636	:0011101001;
3637	:0011101001;
3638	:0011101001;
3639	:0011101001;
3640	:0011101001;
3641	:0011001111;
3642	:0011001111;
3643	:0011001111;
3644	:0011001111;
3645	:0011101001;
3646	:0011101001;
3647	:0011101001;
3648	:0011101001;
3649	:0001111011;
3650	:0001111011;
3651	:0001111011;
3652	:0001111011;
3653	:0010111000;
3654	:0010111000;
3655	:0010101110;
3656	:0010101110;
3657	:0010111000;
3658	:0010111000;
3659	:0010111000;
3660	:0010111000;
3661	:0010101110;
3662	:0010101110;
3663	:0010101110;
3664	:0010101110;
3665	:0010101110;
3666	:0011001111;
3667	:0011001111;
3668	:0011001111;
3669	:0011001111;
3670	:0010111000;
3671	:0010111000;
3672	:0010101110;
3673	:0010101110;
3674	:0010111000;
3675	:0010111000;
3676	:0010101110;
3677	:0010101110;
3678	:0010001010;
3679	:0010001010;
3680	:0010001010;
3681	:0010001010;
3682	:0010011011;
3683	:0010011011;
3684	:0010011011;
3685	:0010011011;
3686	:0011101001;
3687	:0011101001;
3688	:0011001111;
3689	:0011001111;
3690	:0011001111;
3691	:0011101001;
3692	:0011101001;
3693	:0011001111;
3694	:0011001111;
3695	:0011101001;
3696	:0011101001;
3697	:0011101001;
3698	:0011101001;
3699	:0100100101;
3700	:0100100101;
3701	:0100100101;
3702	:0100100101;
3703	:0011101001;
3704	:0011101001;
3705	:0011101001;
3706	:0011101001;
3707	:0100100101;
3708	:0100100101;
3709	:0100100101;
3710	:0100100101;
3711	:0101011101;
3712	:0101011101;
3713	:0101011101;
3714	:0101011101;
3715	:0101011101;
3716	:0101011101;
3717	:0101011101;
3718	:0101011101;
3719	:0101011101;
3720	:0101011101;
3721	:0101011101;
3722	:0101011101;
3723	:0101011101;
3724	:0100110111;
3725	:0100110111;
3726	:0100110111;
3727	:0100110111;
3728	:0100110111;
3729	:0100110111;
3730	:0100110111;
3731	:0100110111;
3732	:0100110111;
3733	:0100110111;
3734	:0100010101;
3735	:0100010101;
3736	:0100010101;
3737	:0100010101;
3738	:0100010101;
3739	:0100010101;
3740	:0100010101;
3741	:0100010101;
3742	:0100010101;
3743	:0100010101;
3744	:0100010101;
3745	:0100010101;
3746	:0100010101;
3747	:0100010101;
3748	:0100010101;
3749	:0100110111;
3750	:0100110111;
3751	:0100110111;
3752	:0100110111;
3753	:0100110111;
3754	:0100110111;
3755	:0100110111;
3756	:0100110111;
3757	:0100010101;
3758	:0100010101;
3759	:0100110111;
3760	:0100110111;
3761	:0100110111;
3762	:0100110111;
3763	:0100110111;
3764	:0100110111;
3765	:0100110111;
3766	:0100010101;
3767	:0100010101;
3768	:0100010101;
3769	:0100010101;
3770	:0011101001;
3771	:0011101001;
3772	:0011101001;
3773	:0011101001;
3774	:0010111000;
3775	:0010111000;
3776	:0010111000;
3777	:0010111000;
3778	:0011000011;
3779	:0011000011;
3780	:0011000011;
3781	:0011000011;
3782	:0011001111;
3783	:0011001111;
3784	:0001111011;
3785	:0001111011;
3786	:0011001111;
3787	:0011001111;
3788	:0001111011;
3789	:0001111011;
3790	:0001111011;
3791	:0001111011;
3792	:0001111011;
3793	:0001111011;
3794	:0001111011;
3795	:0011001111;
3796	:0011001111;
3797	:0011001111;
3798	:0011001111;
3799	:0011101001;
3800	:0011101001;
3801	:0101110001;
3802	:0101110001;
3803	:0101110001;
3804	:0101110001;
3805	:0101011101;
3806	:0101011101;
3807	:0101011101;
3808	:0101011101;
3809	:0100010101;
3810	:0100010101;
3811	:0100010101;
3812	:0100010101;
3813	:0100010101;
3814	:0100010101;
3815	:0100010101;
3816	:0100010101;
3817	:0100010101;
3818	:0100010101;
3819	:0100010101;
3820	:0100010101;
3821	:0100010101;
3822	:0100010101;
3823	:0100010101;
3824	:0100010101;
3825	:0100010101;
3826	:0100010101;
3827	:0100010101;
3828	:0100010101;
3829	:0100010101;
3830	:0100010101;
3831	:0100010101;
3832	:0100010101;
3833	:0100010101;
3834	:0100010101;
3835	:0100010101;
3836	:0100010101;
3837	:0100010101;
3838	:0100010101;
3839	:0100010101;
3840	:0100010101;
3841	:0100010101;
3842	:0100010101;
3843	:0100010101;
3844	:0100010101;
3845	:0100010101;
3846	:0100010101;
3847	:0100010101;
3848	:0100010101;
3849	:0100010101;
3850	:0100010101;
3851	:0100010101;
3852	:0100010101;
3853	:0100010101;
3854	:0100010101;
3855	:0100010101;
3856	:0100010101;
3857	:0100010101;
3858	:0100010101;
3859	:0100010101;
3860	:0100010101;
3861	:0100010101;
3862	:0100010101;
3863	:0100010101;
3864	:0100010101;
3865	:0100010101;
3866	:0100010101;
3867	:0100010101;
3868	:0100010101;
3869	:0100010101;
3870	:0100010101;
3871	:0100010101;
3872	:0100010101;
3873	:0100010101;
3874	:0100010101;
3875	:0100010101;
3876	:0100010101;
3877	:0100010101;
3878	:0100010101;
3879	:0100010101;
3880	:0100010101;
3881	:0100010101;
3882	:0100010101;
3883	:0100010101;
3884	:0100010101;
3885	:0100010101;
3886	:0100010101;
3887	:0100010101;
3888	:0100010101;
3889	:0100010101;
3890	:0100010101;
3891	:0100010101;
3892	:0100010101;
3893	:0100010101;
3894	:0100010101;
3895	:0100010101;
3896	:0100010101;
3897	:0100010101;
3898	:0100010101;
3899	:0100010101;
3900	:0100010101;
3901	:0100010101;
3902	:0100010101;
3903	:0100010101;
3904	:0100010101;
3905	:0100010101;
3906	:0100010101;
3907	:0100010101;
3908	:0100010101;
3909	:0100010101;
3910	:0100010101;
3911	:0011000011;
3912	:0011000011;
3913	:0011000011;
3914	:0011000011;
3915	:0011000011;
3916	:0011000011;
3917	:0011000011;
3918	:0011011100;
3919	:0011011100;
3920	:0011011100;
3921	:0011011100;
3922	:0011011100;
3923	:0011011100;
3924	:0011011100;
3925	:0011011100;
3926	:0011011100;
3927	:0011011100;
3928	:0011011100;
3929	:0011011100;
3930	:0011011100;
3931	:0011011100;
3932	:0011011100;
3933	:0011011100;
3934	:0011011100;
3935	:0011011100;
3936	:0011011100;
3937	:0011011100;
3938	:0011101001;
3939	:0011101001;
3940	:0011101001;
3941	:0011101001;
3942	:0011101001;
3943	:0011011100;
3944	:0011011100;
3945	:0011011100;
3946	:0011011100;
3947	:0011000011;
3948	:0011000011;
3949	:0011000011;
3950	:0011000011;
3951	:0010101110;
3952	:0010101110;
3953	:0010101110;
3954	:0010101110;
3955	:0010101110;
3956	:0010101110;
3957	:0010101110;
3958	:0010101110;
3959	:0010101110;
3960	:0010101110;
3961	:0010101110;
3962	:0010101110;
3963	:0010010010;
3964	:0010010010;
3965	:0010010010;
3966	:0010010010;
3967	:0010010010;
3968	:0010101110;
3969	:0010101110;
3970	:0010101110;
3971	:0010101110;
3972	:0010101110;
3973	:0010101110;
3974	:0011000011;
3975	:0011000011;
3976	:0011000011;
3977	:0011000011;
3978	:0011000011;
3979	:0011000011;
3980	:0011000011;
3981	:0011000011;
3982	:0011000011;
3983	:0011000011;
3984	:0011011100;
3985	:0011011100;
3986	:0011011100;
3987	:0011011100;
3988	:0011011100;
3989	:0011011100;
3990	:0011011100;
3991	:0011011100;
3992	:0011011100;
3993	:0011011100;
3994	:0011011100;
3995	:0011011100;
3996	:0011011100;
3997	:0011011100;
3998	:0011011100;
3999	:0011011100;
4000	:0011011100;
4001	:0011011100;
4002	:0011011100;
4003	:0011011100;
4004	:0011011100;
4005	:0100000101;
4006	:0100000101;
4007	:0100000101;
4008	:0100000101;
4009	:0100100101;
4010	:0100100101;
4011	:0100100101;
4012	:0100100101;
4013	:0011000011;
4014	:0011000011;
4015	:0011000011;
4016	:0011000011;
4017	:0011000011;
4018	:0010101110;
4019	:0010101110;
4020	:0010101110;
4021	:0010101110;
4022	:0010101110;
4023	:0010101110;
4024	:0010101110;
4025	:0010101110;
4026	:0011011100;
4027	:0011011100;
4028	:0011011100;
4029	:0011011100;
4030	:0010010010;
4031	:0010010010;
4032	:0010010010;
4033	:0010010010;
4034	:0010101110;
4035	:0010101110;
4036	:0010101110;
4037	:0010101110;
4038	:0010101110;
4039	:0010101110;
4040	:0010101110;
4041	:0010101110;
4042	:0010101110;
4043	:0011101001;
4044	:0011101001;
4045	:0011101001;
4046	:0011101001;
4047	:0011101001;
4048	:0011101001;
4049	:0011101001;
4050	:0011101001;
4051	:0011011100;
4052	:0011011100;
4053	:0011011100;
4054	:0011011100;
4055	:0011011100;
4056	:0011011100;
4057	:0011011100;
4058	:0011011100;
4059	:0011000011;
4060	:0011000011;
4061	:0011000011;
4062	:0011000011;
4063	:0011000011;
4064	:0011000011;
4065	:0011000011;
4066	:0011000011;
4067	:0011000011;
4068	:0010101110;
4069	:0010101110;
4070	:0010101110;
4071	:0010101110;
4072	:0011000011;
4073	:0011000011;
4074	:0011000011;
4075	:0011000011;
4076	:0011011100;
4077	:0011011100;
4078	:0011011100;
4079	:0011011100;
4080	:0011000011;
4081	:0011000011;
4082	:0011000011;
4083	:0011000011;
4084	:0011011100;
4085	:0011011100;
4086	:0011011100;
4087	:0011011100;
4088	:0011011100;
4089	:0011011100;
4090	:0011011100;
4091	:0011011100;
4092	:0011011100;
4093	:0011011100;
4094	:0011011100;
4095	:0011011100;
4096	:0011011100;
4097	:0011011100;
4098	:0011011100;
4099	:0011011100;
4100	:0011011100;
4101	:0011011100;
4102	:0011011100;
4103	:0011011100;
4104	:0011011100;
4105	:0011011100;
4106	:0100110111;
4107	:0100110111;
4108	:0100110111;
4109	:0100110111;
4110	:0100010101;
4111	:0100010101;
4112	:0100010101;
4113	:0100010101;
4114	:0101011101;
4115	:0101011101;
4116	:0101011101;
4117	:0101011101;
4118	:0101011101;
4119	:0101011101;
4120	:0101011101;
4121	:0101011101;
4122	:0101011101;
4123	:0101110001;
4124	:0101110001;
4125	:0101110001;
4126	:0101110001;
4127	:0100110111;
4128	:0100110111;
4129	:0100110111;
4130	:0100110111;
4131	:0110011111;
4132	:0110011111;
4133	:0110011111;
4134	:0110011111;
4135	:0110011111;
4136	:0110011111;
4137	:0110011111;
4138	:0110011111;
4139	:0111010010;
4140	:0111010010;
4141	:0111010010;
4142	:0111010010;
4143	:0111010010;
4144	:1000101010;
4145	:1000101010;
4146	:1000101010;
4147	:1000101010;
4148	:1001101110;
4149	:1001101110;
4150	:1001101110;
4151	:1001101110;
4152	:1011100011;
4153	:1011100011;
4154	:1011100011;
4155	:1011100011;
4156	:1010111010;
4157	:1010111010;
4158	:1010111010;
4159	:1010111010;
4160	:1001101110;
4161	:1001101110;
4162	:1001101110;
4163	:1001101110;
4164	:1001101110;
4165	:1001101110;
4166	:1001101110;
4167	:1001101110;
4168	:1001101110;
4169	:1000101010;
4170	:1000101010;
4171	:1000101010;
4172	:1000101010;
4173	:1000101010;
4174	:1000101010;
4175	:1000101010;
4176	:1000101010;
4177	:1001101110;
4178	:1001101110;
4179	:1001101110;
4180	:1001101110;
4181	:1001101110;
4182	:1001101110;
4183	:1001101110;
4184	:1001101110;
4185	:1011100011;
4186	:1011100011;
4187	:1011100011;
4188	:1011100011;
4189	:1010111010;
4190	:1010111010;
4191	:1010111010;
4192	:1010111010;
4193	:1010111010;
4194	:1010111010;
4195	:1010111010;
4196	:1010111010;
4197	:1010111010;
4198	:1011100011;
4199	:1011100011;
4200	:1011100011;
4201	:1011100011;
4202	:1011100011;
4203	:1011100011;
4204	:1011100011;
4205	:1011100011;
4206	:1011100011;
4207	:1011100011;
4208	:1011100011;
4209	:1011100011;
4210	:1011100011;
4211	:1011100011;
4212	:1011100011;
4213	:1011100011;
4214	:1011100011;
4215	:1011100011;
4216	:1011100011;
4217	:1011100011;
4218	:1011100011;
4219	:1011100011;
4220	:1011100011;
4221	:1011100011;
4222	:1011100011;
4223	:1011100011;
4224	:1011100011;
4225	:1011100011;
4226	:1011100011;
4227	:1011100011;
4228	:1011100011;
4229	:1011100011;
4230	:1011100011;
4231	:1011100011;
4232	:1011100011;
4233	:1011100011;
4234	:1011100011;
4235	:1100111110;
4236	:1100111110;
4237	:1100111110;
4238	:1100111110;
4239	:1100111110;
4240	:1100111110;
4241	:1100111110;
4242	:1100111110;
4243	:1100111110;
4244	:1001101110;
4245	:1001101110;
4246	:1001101110;
4247	:1001101110;
4248	:1001101110;
4249	:1001101110;
4250	:1001101110;
4251	:1001101110;
4252	:1011100011;
4253	:1011100011;
4254	:1011100011;
4255	:1011100011;
4256	:1100111110;
4257	:1100111110;
4258	:1100111110;
4259	:1100111110;
4260	:1011100011;
4261	:1011100011;
4262	:1011100011;
4263	:1011100011;
4264	:1010111010;
4265	:1010111010;
4266	:1010111010;
4267	:1010111010;
4268	:1010111010;
4269	:1010111010;
4270	:1010111010;
4271	:1010111010;
4272	:1010111010;
4273	:1010111010;
4274	:1010111010;
4275	:1010111010;
4276	:1010111010;
4277	:1010111010;
4278	:1010111010;
4279	:1010111010;
4280	:1010111010;
4281	:1010111010;
4282	:1010111010;
4283	:1010111010;
4284	:1010111010;
4285	:0110011111;
4286	:0110011111;
4287	:0110011111;
4288	:0110011111;
4289	:0101110001;
4290	:0101110001;
4291	:0101110001;
4292	:0101110001;
4293	:0101110001;
4294	:1011100011;
4295	:1011100011;
4296	:1011100011;
4297	:1011100011;
4298	:1010111010;
4299	:1010111010;
4300	:1010111010;
4301	:1010111010;
4302	:1000101010;
4303	:1000101010;
4304	:1000101010;
4305	:1000101010;
4306	:1000101010;
4307	:1000101010;
4308	:1000101010;
4309	:1000101010;
4310	:1000101010;
4311	:1000101010;
4312	:1000101010;
4313	:1000101010;
4314	:0100110111;
4315	:0100110111;
4316	:0100110111;
4317	:0100110111;
4318	:0100110111;
4319	:0100110111;
4320	:0100110111;
4321	:0100110111;
4322	:0100110111;
4323	:0100110111;
4324	:0100110111;
4325	:0100010101;
4326	:0100010101;
4327	:0100010101;
4328	:0100010101;
4329	:0100010101;
4330	:0100010101;
4331	:0100010101;
4332	:0100010101;
4333	:0100010101;
4334	:0100010101;
4335	:0100010101;
4336	:0100010101;
4337	:0100010101;
4338	:0100010101;
4339	:0100110111;
4340	:0100110111;
4341	:0100110111;
4342	:0100110111;
4343	:0100110111;
4344	:0100110111;
4345	:0100110111;
4346	:0100110111;
4347	:0100110111;
4348	:0100010101;
4349	:0100010101;
4350	:0100110111;
4351	:0100110111;
4352	:0100110111;
4353	:0100110111;
4354	:0100110111;
4355	:0100110111;
4356	:0100010101;
4357	:0100010101;
4358	:0100010101;
4359	:0100010101;
4360	:0011101001;
4361	:0011101001;
4362	:0011101001;
4363	:0011101001;
4364	:0010111000;
4365	:0010111000;
4366	:0010111000;
4367	:0010111000;
4368	:0010111000;
4369	:0011000011;
4370	:0011000011;
4371	:0011000011;
4372	:0011000011;
4373	:0011001111;
4374	:0011001111;
4375	:0001111011;
4376	:0001111011;
4377	:0011001111;
4378	:0011001111;
4379	:0001111011;
4380	:0001111011;
4381	:0001111011;
4382	:0001111011;
4383	:0001111011;
4384	:0001111011;
4385	:0011001111;
4386	:0011001111;
4387	:0011001111;
4388	:0011001111;
4389	:0011101001;
4390	:0011101001;
4391	:0101110001;
4392	:0101110001;
4393	:0101110001;
4394	:0101110001;
4395	:0101110001;
4396	:0101011101;
4397	:0101011101;
4398	:0101011101;
4399	:0101011101;
4400	:0100010101;
4401	:0100010101;
4402	:0100010101;
4403	:0100010101;
4404	:0100010101;
4405	:0100010101;
4406	:0100010101;
4407	:1001101110;
4408	:1001101110;
4409	:1001101110;
4410	:1001101110;
4411	:1001101110;
4412	:1001101110;
4413	:1001101110;
4414	:1001101110;
4415	:1001101110;
4416	:1001101110;
4417	:1001101110;
4418	:1001101110;
4419	:1001101110;
4420	:1001101110;
4421	:1001101110;
4422	:1001101110;
4423	:1001101110;
4424	:1001101110;
4425	:1001101110;
4426	:1001101110;
4427	:1001101110;
4428	:1001101110;
4429	:1001101110;
4430	:1001101110;
4431	:1001101110;
4432	:1001101110;
4433	:1001101110;
4434	:1001101110;
4435	:1001101110;
4436	:1001101110;
4437	:1001101110;
4438	:1001101110;
4439	:1001101110;
4440	:1001101110;
4441	:1001101110;
4442	:1001101110;
4443	:1001101110;
4444	:1001101110;
4445	:1001101110;
4446	:1001101110;
4447	:1001101110;
4448	:1001101110;
4449	:1001101110;
4450	:1001101110;
4451	:1001101110;
4452	:1001101110;
4453	:1001101110;
4454	:1001101110;
4455	:1001101110;
4456	:1001101110;
4457	:1001101110;
4458	:1001101110;
4459	:1001101110;
4460	:1001101110;
4461	:1001101110;
4462	:1001101110;
4463	:1001101110;
4464	:1001101110;
4465	:1001101110;
4466	:1001101110;
4467	:1001101110;
4468	:1001101110;
4469	:1001101110;
4470	:1001101110;
4471	:1001101110;
4472	:1001101110;
4473	:1001101110;
4474	:1001101110;
4475	:1001101110;
END;