DEPTH = 2048;
WIDTH = 13;
ADDRESS_RADIX=DEC;
DATA_RADIX=BIN;

CONTENT
BEGIN
0000	:1111111111110;
0001	:1111111111110;
0002	:1111111111110;
0003	:1111111111110;
0004	:1111111111110;
0005	:1111111111110;
0006	:1111111111110;
0007	:0011011010100;
0008	:0011011010100;
0009	:0011011010100;
0010	:0011011010100;
0011	:0001000100011;
0012	:0001000100011;
0013	:0001000100011;
0014	:0011011010100;
0015	:0011011010101;
0016	:0011011010100;
0017	:0011011010100;
0018	:1111111111110;
0019	:1111111111110;
0020	:1111111111110;
0021	:1111111111110;
0022	:1111111111110;
0023	:1111111111110;
0024	:1111111111110;
0025	:1111111111110;
0026	:1111111111110;
0027	:1111111111110;
0028	:1111111111110;
0029	:1111111111110;
0030	:1111111111110;
0031	:1111111111110;
0032	:1111111111110;
0033	:1111111111110;
0034	:1111111111110;
0035	:1111111111110;
0036	:1111111111110;
0037	:0011011010100;
0038	:0011011010100;
0039	:0011011010100;
0040	:0001000100011;
0041	:0001000100011;
0042	:0101101011111;
0043	:0111110111111;
0044	:0101101011111;
0045	:0001000100011;
0046	:0001000100011;
0047	:0011011010101;
0048	:0011011010100;
0049	:0011011010100;
0050	:1111111111110;
0051	:1111111111110;
0052	:1111111111110;
0053	:1111111111110;
0054	:1111111111110;
0055	:1111111111110;
0056	:1111111111110;
0057	:1111111111110;
0058	:1111111111110;
0059	:1111111111110;
0060	:1111111111110;
0061	:1111111111110;
0062	:1111111111110;
0063	:1111111111110;
0064	:0011011010100;
0065	:0011011010100;
0066	:0011011010100;
0067	:0011011010100;
0068	:0011011010100;
0069	:0011011010100;
0070	:0001000100011;
0071	:0010001110001;
0072	:0010001110001;
0073	:0001000100011;
0074	:0101101011111;
0075	:0111110111111;
0076	:0111110111111;
0077	:0010001110001;
0078	:0001000100011;
0079	:0011011010101;
0080	:0011011010100;
0081	:0011011010100;
0082	:1111111111110;
0083	:1111111111110;
0084	:1111111111110;
0085	:1111111111110;
0086	:1111111111110;
0087	:1111111111110;
0088	:1111111111110;
0089	:1111111111110;
0090	:1111111111110;
0091	:1111111111110;
0092	:1111111111110;
0093	:1111111111110;
0094	:0011011010100;
0095	:0011011010100;
0096	:0011011010100;
0097	:0011011010100;
0098	:0011011010100;
0099	:0011011010100;
0100	:0001000100011;
0101	:0010001110001;
0102	:0010001110001;
0103	:0000010011111;
0104	:0000100011111;
0105	:0001000100011;
0106	:0101101011111;
0107	:0111110111111;
0108	:0101101011111;
0109	:0010001110001;
0110	:0001000100011;
0111	:0011011010100;
0112	:0011011010100;
0113	:1111111111110;
0114	:1111111111110;
0115	:1111111111110;
0116	:1111111111110;
0117	:1111111111110;
0118	:1111111111110;
0119	:1111111111110;
0120	:1111111111110;
0121	:1111111111110;
0122	:1111111111110;
0123	:1111111111110;
0124	:0011011010100;
0125	:0011011010100;
0126	:0011011010100;
0127	:0001000100011;
0128	:0001000100011;
0129	:0001000100011;
0130	:0011011010100;
0131	:0001000100011;
0132	:0010001110001;
0133	:0000010011111;
0134	:0000010011111;
0135	:0010001110001;
0136	:0010001110001;
0137	:1111010000011;
0138	:1111010000011;
0139	:1111010000011;
0140	:1111010000011;
0141	:0001000100011;
0142	:0011011010100;
0143	:0011011010100;
0144	:0011011010100;
0145	:1111111111110;
0146	:1111111111110;
0147	:1111111111110;
0148	:1111111111110;
0149	:1111111111110;
0150	:1111111111110;
0151	:1111111111110;
0152	:1111111111110;
0153	:1111111111110;
0154	:1111111111110;
0155	:0011011010100;
0156	:0011011010100;
0157	:0001000100011;
0158	:1001100110011;
0159	:1110111011101;
0160	:1110111011101;
0161	:0001000100011;
0162	:0010001110001;
0163	:0000010011111;
0164	:0001000100011;
0165	:0101101011111;
0166	:0101101011111;
0167	:0101101011111;
0168	:0010001110001;
0169	:1111010000011;
0170	:1111111111111;
0171	:1000010000101;
0172	:0001000100011;
0173	:0001000100011;
0174	:0011011010100;
0175	:0011011010100;
0176	:1111111111110;
0177	:1111111111110;
0178	:1111111111110;
0179	:1111111111110;
0180	:1111111111110;
0181	:1111111111110;
0182	:1111111111110;
0183	:1111111111110;
0184	:1111111111110;
0185	:1111111111110;
0186	:0011011010100;
0187	:0001000100011;
0188	:1001100110011;
0189	:1110111011101;
0190	:1110111011101;
0191	:1110111011101;
0192	:0001000100011;
0193	:0001000100011;
0194	:0001000100011;
0195	:0101101011111;
0196	:0101101011111;
0197	:0101101011111;
0198	:0101101011111;
0199	:0101101011111;
0200	:0010001110001;
0201	:1111010000011;
0202	:0010001110001;
0203	:0101101011111;
0204	:0001000100011;
0205	:0011011010100;
0206	:0011011010100;
0207	:1111111111110;
0208	:0011011010100;
0209	:0011011010100;
0210	:0011011010100;
0211	:0011011010100;
0212	:0011011010100;
0213	:0011011010100;
0214	:0011011010100;
0215	:1111111111110;
0216	:1111111111110;
0217	:0011011010100;
0218	:0001000100011;
0219	:1001100110011;
0220	:1110111011101;
0221	:1110111011101;
0222	:0001000100011;
0223	:1110111011101;
0224	:0001000100011;
0225	:1001100110011;
0226	:0001000100011;
0227	:0101101011111;
0228	:0001000100011;
0229	:0001000100011;
0230	:0001010110111;
0231	:0101101011111;
0232	:0010001110001;
0233	:0101101011111;
0234	:0001000100011;
0235	:0001000100011;
0236	:0011011010100;
0237	:0011011010100;
0238	:0011011010100;
0239	:0011011010100;
0240	:0011011010100;
0241	:0011011010100;
0242	:1111111111110;
0243	:0011011010100;
0244	:0011011010100;
0245	:0011011010100;
0246	:0011011010100;
0247	:0011011010100;
0248	:0011011010101;
0249	:0001000100011;
0250	:1001100110011;
0251	:1001100110011;
0252	:0001000100011;
0253	:1001100110011;
0254	:0001000100011;
0255	:1111010000011;
0256	:0001000100011;
0257	:0001000100011;
0258	:1000010000101;
0259	:1011011001001;
0260	:1111111111111;
0261	:1011011001001;
0262	:0001000100011;
0263	:0101101011111;
0264	:1110111011101;
0265	:0001000100011;
0266	:0001000100011;
0267	:0011011010100;
0268	:0011011010100;
0269	:0011011010100;
0270	:0011011010100;
0271	:0001000100011;
0272	:0001000100011;
0273	:0001000100011;
0274	:0001000100011;
0275	:0001000100011;
0276	:0011011010100;
0277	:0011011010100;
0278	:0011011010100;
0279	:0001000100011;
0280	:0000010011111;
0281	:0001000100011;
0282	:1001100110011;
0283	:1001100110011;
0284	:0001000100011;
0285	:0001000100011;
0286	:0001000100011;
0287	:0001000100011;
0288	:0001000100011;
0289	:1000010000101;
0290	:1111101110001;
0291	:1111111111111;
0292	:0001000100011;
0293	:1111101110001;
0294	:0001000100011;
0295	:0001000100011;
0296	:0001000100011;
0297	:0001010110111;
0298	:0001000100011;
0299	:0001000100011;
0300	:0001000100011;
0301	:0001000100011;
0302	:0000010011111;
0303	:0000100011111;
0304	:0000100011111;
0305	:0000100011111;
0306	:0000010011111;
0307	:0001000100011;
0308	:0001000100011;
0309	:0011011010101;
0310	:0001000100011;
0311	:0000100011111;
0312	:0000010011111;
0313	:0001000100011;
0314	:0001000100011;
0315	:0111110111111;
0316	:0001000100011;
0317	:0000100011111;
0318	:0000010011111;
0319	:0001000100011;
0320	:1000010000101;
0321	:1111101110001;
0322	:1111101110001;
0323	:0001000100011;
0324	:1111101110001;
0325	:0001000100011;
0326	:0001000100011;
0327	:0001000100011;
0328	:0111110111111;
0329	:0111110111111;
0330	:0111110111111;
0331	:0001000100011;
0332	:0000010011111;
0333	:0000100011111;
0334	:1110111011101;
0335	:1110111011101;
0336	:0000100011111;
0337	:0001000100011;
0338	:0001000100011;
0339	:1000010000101;
0340	:0001000100011;
0341	:0001000100011;
0342	:0000100011111;
0343	:0000100011111;
0344	:0000010011111;
0345	:0001000100011;
0346	:0111110111111;
0347	:0101101011111;
0348	:0001000100011;
0349	:0000100011111;
0350	:0001000100011;
0351	:1000010000101;
0352	:1111101110001;
0353	:1111101110001;
0354	:1111101110001;
0355	:1111101110001;
0356	:1111101110001;
0357	:0001000100011;
0358	:0101101011111;
0359	:0111110111111;
0360	:0111110111111;
0361	:0111110111111;
0362	:0001000100011;
0363	:0010001110001;
0364	:0000010011111;
0365	:0000100011111;
0366	:0000100011111;
0367	:0000100011111;
0368	:0001000100011;
0369	:0001000100011;
0370	:1111010000011;
0371	:0001000100011;
0372	:0001000100011;
0373	:0000010011111;
0374	:0000010011111;
0375	:0001000100011;
0376	:0101101011111;
0377	:0111110111111;
0378	:0101101011111;
0379	:0001000100011;
0380	:0000100011111;
0381	:0001000100011;
0382	:0001000100011;
0383	:1011011001001;
0384	:1111101110001;
0385	:0001000100011;
0386	:1111101110001;
0387	:1011011001001;
0388	:0001000100011;
0389	:0001010110111;
0390	:0101101011111;
0391	:0101101011111;
0392	:0001010110111;
0393	:0010001110001;
0394	:0010001110001;
0395	:0010001110001;
0396	:0010001110001;
0397	:0010001110001;
0398	:0010001110001;
0399	:0001000100011;
0400	:0001000100011;
0401	:1000010000101;
0402	:0001000100011;
0403	:0011011010100;
0404	:0001000100011;
0405	:0001000100011;
0406	:0001000100011;
0407	:0001000100011;
0408	:0001000100011;
0409	:0001000100011;
0410	:0001000100011;
0411	:0001000100011;
0412	:0010001110001;
0413	:0000010011111;
0414	:0001000100011;
0415	:1011011001001;
0416	:1111101110001;
0417	:1000010000101;
0418	:0001000100011;
0419	:0001000100011;
0420	:0001000100011;
0421	:0001000100011;
0422	:0001000100011;
0423	:0001000100011;
0424	:0001000100011;
0425	:0001000100011;
0426	:0010001110001;
0427	:0010001110001;
0428	:0010001101111;
0429	:0001001001111;
0430	:0010001001111;
0431	:0001000100011;
0432	:0001000100011;
0433	:0011011010100;
0434	:0011011010100;
0435	:0011011010100;
0436	:0011011010100;
0437	:0011011010100;
0438	:0011011010100;
0439	:0011011010100;
0440	:0001000100011;
0441	:0010001110001;
0442	:0010001110001;
0443	:0010001110001;
0444	:0000010011111;
0445	:0000010011111;
0446	:0001000100011;
0447	:0001000100011;
0448	:0001000100011;
0449	:0000010011101;
0450	:0000000000001;
0451	:0010010010001;
0452	:0011011010101;
0453	:0011011010100;
0454	:0011011010101;
0455	:0011011010100;
0456	:0011011010100;
0457	:0001000100011;
0458	:0000000000001;
0459	:0000000000001;
0460	:0000000000001;
0461	:0000000000001;
0462	:0010010110011;
0463	:0011011010100;
0464	:0011011010100;
0465	:0011011010100;
0466	:0011011010100;
0467	:0011011010100;
0468	:0011011010100;
0469	:0011011010100;
0470	:0011011010100;
0471	:0011011010100;
0472	:0001000100011;
0473	:0010001110001;
0474	:0010001110001;
0475	:0000010011111;
0476	:0000100011111;
0477	:0000100011111;
0478	:0000100011111;
0479	:0000100011111;
0480	:0000001111011;
0481	:0000000000001;
0482	:0001001000110;
0483	:0011011010101;
0484	:0011011010100;
0485	:0011011010100;
0486	:0011011010100;
0487	:0011011010100;
0488	:0010010001110;
0489	:0010001101100;
0490	:0001001101100;
0491	:0010010010000;
0492	:0010010001110;
0493	:0011011010100;
0494	:0011011010100;
0495	:0011011010100;
0496	:1111111111110;
0497	:0011011010100;
0498	:0011011010100;
0499	:0011011010100;
0500	:0011011010100;
0501	:0011011010100;
0502	:0011011010100;
0503	:0011011010100;
0504	:0001000100011;
0505	:0001000100011;
0506	:0010001110001;
0507	:0000010011111;
0508	:0000100011111;
0509	:0000100011111;
0510	:0000010011111;
0511	:0001000100011;
0512	:0010010110011;
0513	:0011011010101;
0514	:0011011010100;
0515	:0011011010100;
0516	:0011011010100;
0517	:0011011010100;
0518	:0011011010100;
0519	:0011011010100;
0520	:0011011010100;
0521	:0011011010100;
0522	:0011011010100;
0523	:0011011010100;
0524	:0011011010100;
0525	:0000000000000;
0526	:1111111111110;
0527	:1111111111110;
0528	:1111111111110;
0529	:1111111111110;
0530	:1111111111110;
0531	:1111111111110;
0532	:1111111111110;
0533	:0011011010100;
0534	:0011011010100;
0535	:0001000100011;
0536	:0001010110111;
0537	:0001000100011;
0538	:0001000100011;
0539	:0001000100011;
0540	:0001000100011;
0541	:0001000100011;
0542	:0001000100011;
0543	:0001000100011;
0544	:0001000100011;
0545	:0001000100011;
0546	:0001000100011;
0547	:0001000100011;
0548	:0001000100011;
0549	:0011011010100;
0550	:0011011010100;
0551	:0011011010100;
0552	:0000000000000;
0553	:0000000000000;
0554	:0000000000000;
0555	:0000000000000;
0556	:1111111111110;
0557	:1111111111110;
0558	:1111111111110;
0559	:1111111111110;
0560	:1111111111110;
0561	:1111111111110;
0562	:1111111111110;
0563	:1111111111110;
0564	:1111111111110;
0565	:0011011010100;
0566	:0011011010100;
0567	:0001000100011;
0568	:0001010110111;
0569	:0101101011111;
0570	:0111110111111;
0571	:0111110111111;
0572	:0001000100011;
0573	:0001000100011;
0574	:0101101011111;
0575	:0111110111111;
0576	:0111110111111;
0577	:0111110111111;
0578	:0001000100011;
0579	:0010001110001;
0580	:0001000100011;
0581	:0011011010100;
0582	:0011011010100;
0583	:1111111111110;
0584	:1111111111110;
0585	:1111111111110;
0586	:1111111111110;
0587	:1111111111110;
0588	:1111111111110;
0589	:1111111111110;
0590	:1111111111110;
0591	:1111111111110;
0592	:1111111111110;
0593	:1111111111110;
0594	:1111111111110;
0595	:1111111111110;
0596	:0011011010100;
0597	:0011011010100;
0598	:0001000100011;
0599	:0001000100011;
0600	:0001000100011;
0601	:0001000100011;
0602	:0001000100011;
0603	:0000010011111;
0604	:0001000100011;
0605	:0111110111111;
0606	:0111110111111;
0607	:0111110111111;
0608	:0101101011111;
0609	:0001000100011;
0610	:0010001110001;
0611	:0010001110001;
0612	:0011011010100;
0613	:0011011010100;
0614	:0011011010100;
0615	:1111111111110;
0616	:1111111111110;
0617	:1111111111110;
0618	:1111111111110;
0619	:1111111111110;
0620	:1111111111110;
0621	:1111111111110;
0622	:1111111111110;
0623	:1111111111110;
0624	:1111111111110;
0625	:1111111111110;
0626	:1111111111110;
0627	:1111111111110;
0628	:0011011010100;
0629	:0001000100011;
0630	:0000010011111;
0631	:0001000100011;
0632	:0101101011111;
0633	:0101101011111;
0634	:0001000100011;
0635	:0001000100011;
0636	:0101101011111;
0637	:0101101011111;
0638	:0101101011111;
0639	:0001000100011;
0640	:0010001110001;
0641	:0010001110001;
0642	:0000010011111;
0643	:0001000100011;
0644	:0011011010100;
0645	:0011011010100;
0646	:1111111111110;
0647	:1111111111110;
0648	:1111111111110;
0649	:1111111111110;
0650	:1111111111110;
0651	:1111111111110;
0652	:1111111111110;
0653	:1111111111110;
0654	:1111111111110;
0655	:1111111111110;
0656	:1111111111110;
0657	:1111111111110;
0658	:1111111111110;
0659	:0011011010100;
0660	:0001000100011;
0661	:0001000100011;
0662	:0101101011111;
0663	:0111110111111;
0664	:0111110111111;
0665	:0101101011111;
0666	:0001000100011;
0667	:0001010110111;
0668	:0001010110111;
0669	:0001000100011;
0670	:0010001110001;
0671	:0010001110001;
0672	:0000010011111;
0673	:0000010011111;
0674	:0001000100011;
0675	:0011011010101;
0676	:0011011010100;
0677	:0011011010100;
0678	:1111111111110;
0679	:1111111111110;
0680	:1111111111110;
0681	:1111111111110;
0682	:1111111111110;
0683	:1111111111110;
0684	:1111111111110;
0685	:1111111111110;
0686	:1111111111110;
0687	:1111111111110;
0688	:1111111111110;
0689	:1111111111110;
0690	:0011011010100;
0691	:1111111111110;
0692	:0001000100011;
0693	:0101101011111;
0694	:0111110111111;
0695	:0111110111111;
0696	:0111110111111;
0697	:0101101011111;
0698	:0001000100011;
0699	:0001000100011;
0700	:0001000100011;
0701	:0010001110001;
0702	:0010001110001;
0703	:0000010011111;
0704	:0000010011111;
0705	:0010001110001;
0706	:0001000100011;
0707	:0011011010100;
0708	:0011011010100;
0709	:0011011010100;
0710	:0011011010100;
0711	:0011011010100;
0712	:1111111111110;
0713	:1111111111110;
0714	:1111111111110;
0715	:1111111111110;
0716	:1111111111110;
0717	:1111111111110;
0718	:1111111111110;
0719	:1111111111110;
0720	:1111111111110;
0721	:0011011010100;
0722	:0011011010100;
0723	:0001000100011;
0724	:0001010110111;
0725	:0101101011111;
0726	:0111110111111;
0727	:0001000100011;
0728	:0001000100011;
0729	:0001000100011;
0730	:0011011010101;
0731	:0001000100011;
0732	:0010001110001;
0733	:0010001110001;
0734	:0010001110001;
0735	:0000010011111;
0736	:0000010011111;
0737	:0001000100011;
0738	:0011011010101;
0739	:0011011010100;
0740	:0011011010100;
0741	:0011011010100;
0742	:0011011010100;
0743	:0011011010100;
0744	:1111111111110;
0745	:1111111111110;
0746	:1111111111110;
0747	:1111111111110;
0748	:1111111111110;
0749	:1111111111110;
0750	:1111111111110;
0751	:1111111111110;
0752	:0011011010100;
0753	:1111111111110;
0754	:0011011010101;
0755	:0001000100011;
0756	:0001010110111;
0757	:0001000100011;
0758	:0000010011111;
0759	:0000010011111;
0760	:0000010011111;
0761	:0001000100011;
0762	:0001000100011;
0763	:0010001110001;
0764	:0010001110001;
0765	:0010001110001;
0766	:0000010011111;
0767	:0000010011111;
0768	:0010001110001;
0769	:0001000100011;
0770	:0001000100011;
0771	:0001000100011;
0772	:0001000100011;
0773	:0011011010101;
0774	:0011011010100;
0775	:1111111111110;
0776	:1111111111110;
0777	:1111111111110;
0778	:1111111111110;
0779	:1111111111110;
0780	:1111111111110;
0781	:1111111111110;
0782	:1111111111110;
0783	:0011011010100;
0784	:0011011010100;
0785	:0011011010101;
0786	:0001000100011;
0787	:0001000100011;
0788	:0010001110001;
0789	:0000010011111;
0790	:0000100011111;
0791	:0000100011111;
0792	:0000010011111;
0793	:0001000100011;
0794	:0010001110001;
0795	:0010001110001;
0796	:0010001110001;
0797	:0010001110001;
0798	:0000010011111;
0799	:0010001110001;
0800	:0001000100011;
0801	:0000010011111;
0802	:0000010011111;
0803	:0000010011111;
0804	:0001000100011;
0805	:0011011010100;
0806	:1111111111110;
0807	:1111111111110;
0808	:1111111111110;
0809	:1111111111110;
0810	:1111111111110;
0811	:1111111111110;
0812	:1111111111110;
0813	:1111111111110;
0814	:1111111111110;
0815	:0011011010100;
0816	:0011011010100;
0817	:0011011010100;
0818	:0001000100011;
0819	:0010001110001;
0820	:0000010011111;
0821	:0000100011111;
0822	:0000100011111;
0823	:0000100011111;
0824	:0001000100011;
0825	:0001000100011;
0826	:0010001110001;
0827	:0010001110001;
0828	:0010001110001;
0829	:0010001110001;
0830	:0001000100011;
0831	:0000010011111;
0832	:0000010011111;
0833	:0000010011111;
0834	:0000010011111;
0835	:0001000100011;
0836	:0011011010100;
0837	:1111111111110;
0838	:1111111111110;
0839	:1111111111110;
0840	:1111111111110;
0841	:1111111111110;
0842	:1111111111110;
0843	:1111111111110;
0844	:1111111111110;
0845	:1111111111110;
0846	:1111111111110;
0847	:0011011010101;
0848	:0011011010100;
0849	:0001000100011;
0850	:0010001110001;
0851	:0000010011111;
0852	:0000100011111;
0853	:0000100011111;
0854	:0000100011111;
0855	:0000010011111;
0856	:0001000100011;
0857	:0001000100011;
0858	:0001000100011;
0859	:0001000100011;
0860	:0001000100011;
0861	:0000010011111;
0862	:0000010011111;
0863	:0000010011111;
0864	:0000010011111;
0865	:0001000100011;
0866	:0011011010100;
0867	:0011011010100;
0868	:1111111111110;
0869	:1111111111110;
0870	:1111111111110;
0871	:1111111111110;
0872	:1111111111110;
0873	:1111111111110;
0874	:1111111111110;
0875	:1111111111110;
0876	:1111111111110;
0877	:1111111111110;
0878	:0011011010100;
0879	:0011011010100;
0880	:0001000100011;
0881	:0010001110001;
0882	:0010001110001;
0883	:0000100011111;
0884	:0000100011111;
0885	:0000100011111;
0886	:0000100011111;
0887	:0001000100011;
0888	:0010001110001;
0889	:0010001110001;
0890	:0010001110001;
0891	:0010001110001;
0892	:0000010011111;
0893	:0000010011111;
0894	:0010001110001;
0895	:0001000100011;
0896	:0011011010100;
0897	:0011011010100;
0898	:0011011010100;
0899	:1111111111110;
0900	:1111111111110;
0901	:1111111111110;
0902	:1111111111110;
0903	:1111111111110;
0904	:1111111111110;
0905	:1111111111110;
0906	:1111111111110;
0907	:1111111111110;
0908	:1111111111110;
0909	:0011011010100;
0910	:0011011010100;
0911	:0001000100011;
0912	:0010001110001;
0913	:0010001110001;
0914	:0000100011111;
0915	:0000100011111;
0916	:0000100011111;
0917	:0000100011111;
0918	:0000010011111;
0919	:0001000100011;
0920	:0010001110001;
0921	:0010001110001;
0922	:0010001110001;
0923	:0010001110001;
0924	:0001000100011;
0925	:0001000100011;
0926	:0011011010100;
0927	:0011011010100;
0928	:0011011010100;
0929	:0011011010100;
0930	:1111111111110;
0931	:1111111111110;
0932	:1111111111110;
0933	:1111111111110;
0934	:1111111111110;
0935	:1111111111110;
0936	:1111111111110;
0937	:1111111111110;
0938	:1111111111110;
0939	:1111111111110;
0940	:0011011010100;
0941	:0001001000110;
0942	:0001000100110;
0943	:0001000100011;
0944	:0010001110001;
0945	:0000010011111;
0946	:0000100011111;
0947	:0000100011111;
0948	:0000100011111;
0949	:0000010011111;
0950	:0001000100011;
0951	:0001000100011;
0952	:0001000100011;
0953	:0001000100011;
0954	:0001000100011;
0955	:0011011010101;
0956	:0011011010100;
0957	:0011011010100;
0958	:0011011010100;
0959	:0011011010100;
0960	:1111111111110;
0961	:1111111111110;
0962	:1111111111110;
0963	:1111111111110;
0964	:1111111111110;
0965	:1111111111110;
0966	:1111111111110;
0967	:1111111111110;
0968	:1111111111110;
0969	:1111111111110;
0970	:1111111111110;
0971	:0011011010100;
0972	:0001001001000;
0973	:0000000000001;
0974	:0010001001111;
0975	:0010001110001;
0976	:0000010011111;
0977	:0000100011111;
0978	:0000100011111;
0979	:0001000100011;
0980	:0001000100011;
0981	:0001000100011;
0982	:0011011010101;
0983	:0011011010100;
0984	:0011011010100;
0985	:0011011010101;
0986	:0011011010100;
0987	:0011011010100;
0988	:0011011010100;
0989	:1111111111110;
0990	:1111111111110;
0991	:1111111111110;
0992	:1111111111110;
0993	:1111111111110;
0994	:1111111111110;
0995	:1111111111110;
0996	:1111111111110;
0997	:1111111111110;
0998	:1111111111110;
0999	:1111111111110;
1000	:1111111111110;
1001	:1111111111110;
1002	:0011011010100;
1003	:0011010110010;
1004	:0001000100011;
1005	:0001000100011;
1006	:0010001110001;
1007	:0010001110001;
1008	:0000010011111;
1009	:0001000100011;
1010	:0000100011111;
1011	:0000100011111;
1012	:0000010011111;
1013	:0001000100011;
1014	:0011011010100;
1015	:0011011010100;
1016	:0011011010100;
1017	:0011011010100;
1018	:0011011010100;
1019	:1111111111110;
1020	:1111111111110;
1021	:1111111111110;
1022	:1111111111110;
1023	:1111111111110;
1024	:1111111111110;
1025	:1111111111110;
1026	:1111111111110;
1027	:1111111111110;
1028	:1111111111110;
1029	:1111111111110;
1030	:1111111111110;
1031	:1111111111110;
1032	:1111111111110;
1033	:0011011010100;
1034	:0011011010100;
1035	:0001000100011;
1036	:0010001101111;
1037	:0001000100011;
1038	:0001000100011;
1039	:0001000100011;
1040	:0000100011111;
1041	:0000100011111;
1042	:0000100011111;
1043	:0000100011111;
1044	:0001000100011;
1045	:0011011010101;
1046	:0011011010100;
1047	:0011011010100;
1048	:1111111111110;
1049	:1111111111110;
1050	:1111111111110;
1051	:1111111111110;
1052	:1111111111110;
1053	:1111111111110;
1054	:1111111111110;
1055	:1111111111110;
1056	:1111111111110;
1057	:1111111111110;
1058	:1111111111110;
1059	:1111111111110;
1060	:1111111111110;
1061	:1111111111110;
1062	:1111111111110;
1063	:1111111111110;
1064	:0011011010100;
1065	:0011011010100;
1066	:0011011010101;
1067	:0001000100011;
1068	:0010001110001;
1069	:0010001110001;
1070	:0000010011111;
1071	:0000100011111;
1072	:0000100011111;
1073	:0000100011111;
1074	:0000100011111;
1075	:0000010011111;
1076	:0001000100011;
1077	:0011011010101;
1078	:0011011010100;
1079	:1111111111110;
1080	:1111111111110;
1081	:1111111111110;
1082	:1111111111110;
1083	:1111111111110;
1084	:1111111111110;
1085	:1111111111110;
1086	:1111111111110;
1087	:1111111111110;
1088	:1111111111110;
1089	:1111111111110;
1090	:1111111111110;
1091	:1111111111110;
1092	:1111111111110;
1093	:1111111111110;
1094	:1111111111110;
1095	:1111111111110;
1096	:0011011010100;
1097	:0011011010100;
1098	:0011011010100;
1099	:0001000100011;
1100	:0010001110001;
1101	:0010001110001;
1102	:0000010011111;
1103	:0000100011111;
1104	:0000100011111;
1105	:0000100011111;
1106	:0000100011111;
1107	:0001000100011;
1108	:0011011010101;
1109	:0011011010100;
1110	:1111111111110;
1111	:1111111111110;
1112	:1111111111110;
1113	:1111111111110;
1114	:1111111111110;
1115	:1111111111110;
1116	:1111111111110;
1117	:1111111111110;
1118	:1111111111110;
1119	:1111111111110;
1120	:1111111111110;
1121	:1111111111110;
1122	:1111111111110;
1123	:1111111111110;
1124	:1111111111110;
1125	:1111111111110;
1126	:1111111111110;
1127	:1111111111110;
1128	:0011011010100;
1129	:0011011010100;
1130	:0011011010101;
1131	:0001000100011;
1132	:0001000100011;
1133	:0010001110001;
1134	:0010001110001;
1135	:0000010011111;
1136	:0000010011111;
1137	:0000010011111;
1138	:0001000100011;
1139	:0011011010101;
1140	:0011011010100;
1141	:1111111111110;
1142	:1111111111110;
1143	:1111111111110;
1144	:1111111111110;
1145	:1111111111110;
1146	:1111111111110;
1147	:1111111111110;
1148	:1111111111110;
1149	:1111111111110;
1150	:1111111111110;
1151	:1111111111110;
1152	:1111111111110;
1153	:1111111111110;
1154	:1111111111110;
1155	:1111111111110;
1156	:1111111111110;
1157	:1111111111110;
1158	:1111111111110;
1159	:1111111111110;
1160	:0011011010100;
1161	:0011011010100;
1162	:0011011010100;
1163	:0011011010100;
1164	:0001000100011;
1165	:0001000100011;
1166	:0001000100011;
1167	:0001000100011;
1168	:0001000100011;
1169	:0011011010101;
1170	:0011011010100;
1171	:0011011010100;
1172	:1111111111110;
1173	:1111111111110;
1174	:1111111111110;
1175	:1111111111110;
1176	:1111111111110;
1177	:1111111111110;
END;
